<?xml version="1.0" encoding="UTF-8"?>
<svg xmlns="http://www.w3.org/2000/svg" xmlns:xlink="http://www.w3.org/1999/xlink" width="360pt" height="191pt" viewBox="0 0 360 191" version="1.1">
<defs>
<g>
<symbol overflow="visible" id="glyph0-0">
<path style="stroke:none;" d="M 1.5 0 L 1.5 -7.5 L 7.5 -7.5 L 7.5 0 Z M 1.6875 -0.1875 L 7.3125 -0.1875 L 7.3125 -7.3125 L 1.6875 -7.3125 Z M 1.6875 -0.1875 "/>
</symbol>
<symbol overflow="visible" id="glyph0-1">
<path style="stroke:none;" d="M 0.5 -4.234375 C 0.5 -5.25 0.601562 -6.070312 0.8125 -6.6875 C 1.019531 -7.308594 1.332031 -7.785156 1.742188 -8.121094 C 2.15625 -8.457031 2.671875 -8.625 3.296875 -8.625 C 3.757812 -8.625 4.164062 -8.53125 4.511719 -8.347656 C 4.859375 -8.160156 5.148438 -7.894531 5.375 -7.542969 C 5.601562 -7.195312 5.777344 -6.769531 5.90625 -6.265625 C 6.035156 -5.765625 6.101562 -5.085938 6.101562 -4.234375 C 6.101562 -3.226562 5.996094 -2.414062 5.789062 -1.796875 C 5.582031 -1.175781 5.273438 -0.699219 4.859375 -0.359375 C 4.449219 -0.0234375 3.929688 0.148438 3.296875 0.148438 C 2.46875 0.148438 1.820312 -0.148438 1.347656 -0.742188 C 0.78125 -1.457031 0.5 -2.625 0.5 -4.234375 Z M 1.582031 -4.234375 C 1.582031 -2.824219 1.746094 -1.886719 2.078125 -1.421875 C 2.40625 -0.953125 2.8125 -0.71875 3.296875 -0.71875 C 3.78125 -0.71875 4.191406 -0.953125 4.519531 -1.421875 C 4.851562 -1.890625 5.015625 -2.828125 5.015625 -4.234375 C 5.015625 -5.648438 4.851562 -6.589844 4.519531 -7.054688 C 4.191406 -7.519531 3.78125 -7.75 3.289062 -7.75 C 2.804688 -7.75 2.414062 -7.546875 2.125 -7.136719 C 1.761719 -6.613281 1.582031 -5.648438 1.582031 -4.234375 Z M 1.582031 -4.234375 "/>
</symbol>
<symbol overflow="visible" id="glyph0-2">
<path style="stroke:none;" d="M 1.089844 0 L 1.089844 -1.203125 L 2.289062 -1.203125 L 2.289062 0 Z M 1.089844 0 "/>
</symbol>
<symbol overflow="visible" id="glyph0-3">
<path style="stroke:none;" d="M 6.039062 -1.015625 L 6.039062 0 L 0.363281 0 C 0.355469 -0.253906 0.398438 -0.5 0.484375 -0.734375 C 0.628906 -1.121094 0.863281 -1.5 1.179688 -1.875 C 1.5 -2.25 1.960938 -2.683594 2.5625 -3.175781 C 3.496094 -3.941406 4.125 -4.546875 4.453125 -4.996094 C 4.78125 -5.441406 4.945312 -5.867188 4.945312 -6.265625 C 4.945312 -6.683594 4.796875 -7.035156 4.496094 -7.320312 C 4.199219 -7.609375 3.808594 -7.75 3.328125 -7.75 C 2.820312 -7.75 2.414062 -7.601562 2.109375 -7.296875 C 1.804688 -6.992188 1.648438 -6.570312 1.648438 -6.03125 L 0.5625 -6.140625 C 0.636719 -6.949219 0.914062 -7.566406 1.398438 -7.988281 C 1.882812 -8.414062 2.535156 -8.625 3.351562 -8.625 C 4.175781 -8.625 4.828125 -8.398438 5.308594 -7.9375 C 5.789062 -7.480469 6.03125 -6.914062 6.03125 -6.242188 C 6.03125 -5.898438 5.960938 -5.558594 5.820312 -5.226562 C 5.679688 -4.894531 5.445312 -4.546875 5.117188 -4.179688 C 4.792969 -3.8125 4.25 -3.304688 3.492188 -2.664062 C 2.859375 -2.132812 2.453125 -1.773438 2.273438 -1.585938 C 2.09375 -1.394531 1.945312 -1.203125 1.828125 -1.015625 Z M 6.039062 -1.015625 "/>
</symbol>
<symbol overflow="visible" id="glyph0-4">
<path style="stroke:none;" d="M 3.878906 0 L 3.878906 -2.054688 L 0.152344 -2.054688 L 0.152344 -3.023438 L 4.070312 -8.589844 L 4.933594 -8.589844 L 4.933594 -3.023438 L 6.09375 -3.023438 L 6.09375 -2.054688 L 4.933594 -2.054688 L 4.933594 0 Z M 3.878906 -3.023438 L 3.878906 -6.898438 L 1.1875 -3.023438 Z M 3.878906 -3.023438 "/>
</symbol>
<symbol overflow="visible" id="glyph0-5">
<path style="stroke:none;" d="M 5.96875 -6.484375 L 4.921875 -6.40625 C 4.828125 -6.820312 4.695312 -7.117188 4.523438 -7.304688 C 4.238281 -7.605469 3.886719 -7.757812 3.46875 -7.757812 C 3.132812 -7.757812 2.835938 -7.664062 2.585938 -7.476562 C 2.253906 -7.234375 1.992188 -6.882812 1.796875 -6.414062 C 1.605469 -5.949219 1.507812 -5.289062 1.5 -4.429688 C 1.753906 -4.816406 2.0625 -5.101562 2.429688 -5.289062 C 2.796875 -5.476562 3.183594 -5.570312 3.585938 -5.570312 C 4.289062 -5.570312 4.886719 -5.3125 5.382812 -4.796875 C 5.875 -4.277344 6.125 -3.609375 6.125 -2.789062 C 6.125 -2.25 6.007812 -1.75 5.773438 -1.285156 C 5.542969 -0.824219 5.222656 -0.46875 4.816406 -0.222656 C 4.410156 0.0234375 3.949219 0.148438 3.433594 0.148438 C 2.554688 0.148438 1.835938 -0.175781 1.28125 -0.824219 C 0.726562 -1.46875 0.453125 -2.535156 0.453125 -4.019531 C 0.453125 -5.679688 0.757812 -6.886719 1.371094 -7.640625 C 1.90625 -8.296875 2.625 -8.625 3.53125 -8.625 C 4.207031 -8.625 4.761719 -8.4375 5.195312 -8.054688 C 5.625 -7.675781 5.882812 -7.15625 5.96875 -6.484375 Z M 1.664062 -2.78125 C 1.664062 -2.417969 1.742188 -2.070312 1.894531 -1.742188 C 2.050781 -1.410156 2.265625 -1.15625 2.542969 -0.980469 C 2.820312 -0.808594 3.109375 -0.71875 3.414062 -0.71875 C 3.859375 -0.71875 4.242188 -0.898438 4.5625 -1.257812 C 4.882812 -1.617188 5.046875 -2.109375 5.046875 -2.726562 C 5.046875 -3.320312 4.886719 -3.785156 4.570312 -4.128906 C 4.253906 -4.46875 3.855469 -4.640625 3.375 -4.640625 C 2.898438 -4.640625 2.492188 -4.46875 2.164062 -4.128906 C 1.832031 -3.785156 1.664062 -3.335938 1.664062 -2.78125 Z M 1.664062 -2.78125 "/>
</symbol>
<symbol overflow="visible" id="glyph0-6">
<path style="stroke:none;" d="M 2.121094 -4.65625 C 1.683594 -4.816406 1.359375 -5.046875 1.148438 -5.34375 C 0.9375 -5.640625 0.832031 -5.996094 0.832031 -6.410156 C 0.832031 -7.035156 1.054688 -7.5625 1.507812 -7.984375 C 1.957031 -8.410156 2.554688 -8.625 3.296875 -8.625 C 4.046875 -8.625 4.652344 -8.40625 5.109375 -7.972656 C 5.566406 -7.535156 5.796875 -7.007812 5.796875 -6.382812 C 5.796875 -5.984375 5.691406 -5.636719 5.480469 -5.339844 C 5.273438 -5.046875 4.953125 -4.820312 4.53125 -4.65625 C 5.058594 -4.484375 5.457031 -4.210938 5.734375 -3.828125 C 6.007812 -3.445312 6.148438 -2.984375 6.148438 -2.453125 C 6.148438 -1.71875 5.886719 -1.101562 5.367188 -0.601562 C 4.847656 -0.101562 4.164062 0.148438 3.316406 0.148438 C 2.46875 0.148438 1.785156 -0.105469 1.265625 -0.605469 C 0.746094 -1.109375 0.484375 -1.734375 0.484375 -2.484375 C 0.484375 -3.042969 0.628906 -3.511719 0.910156 -3.886719 C 1.195312 -4.265625 1.597656 -4.523438 2.121094 -4.65625 Z M 1.910156 -6.445312 C 1.910156 -6.039062 2.039062 -5.707031 2.304688 -5.449219 C 2.566406 -5.191406 2.90625 -5.0625 3.320312 -5.0625 C 3.726562 -5.0625 4.0625 -5.191406 4.320312 -5.445312 C 4.582031 -5.703125 4.710938 -6.015625 4.710938 -6.386719 C 4.710938 -6.773438 4.578125 -7.097656 4.308594 -7.363281 C 4.042969 -7.625 3.710938 -7.757812 3.3125 -7.757812 C 2.910156 -7.757812 2.574219 -7.628906 2.308594 -7.371094 C 2.042969 -7.113281 1.910156 -6.804688 1.910156 -6.445312 Z M 1.570312 -2.476562 C 1.570312 -2.175781 1.640625 -1.886719 1.785156 -1.605469 C 1.925781 -1.324219 2.140625 -1.105469 2.421875 -0.953125 C 2.703125 -0.796875 3.003906 -0.71875 3.328125 -0.71875 C 3.832031 -0.71875 4.25 -0.882812 4.578125 -1.207031 C 4.90625 -1.53125 5.070312 -1.945312 5.070312 -2.445312 C 5.070312 -2.953125 4.898438 -3.371094 4.5625 -3.703125 C 4.222656 -4.035156 3.800781 -4.203125 3.292969 -4.203125 C 2.796875 -4.203125 2.386719 -4.039062 2.058594 -3.710938 C 1.734375 -3.382812 1.570312 -2.96875 1.570312 -2.476562 Z M 1.570312 -2.476562 "/>
</symbol>
<symbol overflow="visible" id="glyph0-7">
<path style="stroke:none;" d="M 4.46875 0 L 3.414062 0 L 3.414062 -6.71875 C 3.160156 -6.476562 2.828125 -6.234375 2.417969 -5.992188 C 2.003906 -5.75 1.632812 -5.570312 1.304688 -5.449219 L 1.304688 -6.46875 C 1.894531 -6.746094 2.414062 -7.082031 2.851562 -7.476562 C 3.292969 -7.871094 3.609375 -8.253906 3.789062 -8.625 L 4.46875 -8.625 Z M 4.46875 0 "/>
</symbol>
<symbol overflow="visible" id="glyph0-8">
<path style="stroke:none;" d="M 0.925781 0 L 0.925781 -8.589844 L 4.164062 -8.589844 C 4.734375 -8.589844 5.171875 -8.5625 5.472656 -8.507812 C 5.894531 -8.4375 6.25 -8.304688 6.53125 -8.105469 C 6.816406 -7.910156 7.046875 -7.632812 7.222656 -7.277344 C 7.394531 -6.921875 7.484375 -6.53125 7.484375 -6.105469 C 7.484375 -5.375 7.25 -4.757812 6.785156 -4.25 C 6.320312 -3.746094 5.480469 -3.492188 4.265625 -3.492188 L 2.0625 -3.492188 L 2.0625 0 Z M 2.0625 -4.507812 L 4.28125 -4.507812 C 5.015625 -4.507812 5.539062 -4.640625 5.847656 -4.914062 C 6.15625 -5.1875 6.3125 -5.574219 6.3125 -6.070312 C 6.3125 -6.429688 6.21875 -6.738281 6.039062 -6.992188 C 5.855469 -7.25 5.617188 -7.417969 5.320312 -7.5 C 5.128906 -7.550781 4.773438 -7.578125 4.257812 -7.578125 L 2.0625 -7.578125 Z M 2.0625 -4.507812 "/>
</symbol>
<symbol overflow="visible" id="glyph0-9">
<path style="stroke:none;" d="M 0.796875 0 L 0.796875 -8.589844 L 1.851562 -8.589844 L 1.851562 -3.691406 L 4.347656 -6.222656 L 5.710938 -6.222656 L 3.335938 -3.914062 L 5.953125 0 L 4.652344 0 L 2.59375 -3.179688 L 1.851562 -2.46875 L 1.851562 0 Z M 0.796875 0 "/>
</symbol>
<symbol overflow="visible" id="glyph0-10">
<path style="stroke:none;" d="M 2.425781 0 L 0.148438 -8.589844 L 1.3125 -8.589844 L 2.617188 -2.960938 C 2.757812 -2.371094 2.882812 -1.78125 2.984375 -1.203125 C 3.203125 -2.121094 3.328125 -2.648438 3.367188 -2.789062 L 5.003906 -8.589844 L 6.375 -8.589844 L 7.605469 -4.242188 C 7.914062 -3.164062 8.136719 -2.148438 8.273438 -1.203125 C 8.382812 -1.746094 8.523438 -2.367188 8.703125 -3.070312 L 10.046875 -8.589844 L 11.191406 -8.589844 L 8.835938 0 L 7.742188 0 L 5.929688 -6.546875 C 5.777344 -7.09375 5.6875 -7.429688 5.660156 -7.554688 C 5.570312 -7.160156 5.484375 -6.820312 5.40625 -6.546875 L 3.585938 0 Z M 2.425781 0 "/>
</symbol>
<symbol overflow="visible" id="glyph1-0">
<path style="stroke:none;" d="M 1.5 0 L 1.5 -7.5 L 7.5 -7.5 L 7.5 0 Z M 1.6875 -0.1875 L 7.3125 -0.1875 L 7.3125 -7.3125 L 1.6875 -7.3125 Z M 1.6875 -0.1875 "/>
</symbol>
<symbol overflow="visible" id="glyph1-1">
<path style="stroke:none;" d="M 2.875 -0.859375 L 2.703125 0.0078125 C 2.449219 0.0742188 2.203125 0.105469 1.960938 0.105469 C 1.539062 0.105469 1.203125 0 0.953125 -0.203125 C 0.765625 -0.359375 0.671875 -0.574219 0.671875 -0.84375 C 0.671875 -0.980469 0.726562 -1.296875 0.828125 -1.789062 L 1.582031 -5.402344 L 0.742188 -5.402344 L 0.914062 -6.222656 L 1.75 -6.222656 L 2.074219 -7.75 L 3.289062 -8.484375 L 2.8125 -6.222656 L 3.855469 -6.222656 L 3.679688 -5.402344 L 2.640625 -5.402344 L 1.921875 -1.960938 C 1.832031 -1.523438 1.789062 -1.265625 1.789062 -1.179688 C 1.789062 -1.054688 1.824219 -0.957031 1.894531 -0.890625 C 1.96875 -0.824219 2.085938 -0.789062 2.25 -0.789062 C 2.484375 -0.789062 2.695312 -0.8125 2.875 -0.859375 Z M 2.875 -0.859375 "/>
</symbol>
<symbol overflow="visible" id="glyph1-2">
<path style="stroke:none;" d="M 0.5 -2.125 L 1.558594 -2.191406 C 1.558594 -1.886719 1.605469 -1.625 1.699219 -1.414062 C 1.792969 -1.199219 1.964844 -1.023438 2.21875 -0.882812 C 2.46875 -0.746094 2.765625 -0.679688 3.101562 -0.679688 C 3.570312 -0.679688 3.921875 -0.773438 4.15625 -0.960938 C 4.390625 -1.148438 4.507812 -1.367188 4.507812 -1.625 C 4.507812 -1.808594 4.4375 -1.980469 4.296875 -2.144531 C 4.152344 -2.308594 3.796875 -2.511719 3.238281 -2.75 C 2.675781 -2.992188 2.320312 -3.160156 2.164062 -3.257812 C 1.902344 -3.417969 1.703125 -3.605469 1.570312 -3.824219 C 1.4375 -4.039062 1.371094 -4.289062 1.371094 -4.570312 C 1.371094 -5.0625 1.566406 -5.484375 1.957031 -5.835938 C 2.347656 -6.1875 2.894531 -6.363281 3.597656 -6.363281 C 4.378906 -6.363281 4.972656 -6.183594 5.382812 -5.820312 C 5.789062 -5.460938 6 -4.984375 6.015625 -4.394531 L 4.980469 -4.324219 C 4.964844 -4.699219 4.832031 -4.996094 4.582031 -5.214844 C 4.332031 -5.433594 3.976562 -5.542969 3.523438 -5.542969 C 3.15625 -5.542969 2.867188 -5.460938 2.664062 -5.289062 C 2.460938 -5.121094 2.359375 -4.941406 2.359375 -4.746094 C 2.359375 -4.550781 2.449219 -4.378906 2.625 -4.230469 C 2.742188 -4.128906 3.046875 -3.972656 3.53125 -3.761719 C 4.34375 -3.410156 4.859375 -3.132812 5.070312 -2.929688 C 5.40625 -2.605469 5.570312 -2.210938 5.570312 -1.746094 C 5.570312 -1.4375 5.476562 -1.132812 5.289062 -0.835938 C 5.097656 -0.539062 4.808594 -0.304688 4.421875 -0.125 C 4.03125 0.0507812 3.574219 0.140625 3.046875 0.140625 C 2.328125 0.140625 1.71875 -0.0390625 1.210938 -0.390625 C 0.707031 -0.746094 0.46875 -1.328125 0.5 -2.125 Z M 0.5 -2.125 "/>
</symbol>
<symbol overflow="visible" id="glyph2-0">
<path style="stroke:none;" d="M 0.75 0 L 0.75 -9.597656 L 5.25 -9.597656 L 5.25 0 Z M 1.5 -0.75 L 4.5 -0.75 L 4.5 -8.847656 L 1.5 -8.847656 Z M 1.5 -0.75 "/>
</symbol>
<symbol overflow="visible" id="glyph2-1">
<path style="stroke:none;" d="M 3.5625 2.519531 L 2.804688 2.519531 C 2.492188 2.121094 2.210938 1.699219 1.953125 1.257812 C 1.699219 0.8125 1.476562 0.351562 1.296875 -0.125 C 1.113281 -0.601562 0.96875 -1.085938 0.871094 -1.585938 C 0.769531 -2.085938 0.71875 -2.59375 0.71875 -3.105469 C 0.71875 -3.625 0.773438 -4.132812 0.875 -4.632812 C 0.976562 -5.128906 1.117188 -5.617188 1.300781 -6.085938 C 1.484375 -6.558594 1.703125 -7.019531 1.960938 -7.460938 C 2.214844 -7.90625 2.5 -8.328125 2.804688 -8.734375 L 3.5625 -8.734375 C 3.285156 -8.28125 3.039062 -7.835938 2.820312 -7.398438 C 2.601562 -6.957031 2.414062 -6.511719 2.265625 -6.054688 C 2.117188 -5.601562 2.007812 -5.132812 1.929688 -4.648438 C 1.851562 -4.167969 1.8125 -3.65625 1.8125 -3.117188 C 1.8125 -2.617188 1.851562 -2.121094 1.9375 -1.628906 C 2.019531 -1.136719 2.140625 -0.652344 2.289062 -0.179688 C 2.441406 0.296875 2.625 0.757812 2.84375 1.210938 C 3.058594 1.660156 3.296875 2.097656 3.5625 2.519531 Z M 3.5625 2.519531 "/>
</symbol>
<symbol overflow="visible" id="glyph2-2">
<path style="stroke:none;" d="M 3.273438 -3.105469 C 3.273438 -2.589844 3.226562 -2.082031 3.125 -1.585938 C 3.023438 -1.085938 2.878906 -0.601562 2.695312 -0.128906 C 2.511719 0.34375 2.292969 0.800781 2.035156 1.246094 C 1.78125 1.6875 1.5 2.113281 1.1875 2.519531 L 0.433594 2.519531 C 0.707031 2.074219 0.953125 1.632812 1.171875 1.1875 C 1.390625 0.746094 1.574219 0.296875 1.722656 -0.15625 C 1.871094 -0.613281 1.984375 -1.085938 2.066406 -1.570312 C 2.144531 -2.054688 2.1875 -2.5625 2.1875 -3.09375 C 2.1875 -3.59375 2.144531 -4.089844 2.058594 -4.582031 C 1.976562 -5.074219 1.859375 -5.558594 1.703125 -6.03125 C 1.550781 -6.507812 1.367188 -6.96875 1.152344 -7.421875 C 0.933594 -7.875 0.695312 -8.3125 0.433594 -8.734375 L 1.1875 -8.734375 C 1.5 -8.335938 1.789062 -7.917969 2.046875 -7.472656 C 2.304688 -7.03125 2.523438 -6.570312 2.703125 -6.089844 C 2.886719 -5.613281 3.027344 -5.121094 3.125 -4.621094 C 3.226562 -4.117188 3.273438 -3.613281 3.273438 -3.105469 Z M 3.273438 -3.105469 "/>
</symbol>
</g>
<clipPath id="clip1">
  <path d="M 9.839844 19.921875 L 332.878906 19.921875 L 332.878906 181.441406 L 9.839844 181.441406 Z M 9.839844 19.921875 "/>
</clipPath>
</defs>
<g id="surface11">
<g clip-path="url(#clip1)" clip-rule="nonzero">
<path style="fill:none;stroke-width:2;stroke-linecap:square;stroke-linejoin:miter;stroke:rgb(36.84082%,50.67749%,70.979309%);stroke-opacity:1;stroke-miterlimit:3.25;" d="M 82.5 178.40625 L 82.878906 178.40625 L 82.976562 178.402344 L 83.355469 178.402344 L 83.449219 178.398438 L 83.640625 178.398438 L 83.734375 178.394531 L 83.832031 178.394531 L 84.019531 178.390625 L 84.117188 178.390625 L 84.210938 178.386719 L 84.402344 178.382812 L 84.496094 178.382812 L 84.59375 178.378906 L 84.78125 178.375 L 84.878906 178.371094 L 84.972656 178.367188 L 85.164062 178.363281 L 85.542969 178.351562 L 85.636719 178.347656 L 85.734375 178.34375 L 85.921875 178.335938 L 86.304688 178.316406 L 86.492188 178.308594 L 86.683594 178.300781 L 87.0625 178.28125 L 87.160156 178.273438 L 87.253906 178.269531 L 87.445312 178.257812 L 87.824219 178.234375 L 88.585938 178.183594 L 88.6875 178.175781 L 88.792969 178.167969 L 88.996094 178.148438 L 89.410156 178.117188 L 90.234375 178.042969 L 90.339844 178.035156 L 90.441406 178.023438 L 90.648438 178.003906 L 91.058594 177.960938 L 91.882812 177.875 L 91.988281 177.863281 L 92.089844 177.851562 L 92.296875 177.824219 L 92.710938 177.777344 L 93.535156 177.671875 L 95.183594 177.433594 L 95.28125 177.417969 L 95.375 177.40625 L 95.566406 177.375 L 95.953125 177.3125 L 96.722656 177.183594 L 98.261719 176.90625 L 98.359375 176.886719 L 98.457031 176.871094 L 98.648438 176.832031 L 99.035156 176.757812 L 99.804688 176.601562 L 101.34375 176.265625 L 101.4375 176.246094 L 101.53125 176.222656 L 101.722656 176.179688 L 102.097656 176.09375 L 102.851562 175.910156 L 104.363281 175.527344 L 104.550781 175.480469 L 104.742188 175.429688 L 105.117188 175.328125 L 105.875 175.121094 L 107.382812 174.683594 L 107.484375 174.65625 L 107.585938 174.625 L 107.792969 174.5625 L 108.203125 174.4375 L 109.019531 174.183594 L 110.660156 173.648438 L 113.933594 172.492188 L 114.03125 172.457031 L 114.125 172.417969 L 114.316406 172.347656 L 114.699219 172.203125 L 115.464844 171.910156 L 116.992188 171.300781 L 120.046875 170.003906 L 126.675781 166.84375 L 133.179688 163.289062 L 139.25 159.582031 L 145.828125 155.164062 L 151.972656 150.683594 L 157.992188 145.984375 L 164.527344 140.5625 L 170.625 135.234375 L 177.230469 129.199219 L 183.71875 123.050781 L 189.769531 117.148438 L 196.332031 110.605469 L 202.457031 104.410156 L 209.09375 97.644531 L 215.609375 91.003906 L 221.6875 84.855469 L 228.28125 78.296875 L 234.433594 72.328125 L 240.464844 66.671875 L 247.011719 60.816406 L 253.117188 55.671875 L 259.738281 50.515625 L 266.238281 45.945312 L 272.296875 42.191406 L 272.402344 42.132812 L 272.707031 41.957031 L 273.121094 41.726562 L 273.941406 41.269531 L 275.585938 40.386719 L 275.789062 40.277344 L 275.996094 40.171875 L 276.40625 39.960938 L 277.226562 39.546875 L 278.871094 38.753906 L 278.96875 38.707031 L 279.0625 38.664062 L 279.253906 38.574219 L 279.636719 38.398438 L 280.40625 38.054688 L 281.9375 37.394531 L 282.035156 37.355469 L 282.128906 37.316406 L 282.324219 37.234375 L 283.472656 36.777344 L 285.007812 36.203125 L 285.101562 36.171875 L 285.195312 36.136719 L 285.757812 35.9375 L 286.511719 35.683594 L 288.015625 35.210938 L 288.109375 35.179688 L 288.765625 34.988281 L 289.519531 34.777344 L 291.023438 34.394531 L 291.226562 34.347656 L 291.429688 34.296875 L 291.839844 34.207031 L 292.652344 34.03125 L 292.757812 34.007812 L 293.0625 33.949219 L 293.46875 33.867188 L 294.285156 33.722656 L 294.386719 33.703125 L 294.488281 33.6875 L 294.695312 33.652344 L 295.507812 33.527344 L 295.917969 33.472656 L 296.019531 33.457031 L 296.121094 33.445312 L 296.324219 33.417969 L 296.734375 33.371094 L 297.140625 33.324219 L 297.550781 33.28125 L 297.644531 33.273438 L 297.738281 33.261719 L 297.929688 33.246094 L 298.308594 33.214844 L 298.40625 33.207031 L 298.5 33.199219 L 298.691406 33.183594 L 299.070312 33.160156 L 299.167969 33.152344 L 299.261719 33.148438 L 299.453125 33.136719 L 299.546875 33.132812 L 299.640625 33.125 L 299.832031 33.117188 L 299.929688 33.113281 L 300.117188 33.105469 L 300.214844 33.101562 L 300.402344 33.09375 L 300.59375 33.089844 L 300.6875 33.085938 L 300.785156 33.085938 L 300.878906 33.082031 L 300.976562 33.082031 L 301.070312 33.078125 L 301.261719 33.078125 L 301.355469 33.074219 L 302.117188 33.074219 L 302.210938 33.078125 L 302.402344 33.078125 L 302.496094 33.082031 L 302.59375 33.082031 L 302.6875 33.085938 L 302.78125 33.085938 L 302.878906 33.089844 L 303.066406 33.097656 L 303.164062 33.097656 L 303.257812 33.101562 L 303.355469 33.105469 L 303.449219 33.109375 L 303.640625 33.117188 L 303.742188 33.125 L 303.84375 33.128906 L 304.050781 33.140625 L 304.15625 33.144531 L 304.257812 33.152344 L 304.464844 33.164062 L 304.566406 33.171875 L 304.671875 33.179688 L 304.875 33.195312 L 305.289062 33.230469 L 305.394531 33.238281 L 305.496094 33.25 L 305.703125 33.269531 L 306.113281 33.3125 L 306.21875 33.324219 L 306.320312 33.335938 L 306.527344 33.359375 L 306.941406 33.410156 L 307.042969 33.421875 L 307.144531 33.4375 L 307.351562 33.464844 L 307.765625 33.527344 L 307.867188 33.542969 L 307.972656 33.558594 L 308.175781 33.589844 L 308.589844 33.660156 L 308.695312 33.679688 L 308.796875 33.695312 L 309.003906 33.734375 L 309.414062 33.8125 L 310.242188 33.984375 L 310.335938 34.003906 L 310.433594 34.027344 L 310.625 34.070312 L 311.011719 34.160156 L 311.78125 34.351562 L 311.878906 34.378906 L 311.972656 34.402344 L 312.167969 34.453125 L 312.550781 34.5625 L 313.324219 34.785156 L 313.417969 34.816406 L 313.515625 34.84375 L 313.707031 34.90625 L 314.09375 35.027344 L 314.863281 35.285156 L 316.40625 35.855469 L 316.5 35.890625 L 316.59375 35.929688 L 316.78125 36.003906 L 317.160156 36.160156 L 317.917969 36.480469 L 319.425781 37.171875 L 319.523438 37.21875 L 319.617188 37.265625 L 319.804688 37.355469 L 320.183594 37.546875 L 320.9375 37.933594 L 322.449219 38.765625 L 322.550781 38.828125 L 322.652344 38.886719 L 322.859375 39.003906 L 323.269531 39.25 L 324.085938 39.75 L 325.726562 40.820312 L 325.929688 40.960938 L 326.136719 41.101562 L 326.546875 41.386719 L 327.367188 41.976562 L 329.003906 43.222656 L 329.101562 43.300781 L 329.195312 43.375 L 329.386719 43.527344 L 329.769531 43.835938 L 330.535156 44.46875 L 332.0625 45.792969 L 335.121094 48.691406 L 335.226562 48.796875 L 335.332031 48.898438 L 335.539062 49.109375 L 335.953125 49.535156 L 336.78125 50.402344 L 338.4375 52.214844 L 341.753906 56.144531 L 341.855469 56.273438 L 341.957031 56.398438 L 342.160156 56.65625 L 342.566406 57.175781 L 343.378906 58.230469 L 345.007812 60.417969 L 348.261719 65.113281 L 354.335938 75.054688 L 360.917969 87.65625 L 367.066406 101.234375 L 373.09375 116.34375 L 379.628906 134.863281 L 385.730469 154.246094 L 385.835938 154.601562 L 385.945312 154.960938 L 386.15625 155.675781 L 386.582031 157.117188 L 387.433594 160.03125 L 389.136719 165.984375 L 389.242188 166.363281 L 389.347656 166.738281 L 389.5625 167.5 L 389.988281 169.023438 L 390.839844 172.109375 L 390.945312 172.496094 L 391.050781 172.886719 L 391.265625 173.667969 L 391.691406 175.234375 L 391.902344 176.023438 L 392.113281 176.816406 L 392.222656 177.210938 L 392.539062 178.40625 " transform="matrix(1,0,0,1,-66,-5)"/>
</g>
<path style="fill:none;stroke-width:0.2;stroke-linecap:butt;stroke-linejoin:miter;stroke:rgb(0%,0%,0%);stroke-opacity:1;stroke-miterlimit:3.25;" d="M 82.5 178.40625 L 82.5 174.980469 " transform="matrix(1,0,0,1,-66,-5)"/>
<path style="fill:none;stroke-width:0.2;stroke-linecap:butt;stroke-linejoin:miter;stroke:rgb(0%,0%,0%);stroke-opacity:1;stroke-miterlimit:3.25;" d="M 98.003906 178.40625 L 98.003906 176.351562 " transform="matrix(1,0,0,1,-66,-5)"/>
<path style="fill:none;stroke-width:0.2;stroke-linecap:butt;stroke-linejoin:miter;stroke:rgb(0%,0%,0%);stroke-opacity:1;stroke-miterlimit:3.25;" d="M 113.503906 178.40625 L 113.503906 176.351562 " transform="matrix(1,0,0,1,-66,-5)"/>
<path style="fill:none;stroke-width:0.2;stroke-linecap:butt;stroke-linejoin:miter;stroke:rgb(0%,0%,0%);stroke-opacity:1;stroke-miterlimit:3.25;" d="M 129.007812 178.40625 L 129.007812 176.351562 " transform="matrix(1,0,0,1,-66,-5)"/>
<path style="fill:none;stroke-width:0.2;stroke-linecap:butt;stroke-linejoin:miter;stroke:rgb(0%,0%,0%);stroke-opacity:1;stroke-miterlimit:3.25;" d="M 144.507812 178.40625 L 144.507812 174.980469 " transform="matrix(1,0,0,1,-66,-5)"/>
<g style="fill:rgb(0%,0%,0%);fill-opacity:1;">
  <use xlink:href="#glyph0-1" x="67.008163" y="187.405612"/>
  <use xlink:href="#glyph0-2" x="73.681991" y="187.405612"/>
  <use xlink:href="#glyph0-1" x="77.015976" y="187.405612"/>
  <use xlink:href="#glyph0-3" x="83.689804" y="187.405612"/>
</g>
<path style="fill:none;stroke-width:0.2;stroke-linecap:butt;stroke-linejoin:miter;stroke:rgb(0%,0%,0%);stroke-opacity:1;stroke-miterlimit:3.25;" d="M 160.011719 178.40625 L 160.011719 176.351562 " transform="matrix(1,0,0,1,-66,-5)"/>
<path style="fill:none;stroke-width:0.2;stroke-linecap:butt;stroke-linejoin:miter;stroke:rgb(0%,0%,0%);stroke-opacity:1;stroke-miterlimit:3.25;" d="M 175.511719 178.40625 L 175.511719 176.351562 " transform="matrix(1,0,0,1,-66,-5)"/>
<path style="fill:none;stroke-width:0.2;stroke-linecap:butt;stroke-linejoin:miter;stroke:rgb(0%,0%,0%);stroke-opacity:1;stroke-miterlimit:3.25;" d="M 191.015625 178.40625 L 191.015625 176.351562 " transform="matrix(1,0,0,1,-66,-5)"/>
<path style="fill:none;stroke-width:0.2;stroke-linecap:butt;stroke-linejoin:miter;stroke:rgb(0%,0%,0%);stroke-opacity:1;stroke-miterlimit:3.25;" d="M 206.515625 178.40625 L 206.515625 174.980469 " transform="matrix(1,0,0,1,-66,-5)"/>
<g style="fill:rgb(0%,0%,0%);fill-opacity:1;">
  <use xlink:href="#glyph0-1" x="129.016327" y="187.405612"/>
  <use xlink:href="#glyph0-2" x="135.690155" y="187.405612"/>
  <use xlink:href="#glyph0-1" x="139.024139" y="187.405612"/>
  <use xlink:href="#glyph0-4" x="145.697967" y="187.405612"/>
</g>
<path style="fill:none;stroke-width:0.2;stroke-linecap:butt;stroke-linejoin:miter;stroke:rgb(0%,0%,0%);stroke-opacity:1;stroke-miterlimit:3.25;" d="M 222.019531 178.40625 L 222.019531 176.351562 " transform="matrix(1,0,0,1,-66,-5)"/>
<path style="fill:none;stroke-width:0.2;stroke-linecap:butt;stroke-linejoin:miter;stroke:rgb(0%,0%,0%);stroke-opacity:1;stroke-miterlimit:3.25;" d="M 237.519531 178.40625 L 237.519531 176.351562 " transform="matrix(1,0,0,1,-66,-5)"/>
<path style="fill:none;stroke-width:0.2;stroke-linecap:butt;stroke-linejoin:miter;stroke:rgb(0%,0%,0%);stroke-opacity:1;stroke-miterlimit:3.25;" d="M 253.023438 178.40625 L 253.023438 176.351562 " transform="matrix(1,0,0,1,-66,-5)"/>
<path style="fill:none;stroke-width:0.2;stroke-linecap:butt;stroke-linejoin:miter;stroke:rgb(0%,0%,0%);stroke-opacity:1;stroke-miterlimit:3.25;" d="M 268.523438 178.40625 L 268.523438 174.980469 " transform="matrix(1,0,0,1,-66,-5)"/>
<g style="fill:rgb(0%,0%,0%);fill-opacity:1;">
  <use xlink:href="#glyph0-1" x="191.02449" y="187.405612"/>
  <use xlink:href="#glyph0-2" x="197.698318" y="187.405612"/>
  <use xlink:href="#glyph0-1" x="201.032302" y="187.405612"/>
  <use xlink:href="#glyph0-5" x="207.70613" y="187.405612"/>
</g>
<path style="fill:none;stroke-width:0.2;stroke-linecap:butt;stroke-linejoin:miter;stroke:rgb(0%,0%,0%);stroke-opacity:1;stroke-miterlimit:3.25;" d="M 284.027344 178.40625 L 284.027344 176.351562 " transform="matrix(1,0,0,1,-66,-5)"/>
<path style="fill:none;stroke-width:0.2;stroke-linecap:butt;stroke-linejoin:miter;stroke:rgb(0%,0%,0%);stroke-opacity:1;stroke-miterlimit:3.25;" d="M 299.527344 178.40625 L 299.527344 176.351562 " transform="matrix(1,0,0,1,-66,-5)"/>
<path style="fill:none;stroke-width:0.2;stroke-linecap:butt;stroke-linejoin:miter;stroke:rgb(0%,0%,0%);stroke-opacity:1;stroke-miterlimit:3.25;" d="M 315.03125 178.40625 L 315.03125 176.351562 " transform="matrix(1,0,0,1,-66,-5)"/>
<path style="fill:none;stroke-width:0.2;stroke-linecap:butt;stroke-linejoin:miter;stroke:rgb(0%,0%,0%);stroke-opacity:1;stroke-miterlimit:3.25;" d="M 330.53125 178.40625 L 330.53125 174.980469 " transform="matrix(1,0,0,1,-66,-5)"/>
<g style="fill:rgb(0%,0%,0%);fill-opacity:1;">
  <use xlink:href="#glyph0-1" x="253.032653" y="187.405612"/>
  <use xlink:href="#glyph0-2" x="259.706481" y="187.405612"/>
  <use xlink:href="#glyph0-1" x="263.040466" y="187.405612"/>
  <use xlink:href="#glyph0-6" x="269.714294" y="187.405612"/>
</g>
<path style="fill:none;stroke-width:0.2;stroke-linecap:butt;stroke-linejoin:miter;stroke:rgb(0%,0%,0%);stroke-opacity:1;stroke-miterlimit:3.25;" d="M 346.035156 178.40625 L 346.035156 176.351562 " transform="matrix(1,0,0,1,-66,-5)"/>
<path style="fill:none;stroke-width:0.2;stroke-linecap:butt;stroke-linejoin:miter;stroke:rgb(0%,0%,0%);stroke-opacity:1;stroke-miterlimit:3.25;" d="M 361.535156 178.40625 L 361.535156 176.351562 " transform="matrix(1,0,0,1,-66,-5)"/>
<path style="fill:none;stroke-width:0.2;stroke-linecap:butt;stroke-linejoin:miter;stroke:rgb(0%,0%,0%);stroke-opacity:1;stroke-miterlimit:3.25;" d="M 377.039062 178.40625 L 377.039062 176.351562 " transform="matrix(1,0,0,1,-66,-5)"/>
<path style="fill:none;stroke-width:0.2;stroke-linecap:butt;stroke-linejoin:miter;stroke:rgb(0%,0%,0%);stroke-opacity:1;stroke-miterlimit:3.25;" d="M 392.539062 178.40625 L 392.539062 174.980469 " transform="matrix(1,0,0,1,-66,-5)"/>
<g style="fill:rgb(0%,0%,0%);fill-opacity:1;">
  <use xlink:href="#glyph0-1" x="315.040816" y="187.405612"/>
  <use xlink:href="#glyph0-2" x="321.714644" y="187.405612"/>
  <use xlink:href="#glyph0-7" x="325.048629" y="187.405612"/>
  <use xlink:href="#glyph0-1" x="331.722457" y="187.405612"/>
</g>
<path style="fill:none;stroke-width:0.2;stroke-linecap:butt;stroke-linejoin:miter;stroke:rgb(0%,0%,0%);stroke-opacity:1;stroke-miterlimit:3.25;" d="M 76.039062 178.40625 L 399 178.40625 " transform="matrix(1,0,0,1,-66,-5)"/>
<g style="fill:rgb(0%,0%,0%);fill-opacity:1;">
  <use xlink:href="#glyph1-1" x="341" y="177.405612"/>
</g>
<g style="fill:rgb(0%,0%,0%);fill-opacity:1;">
  <use xlink:href="#glyph2-1" x="345" y="177.405612"/>
</g>
<g style="fill:rgb(0%,0%,0%);fill-opacity:1;">
  <use xlink:href="#glyph1-2" x="349" y="177.405612"/>
</g>
<g style="fill:rgb(0%,0%,0%);fill-opacity:1;">
  <use xlink:href="#glyph2-2" x="355" y="177.405612"/>
</g>
<path style="fill:none;stroke-width:0.2;stroke-linecap:butt;stroke-linejoin:miter;stroke:rgb(0%,0%,0%);stroke-opacity:1;stroke-miterlimit:3.25;" d="M 82.5 184.21875 L 84.554688 184.21875 " transform="matrix(1,0,0,1,-66,-5)"/>
<path style="fill:none;stroke-width:0.2;stroke-linecap:butt;stroke-linejoin:miter;stroke:rgb(0%,0%,0%);stroke-opacity:1;stroke-miterlimit:3.25;" d="M 82.5 178.40625 L 85.925781 178.40625 " transform="matrix(1,0,0,1,-66,-5)"/>
<path style="fill:none;stroke-width:0.2;stroke-linecap:butt;stroke-linejoin:miter;stroke:rgb(0%,0%,0%);stroke-opacity:1;stroke-miterlimit:3.25;" d="M 82.5 172.59375 L 84.554688 172.59375 " transform="matrix(1,0,0,1,-66,-5)"/>
<path style="fill:none;stroke-width:0.2;stroke-linecap:butt;stroke-linejoin:miter;stroke:rgb(0%,0%,0%);stroke-opacity:1;stroke-miterlimit:3.25;" d="M 82.5 166.777344 L 84.554688 166.777344 " transform="matrix(1,0,0,1,-66,-5)"/>
<path style="fill:none;stroke-width:0.2;stroke-linecap:butt;stroke-linejoin:miter;stroke:rgb(0%,0%,0%);stroke-opacity:1;stroke-miterlimit:3.25;" d="M 82.5 160.964844 L 84.554688 160.964844 " transform="matrix(1,0,0,1,-66,-5)"/>
<path style="fill:none;stroke-width:0.2;stroke-linecap:butt;stroke-linejoin:miter;stroke:rgb(0%,0%,0%);stroke-opacity:1;stroke-miterlimit:3.25;" d="M 82.5 155.152344 L 85.925781 155.152344 " transform="matrix(1,0,0,1,-66,-5)"/>
<g style="fill:rgb(0%,0%,0%);fill-opacity:1;">
  <use xlink:href="#glyph0-3" x="6.5" y="154.152551"/>
</g>
<path style="fill:none;stroke-width:0.2;stroke-linecap:butt;stroke-linejoin:miter;stroke:rgb(0%,0%,0%);stroke-opacity:1;stroke-miterlimit:3.25;" d="M 82.5 149.339844 L 84.554688 149.339844 " transform="matrix(1,0,0,1,-66,-5)"/>
<path style="fill:none;stroke-width:0.2;stroke-linecap:butt;stroke-linejoin:miter;stroke:rgb(0%,0%,0%);stroke-opacity:1;stroke-miterlimit:3.25;" d="M 82.5 143.527344 L 84.554688 143.527344 " transform="matrix(1,0,0,1,-66,-5)"/>
<path style="fill:none;stroke-width:0.2;stroke-linecap:butt;stroke-linejoin:miter;stroke:rgb(0%,0%,0%);stroke-opacity:1;stroke-miterlimit:3.25;" d="M 82.5 137.710938 L 84.554688 137.710938 " transform="matrix(1,0,0,1,-66,-5)"/>
<path style="fill:none;stroke-width:0.2;stroke-linecap:butt;stroke-linejoin:miter;stroke:rgb(0%,0%,0%);stroke-opacity:1;stroke-miterlimit:3.25;" d="M 82.5 131.898438 L 85.925781 131.898438 " transform="matrix(1,0,0,1,-66,-5)"/>
<g style="fill:rgb(0%,0%,0%);fill-opacity:1;">
  <use xlink:href="#glyph0-4" x="6.5" y="130.89949"/>
</g>
<path style="fill:none;stroke-width:0.2;stroke-linecap:butt;stroke-linejoin:miter;stroke:rgb(0%,0%,0%);stroke-opacity:1;stroke-miterlimit:3.25;" d="M 82.5 126.085938 L 84.554688 126.085938 " transform="matrix(1,0,0,1,-66,-5)"/>
<path style="fill:none;stroke-width:0.2;stroke-linecap:butt;stroke-linejoin:miter;stroke:rgb(0%,0%,0%);stroke-opacity:1;stroke-miterlimit:3.25;" d="M 82.5 120.273438 L 84.554688 120.273438 " transform="matrix(1,0,0,1,-66,-5)"/>
<path style="fill:none;stroke-width:0.2;stroke-linecap:butt;stroke-linejoin:miter;stroke:rgb(0%,0%,0%);stroke-opacity:1;stroke-miterlimit:3.25;" d="M 82.5 114.460938 L 84.554688 114.460938 " transform="matrix(1,0,0,1,-66,-5)"/>
<path style="fill:none;stroke-width:0.2;stroke-linecap:butt;stroke-linejoin:miter;stroke:rgb(0%,0%,0%);stroke-opacity:1;stroke-miterlimit:3.25;" d="M 82.5 108.644531 L 85.925781 108.644531 " transform="matrix(1,0,0,1,-66,-5)"/>
<g style="fill:rgb(0%,0%,0%);fill-opacity:1;">
  <use xlink:href="#glyph0-5" x="6.5" y="107.646428"/>
</g>
<path style="fill:none;stroke-width:0.2;stroke-linecap:butt;stroke-linejoin:miter;stroke:rgb(0%,0%,0%);stroke-opacity:1;stroke-miterlimit:3.25;" d="M 82.5 102.832031 L 84.554688 102.832031 " transform="matrix(1,0,0,1,-66,-5)"/>
<path style="fill:none;stroke-width:0.2;stroke-linecap:butt;stroke-linejoin:miter;stroke:rgb(0%,0%,0%);stroke-opacity:1;stroke-miterlimit:3.25;" d="M 82.5 97.019531 L 84.554688 97.019531 " transform="matrix(1,0,0,1,-66,-5)"/>
<path style="fill:none;stroke-width:0.2;stroke-linecap:butt;stroke-linejoin:miter;stroke:rgb(0%,0%,0%);stroke-opacity:1;stroke-miterlimit:3.25;" d="M 82.5 91.207031 L 84.554688 91.207031 " transform="matrix(1,0,0,1,-66,-5)"/>
<path style="fill:none;stroke-width:0.2;stroke-linecap:butt;stroke-linejoin:miter;stroke:rgb(0%,0%,0%);stroke-opacity:1;stroke-miterlimit:3.25;" d="M 82.5 85.394531 L 85.925781 85.394531 " transform="matrix(1,0,0,1,-66,-5)"/>
<g style="fill:rgb(0%,0%,0%);fill-opacity:1;">
  <use xlink:href="#glyph0-6" x="6.5" y="84.393367"/>
</g>
<path style="fill:none;stroke-width:0.2;stroke-linecap:butt;stroke-linejoin:miter;stroke:rgb(0%,0%,0%);stroke-opacity:1;stroke-miterlimit:3.25;" d="M 82.5 79.582031 L 84.554688 79.582031 " transform="matrix(1,0,0,1,-66,-5)"/>
<path style="fill:none;stroke-width:0.2;stroke-linecap:butt;stroke-linejoin:miter;stroke:rgb(0%,0%,0%);stroke-opacity:1;stroke-miterlimit:3.25;" d="M 82.5 73.765625 L 84.554688 73.765625 " transform="matrix(1,0,0,1,-66,-5)"/>
<path style="fill:none;stroke-width:0.2;stroke-linecap:butt;stroke-linejoin:miter;stroke:rgb(0%,0%,0%);stroke-opacity:1;stroke-miterlimit:3.25;" d="M 82.5 67.953125 L 84.554688 67.953125 " transform="matrix(1,0,0,1,-66,-5)"/>
<path style="fill:none;stroke-width:0.2;stroke-linecap:butt;stroke-linejoin:miter;stroke:rgb(0%,0%,0%);stroke-opacity:1;stroke-miterlimit:3.25;" d="M 82.5 62.140625 L 85.925781 62.140625 " transform="matrix(1,0,0,1,-66,-5)"/>
<g style="fill:rgb(0%,0%,0%);fill-opacity:1;">
  <use xlink:href="#glyph0-7" x="0.5" y="61.140306"/>
  <use xlink:href="#glyph0-1" x="7.173828" y="61.140306"/>
</g>
<path style="fill:none;stroke-width:0.2;stroke-linecap:butt;stroke-linejoin:miter;stroke:rgb(0%,0%,0%);stroke-opacity:1;stroke-miterlimit:3.25;" d="M 82.5 56.328125 L 84.554688 56.328125 " transform="matrix(1,0,0,1,-66,-5)"/>
<path style="fill:none;stroke-width:0.2;stroke-linecap:butt;stroke-linejoin:miter;stroke:rgb(0%,0%,0%);stroke-opacity:1;stroke-miterlimit:3.25;" d="M 82.5 50.515625 L 84.554688 50.515625 " transform="matrix(1,0,0,1,-66,-5)"/>
<path style="fill:none;stroke-width:0.2;stroke-linecap:butt;stroke-linejoin:miter;stroke:rgb(0%,0%,0%);stroke-opacity:1;stroke-miterlimit:3.25;" d="M 82.5 44.699219 L 84.554688 44.699219 " transform="matrix(1,0,0,1,-66,-5)"/>
<path style="fill:none;stroke-width:0.2;stroke-linecap:butt;stroke-linejoin:miter;stroke:rgb(0%,0%,0%);stroke-opacity:1;stroke-miterlimit:3.25;" d="M 82.5 38.886719 L 85.925781 38.886719 " transform="matrix(1,0,0,1,-66,-5)"/>
<g style="fill:rgb(0%,0%,0%);fill-opacity:1;">
  <use xlink:href="#glyph0-7" x="0.5" y="37.887245"/>
  <use xlink:href="#glyph0-3" x="7.173828" y="37.887245"/>
</g>
<path style="fill:none;stroke-width:0.2;stroke-linecap:butt;stroke-linejoin:miter;stroke:rgb(0%,0%,0%);stroke-opacity:1;stroke-miterlimit:3.25;" d="M 82.5 33.074219 L 84.554688 33.074219 " transform="matrix(1,0,0,1,-66,-5)"/>
<path style="fill:none;stroke-width:0.2;stroke-linecap:butt;stroke-linejoin:miter;stroke:rgb(0%,0%,0%);stroke-opacity:1;stroke-miterlimit:3.25;" d="M 82.5 27.261719 L 84.554688 27.261719 " transform="matrix(1,0,0,1,-66,-5)"/>
<path style="fill:none;stroke-width:0.2;stroke-linecap:butt;stroke-linejoin:miter;stroke:rgb(0%,0%,0%);stroke-opacity:1;stroke-miterlimit:3.25;" d="M 82.5 186.480469 L 82.5 25 " transform="matrix(1,0,0,1,-66,-5)"/>
<g style="fill:rgb(0%,0%,0%);fill-opacity:1;">
  <use xlink:href="#glyph0-8" x="0" y="11"/>
</g>
<g style="fill:rgb(0%,0%,0%);fill-opacity:1;">
  <use xlink:href="#glyph2-1" x="8" y="11"/>
</g>
<g style="fill:rgb(0%,0%,0%);fill-opacity:1;">
  <use xlink:href="#glyph0-9" x="12" y="11"/>
  <use xlink:href="#glyph0-10" x="18" y="11"/>
</g>
<g style="fill:rgb(0%,0%,0%);fill-opacity:1;">
  <use xlink:href="#glyph2-2" x="29" y="11"/>
</g>
</g>
</svg>
