<?xml version="1.0" encoding="UTF-8"?>
<svg xmlns="http://www.w3.org/2000/svg" xmlns:xlink="http://www.w3.org/1999/xlink" width="360pt" height="206pt" viewBox="0 0 360 206" version="1.1">
<defs>
<g>
<symbol overflow="visible" id="glyph0-0">
<path style="stroke:none;" d="M 1.5 0 L 1.5 -7.5 L 7.5 -7.5 L 7.5 0 Z M 1.6875 -0.1875 L 7.3125 -0.1875 L 7.3125 -7.3125 L 1.6875 -7.3125 Z M 1.6875 -0.1875 "/>
</symbol>
<symbol overflow="visible" id="glyph0-1">
<path style="stroke:none;" d="M 0.5 -4.234375 C 0.5 -5.25 0.601562 -6.070312 0.8125 -6.6875 C 1.019531 -7.308594 1.332031 -7.785156 1.742188 -8.121094 C 2.15625 -8.457031 2.671875 -8.625 3.296875 -8.625 C 3.757812 -8.625 4.164062 -8.53125 4.511719 -8.347656 C 4.859375 -8.160156 5.148438 -7.894531 5.375 -7.542969 C 5.601562 -7.195312 5.777344 -6.769531 5.90625 -6.265625 C 6.035156 -5.765625 6.101562 -5.085938 6.101562 -4.234375 C 6.101562 -3.226562 5.996094 -2.414062 5.789062 -1.796875 C 5.582031 -1.175781 5.273438 -0.699219 4.859375 -0.359375 C 4.449219 -0.0234375 3.929688 0.148438 3.296875 0.148438 C 2.46875 0.148438 1.820312 -0.148438 1.347656 -0.742188 C 0.78125 -1.457031 0.5 -2.625 0.5 -4.234375 Z M 1.582031 -4.234375 C 1.582031 -2.824219 1.746094 -1.886719 2.078125 -1.421875 C 2.40625 -0.953125 2.8125 -0.71875 3.296875 -0.71875 C 3.78125 -0.71875 4.191406 -0.953125 4.519531 -1.421875 C 4.851562 -1.890625 5.015625 -2.828125 5.015625 -4.234375 C 5.015625 -5.648438 4.851562 -6.589844 4.519531 -7.054688 C 4.191406 -7.519531 3.78125 -7.75 3.289062 -7.75 C 2.804688 -7.75 2.414062 -7.546875 2.125 -7.136719 C 1.761719 -6.613281 1.582031 -5.648438 1.582031 -4.234375 Z M 1.582031 -4.234375 "/>
</symbol>
<symbol overflow="visible" id="glyph0-2">
<path style="stroke:none;" d="M 4.46875 0 L 3.414062 0 L 3.414062 -6.71875 C 3.160156 -6.476562 2.828125 -6.234375 2.417969 -5.992188 C 2.003906 -5.75 1.632812 -5.570312 1.304688 -5.449219 L 1.304688 -6.46875 C 1.894531 -6.746094 2.414062 -7.082031 2.851562 -7.476562 C 3.292969 -7.871094 3.609375 -8.253906 3.789062 -8.625 L 4.46875 -8.625 Z M 4.46875 0 "/>
</symbol>
<symbol overflow="visible" id="glyph0-3">
<path style="stroke:none;" d="M 6.039062 -1.015625 L 6.039062 0 L 0.363281 0 C 0.355469 -0.253906 0.398438 -0.5 0.484375 -0.734375 C 0.628906 -1.121094 0.863281 -1.5 1.179688 -1.875 C 1.5 -2.25 1.960938 -2.683594 2.5625 -3.175781 C 3.496094 -3.941406 4.125 -4.546875 4.453125 -4.996094 C 4.78125 -5.441406 4.945312 -5.867188 4.945312 -6.265625 C 4.945312 -6.683594 4.796875 -7.035156 4.496094 -7.320312 C 4.199219 -7.609375 3.808594 -7.75 3.328125 -7.75 C 2.820312 -7.75 2.414062 -7.601562 2.109375 -7.296875 C 1.804688 -6.992188 1.648438 -6.570312 1.648438 -6.03125 L 0.5625 -6.140625 C 0.636719 -6.949219 0.914062 -7.566406 1.398438 -7.988281 C 1.882812 -8.414062 2.535156 -8.625 3.351562 -8.625 C 4.175781 -8.625 4.828125 -8.398438 5.308594 -7.9375 C 5.789062 -7.480469 6.03125 -6.914062 6.03125 -6.242188 C 6.03125 -5.898438 5.960938 -5.558594 5.820312 -5.226562 C 5.679688 -4.894531 5.445312 -4.546875 5.117188 -4.179688 C 4.792969 -3.8125 4.25 -3.304688 3.492188 -2.664062 C 2.859375 -2.132812 2.453125 -1.773438 2.273438 -1.585938 C 2.09375 -1.394531 1.945312 -1.203125 1.828125 -1.015625 Z M 6.039062 -1.015625 "/>
</symbol>
<symbol overflow="visible" id="glyph0-4">
<path style="stroke:none;" d="M 0.503906 -2.265625 L 1.558594 -2.40625 C 1.679688 -1.808594 1.886719 -1.378906 2.175781 -1.117188 C 2.46875 -0.851562 2.820312 -0.71875 3.242188 -0.71875 C 3.738281 -0.71875 4.15625 -0.890625 4.496094 -1.234375 C 4.839844 -1.578125 5.007812 -2.007812 5.007812 -2.515625 C 5.007812 -3 4.851562 -3.398438 4.535156 -3.710938 C 4.21875 -4.027344 3.816406 -4.183594 3.328125 -4.183594 C 3.128906 -4.183594 2.882812 -4.144531 2.585938 -4.066406 L 2.703125 -4.992188 C 2.773438 -4.984375 2.828125 -4.980469 2.871094 -4.980469 C 3.320312 -4.980469 3.726562 -5.097656 4.085938 -5.332031 C 4.445312 -5.566406 4.625 -5.929688 4.625 -6.414062 C 4.625 -6.800781 4.492188 -7.125 4.230469 -7.375 C 3.96875 -7.628906 3.632812 -7.757812 3.21875 -7.757812 C 2.808594 -7.757812 2.464844 -7.628906 2.191406 -7.371094 C 1.917969 -7.113281 1.742188 -6.726562 1.664062 -6.210938 L 0.609375 -6.398438 C 0.738281 -7.105469 1.03125 -7.652344 1.488281 -8.042969 C 1.945312 -8.429688 2.515625 -8.625 3.195312 -8.625 C 3.664062 -8.625 4.09375 -8.523438 4.488281 -8.324219 C 4.882812 -8.121094 5.183594 -7.847656 5.394531 -7.5 C 5.601562 -7.152344 5.707031 -6.78125 5.707031 -6.390625 C 5.707031 -6.019531 5.609375 -5.683594 5.40625 -5.378906 C 5.207031 -5.074219 4.914062 -4.832031 4.523438 -4.652344 C 5.03125 -4.535156 5.425781 -4.292969 5.707031 -3.921875 C 5.988281 -3.554688 6.128906 -3.09375 6.128906 -2.539062 C 6.128906 -1.789062 5.855469 -1.152344 5.308594 -0.628906 C 4.761719 -0.109375 4.070312 0.152344 3.234375 0.152344 C 2.480469 0.152344 1.855469 -0.0703125 1.355469 -0.523438 C 0.859375 -0.972656 0.574219 -1.554688 0.503906 -2.265625 Z M 0.503906 -2.265625 "/>
</symbol>
<symbol overflow="visible" id="glyph0-5">
<path style="stroke:none;" d="M 3.878906 0 L 3.878906 -2.054688 L 0.152344 -2.054688 L 0.152344 -3.023438 L 4.070312 -8.589844 L 4.933594 -8.589844 L 4.933594 -3.023438 L 6.09375 -3.023438 L 6.09375 -2.054688 L 4.933594 -2.054688 L 4.933594 0 Z M 3.878906 -3.023438 L 3.878906 -6.898438 L 1.1875 -3.023438 Z M 3.878906 -3.023438 "/>
</symbol>
<symbol overflow="visible" id="glyph0-6">
<path style="stroke:none;" d="M 0.5 -2.25 L 1.605469 -2.34375 C 1.6875 -1.804688 1.878906 -1.398438 2.175781 -1.128906 C 2.476562 -0.855469 2.835938 -0.71875 3.257812 -0.71875 C 3.765625 -0.71875 4.195312 -0.914062 4.546875 -1.296875 C 4.898438 -1.679688 5.074219 -2.1875 5.074219 -2.820312 C 5.074219 -3.421875 4.90625 -3.894531 4.566406 -4.242188 C 4.230469 -4.589844 3.789062 -4.765625 3.242188 -4.765625 C 2.902344 -4.765625 2.59375 -4.6875 2.320312 -4.53125 C 2.046875 -4.378906 1.832031 -4.179688 1.675781 -3.929688 L 0.6875 -4.0625 L 1.515625 -8.472656 L 5.789062 -8.472656 L 5.789062 -7.464844 L 2.359375 -7.464844 L 1.898438 -5.15625 C 2.414062 -5.515625 2.953125 -5.695312 3.523438 -5.695312 C 4.273438 -5.695312 4.90625 -5.4375 5.421875 -4.914062 C 5.9375 -4.394531 6.195312 -3.726562 6.195312 -2.914062 C 6.195312 -2.136719 5.96875 -1.460938 5.515625 -0.898438 C 4.964844 -0.203125 4.210938 0.148438 3.257812 0.148438 C 2.476562 0.148438 1.839844 -0.0703125 1.34375 -0.507812 C 0.851562 -0.945312 0.570312 -1.527344 0.5 -2.25 Z M 0.5 -2.25 "/>
</symbol>
<symbol overflow="visible" id="glyph0-7">
<path style="stroke:none;" d="M 5.96875 -6.484375 L 4.921875 -6.40625 C 4.828125 -6.820312 4.695312 -7.117188 4.523438 -7.304688 C 4.238281 -7.605469 3.886719 -7.757812 3.46875 -7.757812 C 3.132812 -7.757812 2.835938 -7.664062 2.585938 -7.476562 C 2.253906 -7.234375 1.992188 -6.882812 1.796875 -6.414062 C 1.605469 -5.949219 1.507812 -5.289062 1.5 -4.429688 C 1.753906 -4.816406 2.0625 -5.101562 2.429688 -5.289062 C 2.796875 -5.476562 3.183594 -5.570312 3.585938 -5.570312 C 4.289062 -5.570312 4.886719 -5.3125 5.382812 -4.796875 C 5.875 -4.277344 6.125 -3.609375 6.125 -2.789062 C 6.125 -2.25 6.007812 -1.75 5.773438 -1.285156 C 5.542969 -0.824219 5.222656 -0.46875 4.816406 -0.222656 C 4.410156 0.0234375 3.949219 0.148438 3.433594 0.148438 C 2.554688 0.148438 1.835938 -0.175781 1.28125 -0.824219 C 0.726562 -1.46875 0.453125 -2.535156 0.453125 -4.019531 C 0.453125 -5.679688 0.757812 -6.886719 1.371094 -7.640625 C 1.90625 -8.296875 2.625 -8.625 3.53125 -8.625 C 4.207031 -8.625 4.761719 -8.4375 5.195312 -8.054688 C 5.625 -7.675781 5.882812 -7.15625 5.96875 -6.484375 Z M 1.664062 -2.78125 C 1.664062 -2.417969 1.742188 -2.070312 1.894531 -1.742188 C 2.050781 -1.410156 2.265625 -1.15625 2.542969 -0.980469 C 2.820312 -0.808594 3.109375 -0.71875 3.414062 -0.71875 C 3.859375 -0.71875 4.242188 -0.898438 4.5625 -1.257812 C 4.882812 -1.617188 5.046875 -2.109375 5.046875 -2.726562 C 5.046875 -3.320312 4.886719 -3.785156 4.570312 -4.128906 C 4.253906 -4.46875 3.855469 -4.640625 3.375 -4.640625 C 2.898438 -4.640625 2.492188 -4.46875 2.164062 -4.128906 C 1.832031 -3.785156 1.664062 -3.335938 1.664062 -2.78125 Z M 1.664062 -2.78125 "/>
</symbol>
<symbol overflow="visible" id="glyph0-8">
<path style="stroke:none;" d="M 0.570312 -7.464844 L 0.570312 -8.476562 L 6.128906 -8.476562 L 6.128906 -7.65625 C 5.582031 -7.074219 5.039062 -6.304688 4.503906 -5.335938 C 3.964844 -4.371094 3.550781 -3.382812 3.257812 -2.359375 C 3.046875 -1.640625 2.914062 -0.855469 2.851562 0 L 1.769531 0 C 1.78125 -0.675781 1.914062 -1.492188 2.167969 -2.449219 C 2.421875 -3.40625 2.785156 -4.328125 3.261719 -5.21875 C 3.734375 -6.105469 4.242188 -6.855469 4.773438 -7.464844 Z M 0.570312 -7.464844 "/>
</symbol>
<symbol overflow="visible" id="glyph1-0">
<path style="stroke:none;" d="M 1.5 0 L 1.5 -7.5 L 7.5 -7.5 L 7.5 0 Z M 1.6875 -0.1875 L 7.3125 -0.1875 L 7.3125 -7.3125 L 1.6875 -7.3125 Z M 1.6875 -0.1875 "/>
</symbol>
<symbol overflow="visible" id="glyph1-1">
<path style="stroke:none;" d="M -0.015625 0 L 2.6875 -3.15625 L 1.136719 -6.222656 L 2.308594 -6.222656 L 2.835938 -5.117188 C 3.03125 -4.703125 3.207031 -4.304688 3.363281 -3.925781 L 5.15625 -6.222656 L 6.453125 -6.222656 L 3.835938 -3.078125 L 5.40625 0 L 4.234375 0 L 3.617188 -1.265625 C 3.484375 -1.535156 3.332031 -1.867188 3.164062 -2.265625 L 1.3125 0 Z M -0.015625 0 "/>
</symbol>
<symbol overflow="visible" id="glyph1-2">
<path style="stroke:none;" d="M 2.378906 -8.589844 L 3.527344 -8.589844 L 2.425781 -3.3125 C 2.335938 -2.875 2.289062 -2.546875 2.289062 -2.335938 C 2.289062 -1.875 2.472656 -1.507812 2.835938 -1.226562 C 3.199219 -0.945312 3.65625 -0.804688 4.207031 -0.804688 C 4.644531 -0.804688 5.050781 -0.902344 5.429688 -1.105469 C 5.804688 -1.304688 6.101562 -1.601562 6.320312 -1.992188 C 6.539062 -2.382812 6.738281 -3.007812 6.914062 -3.859375 L 7.90625 -8.589844 L 9.054688 -8.589844 L 8.003906 -3.550781 C 7.824219 -2.691406 7.585938 -2.011719 7.296875 -1.507812 C 7.003906 -1.007812 6.59375 -0.605469 6.078125 -0.300781 C 5.558594 0 4.953125 0.152344 4.265625 0.152344 C 3.617188 0.152344 3.054688 0.046875 2.582031 -0.171875 C 2.105469 -0.386719 1.75 -0.679688 1.515625 -1.0625 C 1.277344 -1.441406 1.160156 -1.867188 1.160156 -2.351562 C 1.160156 -2.652344 1.242188 -3.167969 1.398438 -3.902344 Z M 2.378906 -8.589844 "/>
</symbol>
<symbol overflow="visible" id="glyph2-0">
<path style="stroke:none;" d="M 0.75 0 L 0.75 -9.597656 L 5.25 -9.597656 L 5.25 0 Z M 1.5 -0.75 L 4.5 -0.75 L 4.5 -8.847656 L 1.5 -8.847656 Z M 1.5 -0.75 "/>
</symbol>
<symbol overflow="visible" id="glyph2-1">
<path style="stroke:none;" d="M 3.5625 2.519531 L 2.804688 2.519531 C 2.492188 2.121094 2.210938 1.699219 1.953125 1.257812 C 1.699219 0.8125 1.476562 0.351562 1.296875 -0.125 C 1.113281 -0.601562 0.96875 -1.085938 0.871094 -1.585938 C 0.769531 -2.085938 0.71875 -2.59375 0.71875 -3.105469 C 0.71875 -3.625 0.773438 -4.132812 0.875 -4.632812 C 0.976562 -5.128906 1.117188 -5.617188 1.300781 -6.085938 C 1.484375 -6.558594 1.703125 -7.019531 1.960938 -7.460938 C 2.214844 -7.90625 2.5 -8.328125 2.804688 -8.734375 L 3.5625 -8.734375 C 3.285156 -8.28125 3.039062 -7.835938 2.820312 -7.398438 C 2.601562 -6.957031 2.414062 -6.511719 2.265625 -6.054688 C 2.117188 -5.601562 2.007812 -5.132812 1.929688 -4.648438 C 1.851562 -4.167969 1.8125 -3.65625 1.8125 -3.117188 C 1.8125 -2.617188 1.851562 -2.121094 1.9375 -1.628906 C 2.019531 -1.136719 2.140625 -0.652344 2.289062 -0.179688 C 2.441406 0.296875 2.625 0.757812 2.84375 1.210938 C 3.058594 1.660156 3.296875 2.097656 3.5625 2.519531 Z M 3.5625 2.519531 "/>
</symbol>
<symbol overflow="visible" id="glyph2-2">
<path style="stroke:none;" d="M 3.273438 -3.105469 C 3.273438 -2.589844 3.226562 -2.082031 3.125 -1.585938 C 3.023438 -1.085938 2.878906 -0.601562 2.695312 -0.128906 C 2.511719 0.34375 2.292969 0.800781 2.035156 1.246094 C 1.78125 1.6875 1.5 2.113281 1.1875 2.519531 L 0.433594 2.519531 C 0.707031 2.074219 0.953125 1.632812 1.171875 1.1875 C 1.390625 0.746094 1.574219 0.296875 1.722656 -0.15625 C 1.871094 -0.613281 1.984375 -1.085938 2.066406 -1.570312 C 2.144531 -2.054688 2.1875 -2.5625 2.1875 -3.09375 C 2.1875 -3.59375 2.144531 -4.089844 2.058594 -4.582031 C 1.976562 -5.074219 1.859375 -5.558594 1.703125 -6.03125 C 1.550781 -6.507812 1.367188 -6.96875 1.152344 -7.421875 C 0.933594 -7.875 0.695312 -8.3125 0.433594 -8.734375 L 1.1875 -8.734375 C 1.5 -8.335938 1.789062 -7.917969 2.046875 -7.472656 C 2.304688 -7.03125 2.523438 -6.570312 2.703125 -6.089844 C 2.886719 -5.613281 3.027344 -5.121094 3.125 -4.621094 C 3.226562 -4.117188 3.273438 -3.613281 3.273438 -3.105469 Z M 3.273438 -3.105469 "/>
</symbol>
</g>
<clipPath id="clip1">
  <path d="M 45 19.921875 L 309 19.921875 L 309 170 L 45 170 Z M 45 19.921875 "/>
</clipPath>
<clipPath id="clip2">
  <path d="M 244 19.921875 L 309 19.921875 L 309 170 L 244 170 Z M 244 19.921875 "/>
</clipPath>
</defs>
<g id="surface6">
<g clip-path="url(#clip1)" clip-rule="nonzero">
<path style="fill:none;stroke-width:2;stroke-linecap:square;stroke-linejoin:miter;stroke:rgb(36.84082%,50.67749%,70.979309%);stroke-opacity:1;stroke-miterlimit:3.25;" d="M 121.128906 25 L 121.140625 25.179688 L 121.246094 26.886719 L 121.460938 30.261719 L 121.894531 36.839844 L 122.753906 49.339844 L 122.859375 50.84375 L 122.96875 52.335938 L 123.183594 55.273438 L 123.613281 61.003906 L 124.476562 71.855469 L 124.582031 73.15625 L 124.691406 74.449219 L 124.90625 76.992188 L 125.335938 81.9375 L 126.199219 91.277344 L 127.917969 107.859375 L 128.023438 108.792969 L 128.128906 109.710938 L 128.34375 111.527344 L 128.765625 115.039062 L 129.609375 121.621094 L 129.714844 122.402344 L 129.820312 123.175781 L 130.03125 124.695312 L 130.457031 127.632812 L 131.300781 133.101562 L 131.40625 133.75 L 131.511719 134.386719 L 131.722656 135.640625 L 132.144531 138.054688 L 132.992188 142.511719 L 133.097656 143.035156 L 133.203125 143.550781 L 133.414062 144.5625 L 133.835938 146.5 L 134.683594 150.046875 L 134.78125 150.429688 L 134.878906 150.808594 L 135.074219 151.550781 L 135.46875 152.96875 L 135.570312 153.308594 L 135.667969 153.644531 L 135.863281 154.300781 L 136.257812 155.542969 L 136.355469 155.84375 L 136.457031 156.132812 L 136.652344 156.707031 L 137.046875 157.785156 L 137.835938 159.710938 L 137.933594 159.929688 L 138.03125 160.144531 L 138.230469 160.5625 L 138.625 161.335938 L 138.722656 161.519531 L 138.820312 161.699219 L 139.019531 162.042969 L 139.414062 162.679688 L 139.511719 162.828125 L 139.609375 162.972656 L 139.808594 163.25 L 139.90625 163.382812 L 140.003906 163.511719 L 140.199219 163.753906 L 140.300781 163.871094 L 140.398438 163.984375 L 140.59375 164.195312 L 140.792969 164.394531 L 140.988281 164.574219 L 141.097656 164.667969 L 141.203125 164.757812 L 141.417969 164.921875 L 141.523438 164.996094 L 141.628906 165.066406 L 141.84375 165.195312 L 141.953125 165.253906 L 142.058594 165.308594 L 142.164062 165.359375 L 142.273438 165.40625 L 142.378906 165.449219 L 142.484375 165.488281 L 142.59375 165.523438 L 142.699219 165.554688 L 142.804688 165.582031 L 142.914062 165.605469 L 143.019531 165.625 L 143.125 165.640625 L 143.234375 165.652344 L 143.339844 165.660156 L 143.449219 165.667969 L 143.554688 165.667969 L 143.660156 165.664062 L 143.769531 165.660156 L 143.980469 165.636719 L 144.089844 165.621094 L 144.195312 165.601562 L 144.300781 165.578125 L 144.410156 165.550781 L 144.515625 165.519531 L 144.625 165.488281 L 144.835938 165.410156 L 144.945312 165.367188 L 145.050781 165.324219 L 145.265625 165.222656 L 145.476562 165.105469 L 145.691406 164.980469 L 145.796875 164.914062 L 145.90625 164.84375 L 146.121094 164.695312 L 146.332031 164.53125 L 146.546875 164.359375 L 146.972656 163.984375 L 147.082031 163.882812 L 147.1875 163.777344 L 147.402344 163.566406 L 147.828125 163.105469 L 147.929688 162.992188 L 148.027344 162.878906 L 148.226562 162.640625 L 148.628906 162.144531 L 149.425781 161.0625 L 149.523438 160.917969 L 149.625 160.773438 L 149.824219 160.476562 L 150.222656 159.867188 L 151.023438 158.566406 L 151.121094 158.394531 L 151.222656 158.226562 L 151.421875 157.878906 L 151.820312 157.171875 L 152.617188 155.695312 L 154.214844 152.519531 L 154.410156 152.113281 L 154.605469 151.703125 L 154.996094 150.875 L 155.78125 149.179688 L 157.34375 145.667969 L 160.472656 138.355469 L 167.265625 122.5625 L 167.363281 122.34375 L 167.464844 122.125 L 167.664062 121.691406 L 168.058594 120.824219 L 168.851562 119.121094 L 170.433594 115.828125 L 170.535156 115.628906 L 170.632812 115.429688 L 170.832031 115.03125 L 171.226562 114.246094 L 172.019531 112.707031 L 173.601562 109.773438 L 173.710938 109.582031 L 173.816406 109.390625 L 174.03125 109.015625 L 174.460938 108.269531 L 175.320312 106.824219 L 177.039062 104.125 L 177.144531 103.964844 L 177.253906 103.808594 L 177.46875 103.492188 L 177.898438 102.875 L 178.753906 101.691406 L 180.472656 99.53125 L 180.578125 99.40625 L 180.894531 99.042969 L 181.316406 98.570312 L 182.160156 97.675781 L 182.582031 97.253906 L 183 96.851562 L 183.84375 96.089844 L 184.054688 95.910156 L 184.265625 95.734375 L 184.6875 95.398438 L 185.53125 94.773438 L 185.742188 94.625 L 185.953125 94.484375 L 186.375 94.210938 L 187.21875 93.714844 L 187.316406 93.660156 L 187.609375 93.507812 L 188.003906 93.3125 L 188.199219 93.21875 L 188.394531 93.128906 L 188.789062 92.960938 L 188.984375 92.882812 L 189.183594 92.808594 L 189.671875 92.632812 L 189.773438 92.601562 L 189.96875 92.539062 L 190.363281 92.425781 L 190.460938 92.402344 L 190.558594 92.375 L 190.949219 92.28125 L 191.148438 92.238281 L 191.34375 92.199219 L 191.539062 92.164062 L 191.640625 92.148438 L 191.933594 92.101562 L 192.128906 92.078125 L 192.230469 92.0625 L 192.328125 92.054688 L 192.425781 92.042969 L 192.523438 92.035156 L 192.621094 92.023438 L 192.816406 92.007812 L 192.917969 92.003906 L 193.015625 91.996094 L 193.40625 91.980469 L 193.613281 91.980469 L 193.71875 91.976562 L 193.824219 91.980469 L 194.039062 91.980469 L 194.144531 91.984375 L 194.253906 91.988281 L 194.359375 91.996094 L 194.464844 92 L 194.570312 92.007812 L 194.679688 92.015625 L 194.890625 92.03125 L 195 92.042969 L 195.210938 92.0625 L 195.316406 92.078125 L 195.425781 92.089844 L 195.636719 92.117188 L 195.746094 92.132812 L 195.851562 92.152344 L 196.0625 92.1875 L 196.171875 92.207031 L 196.277344 92.226562 L 196.492188 92.265625 L 196.917969 92.359375 L 197.023438 92.386719 L 197.128906 92.410156 L 197.34375 92.464844 L 197.769531 92.585938 L 197.875 92.617188 L 197.984375 92.648438 L 198.195312 92.714844 L 198.621094 92.855469 L 198.730469 92.890625 L 199.046875 93.007812 L 199.476562 93.171875 L 200.328125 93.53125 L 200.425781 93.578125 L 200.527344 93.621094 L 200.726562 93.714844 L 201.125 93.90625 L 201.917969 94.3125 L 203.511719 95.226562 L 203.609375 95.289062 L 203.710938 95.347656 L 203.910156 95.472656 L 204.308594 95.726562 L 205.101562 96.253906 L 206.695312 97.382812 L 206.800781 97.464844 L 206.910156 97.542969 L 207.125 97.707031 L 207.558594 98.035156 L 208.417969 98.707031 L 210.144531 100.113281 L 213.59375 103.097656 L 220.367188 109.140625 L 220.464844 109.226562 L 220.566406 109.3125 L 220.761719 109.484375 L 221.15625 109.828125 L 221.945312 110.5 L 223.527344 111.8125 L 223.625 111.894531 L 223.722656 111.972656 L 223.921875 112.132812 L 224.316406 112.449219 L 225.105469 113.070312 L 226.6875 114.261719 L 226.792969 114.339844 L 226.902344 114.417969 L 227.113281 114.570312 L 227.542969 114.875 L 228.398438 115.464844 L 230.113281 116.566406 L 230.21875 116.628906 L 230.324219 116.695312 L 230.539062 116.824219 L 230.96875 117.074219 L 231.824219 117.554688 L 233.539062 118.421875 L 233.636719 118.46875 L 233.738281 118.515625 L 233.9375 118.605469 L 234.335938 118.78125 L 235.136719 119.113281 L 235.238281 119.152344 L 235.335938 119.191406 L 235.535156 119.269531 L 235.9375 119.417969 L 236.734375 119.691406 L 236.9375 119.753906 L 237.535156 119.929688 L 237.636719 119.960938 L 237.734375 119.988281 L 237.933594 120.039062 L 238.335938 120.140625 L 238.433594 120.164062 L 238.535156 120.191406 L 239.132812 120.320312 L 239.335938 120.359375 L 239.535156 120.398438 L 239.933594 120.46875 L 240.128906 120.5 L 240.324219 120.527344 L 240.425781 120.542969 L 240.523438 120.554688 L 240.71875 120.582031 L 240.914062 120.605469 L 241.109375 120.625 L 241.207031 120.636719 L 241.5 120.660156 L 241.601562 120.671875 L 241.699219 120.675781 L 241.894531 120.691406 L 241.992188 120.695312 L 242.089844 120.703125 L 242.675781 120.726562 L 242.777344 120.726562 L 242.875 120.730469 L 243.363281 120.730469 L 243.460938 120.726562 L 243.558594 120.726562 L 243.65625 120.722656 L 243.753906 120.722656 L 243.855469 120.71875 L 244.148438 120.707031 L 244.246094 120.699219 L 244.34375 120.695312 L 244.636719 120.671875 L 244.734375 120.667969 L 244.832031 120.65625 L 245.03125 120.640625 L 245.128906 120.628906 L 245.226562 120.621094 L 245.617188 120.574219 L 245.8125 120.546875 L 246.207031 120.492188 L 246.3125 120.472656 L 246.417969 120.457031 L 246.628906 120.421875 L 247.054688 120.339844 L 247.160156 120.320312 L 247.269531 120.296875 L 247.480469 120.25 L 247.90625 120.152344 L 248.011719 120.125 L 248.117188 120.101562 L 248.332031 120.046875 L 248.757812 119.929688 L 249.605469 119.671875 L 249.714844 119.636719 L 249.820312 119.601562 L 250.03125 119.527344 L 250.457031 119.378906 L 251.308594 119.050781 L 251.519531 118.964844 L 251.734375 118.875 L 252.15625 118.691406 L 253.007812 118.296875 L 253.109375 118.25 L 253.207031 118.203125 L 253.40625 118.101562 L 253.800781 117.902344 L 254.59375 117.480469 L 256.183594 116.558594 L 256.28125 116.5 L 256.382812 116.4375 L 256.578125 116.3125 L 256.976562 116.0625 L 257.769531 115.542969 L 259.355469 114.4375 L 259.464844 114.359375 L 259.570312 114.28125 L 259.785156 114.125 L 260.21875 113.804688 L 261.078125 113.148438 L 262.796875 111.78125 L 266.238281 108.863281 L 272.992188 102.828125 L 273.089844 102.742188 L 273.191406 102.65625 L 273.386719 102.480469 L 273.78125 102.136719 L 274.566406 101.449219 L 276.144531 100.109375 L 276.339844 99.945312 L 276.539062 99.78125 L 276.929688 99.460938 L 277.71875 98.824219 L 279.292969 97.605469 L 279.402344 97.527344 L 279.507812 97.445312 L 279.722656 97.289062 L 280.148438 96.980469 L 281 96.378906 L 281.109375 96.304688 L 281.214844 96.230469 L 281.429688 96.089844 L 281.855469 95.804688 L 282.710938 95.265625 L 282.816406 95.199219 L 282.921875 95.136719 L 283.136719 95.007812 L 283.5625 94.757812 L 284.417969 94.285156 L 284.523438 94.230469 L 284.632812 94.175781 L 284.84375 94.0625 L 285.273438 93.851562 L 286.125 93.457031 L 286.226562 93.414062 L 286.324219 93.371094 L 286.523438 93.289062 L 286.925781 93.128906 L 287.023438 93.089844 L 287.125 93.050781 L 287.324219 92.976562 L 287.722656 92.835938 L 287.820312 92.800781 L 287.921875 92.769531 L 288.121094 92.703125 L 288.519531 92.582031 L 288.617188 92.554688 L 288.71875 92.527344 L 288.917969 92.472656 L 289.316406 92.375 L 289.414062 92.351562 L 289.515625 92.328125 L 289.714844 92.285156 L 289.8125 92.261719 L 289.914062 92.242188 L 290.113281 92.207031 L 290.210938 92.1875 L 290.3125 92.171875 L 290.511719 92.140625 L 290.609375 92.125 L 290.710938 92.109375 L 290.910156 92.082031 L 291.011719 92.070312 L 291.109375 92.058594 L 291.210938 92.050781 L 291.308594 92.039062 L 291.410156 92.03125 L 291.507812 92.023438 L 291.609375 92.015625 L 291.707031 92.007812 L 291.808594 92 L 291.90625 91.996094 L 292.007812 91.992188 L 292.105469 91.988281 L 292.207031 91.984375 L 292.304688 91.980469 L 292.40625 91.980469 L 292.503906 91.976562 L 292.601562 91.976562 L 292.699219 91.980469 L 292.894531 91.980469 L 293.285156 91.996094 L 293.480469 92.011719 L 293.578125 92.015625 L 293.675781 92.027344 L 293.871094 92.042969 L 294.261719 92.089844 L 294.457031 92.117188 L 294.652344 92.148438 L 294.851562 92.183594 L 294.949219 92.199219 L 295.046875 92.21875 L 295.242188 92.261719 L 295.632812 92.351562 L 295.730469 92.375 L 295.828125 92.402344 L 296.023438 92.453125 L 296.414062 92.570312 L 296.609375 92.632812 L 296.804688 92.699219 L 297.195312 92.84375 L 297.292969 92.878906 L 297.390625 92.917969 L 297.585938 93 L 297.976562 93.167969 L 298.757812 93.546875 L 298.863281 93.605469 L 298.96875 93.660156 L 299.183594 93.777344 L 299.605469 94.023438 L 300.453125 94.5625 L 300.664062 94.710938 L 300.878906 94.859375 L 301.300781 95.171875 L 302.148438 95.84375 L 302.257812 95.933594 L 302.363281 96.023438 L 302.574219 96.207031 L 303 96.585938 L 303.847656 97.394531 L 305.542969 99.214844 L 305.640625 99.332031 L 305.742188 99.445312 L 305.9375 99.679688 L 306.332031 100.15625 L 307.125 101.15625 L 308.707031 103.332031 L 308.804688 103.476562 L 308.90625 103.621094 L 309.101562 103.910156 L 309.5 104.503906 L 310.289062 105.734375 L 311.871094 108.351562 L 311.980469 108.539062 L 312.085938 108.726562 L 312.300781 109.101562 L 312.730469 109.859375 L 313.589844 111.429688 L 315.304688 114.730469 L 318.734375 121.933594 L 325.144531 136.769531 L 325.242188 137.003906 L 325.339844 137.234375 L 325.535156 137.703125 L 325.929688 138.632812 L 326.714844 140.488281 L 328.285156 144.160156 L 328.480469 144.613281 L 328.675781 145.0625 L 329.070312 145.960938 L 329.855469 147.734375 L 331.425781 151.164062 L 331.636719 151.617188 L 331.851562 152.0625 L 332.277344 152.945312 L 333.128906 154.652344 L 333.234375 154.863281 L 333.34375 155.070312 L 333.554688 155.480469 L 333.980469 156.285156 L 334.832031 157.824219 L 334.9375 158.007812 L 335.046875 158.195312 L 335.257812 158.558594 L 335.683594 159.261719 L 336.535156 160.589844 L 336.644531 160.746094 L 336.75 160.902344 L 336.960938 161.207031 L 337.386719 161.792969 L 338.238281 162.859375 L 338.339844 162.972656 L 338.4375 163.085938 L 338.636719 163.304688 L 339.035156 163.71875 L 339.132812 163.816406 L 339.234375 163.910156 L 339.433594 164.09375 L 339.832031 164.433594 L 339.929688 164.515625 L 340.027344 164.589844 L 340.226562 164.738281 L 340.328125 164.808594 L 340.425781 164.875 L 340.625 165 L 340.722656 165.058594 L 340.824219 165.117188 L 341.023438 165.222656 L 341.121094 165.269531 L 341.222656 165.316406 L 341.421875 165.398438 L 341.519531 165.4375 L 341.617188 165.472656 L 341.71875 165.503906 L 341.816406 165.535156 L 341.917969 165.5625 L 342.015625 165.585938 L 342.117188 165.605469 L 342.214844 165.625 L 342.316406 165.636719 L 342.511719 165.660156 L 342.613281 165.664062 L 342.710938 165.667969 L 342.8125 165.667969 L 342.910156 165.664062 L 343.011719 165.65625 L 343.109375 165.648438 L 343.207031 165.632812 L 343.308594 165.617188 L 343.40625 165.597656 L 343.507812 165.574219 L 343.605469 165.550781 L 343.707031 165.519531 L 343.804688 165.488281 L 343.90625 165.453125 L 344.101562 165.367188 L 344.203125 165.324219 L 344.300781 165.273438 L 344.402344 165.21875 L 344.601562 165.101562 L 344.707031 165.03125 L 344.816406 164.957031 L 345.03125 164.796875 L 345.136719 164.710938 L 345.246094 164.621094 L 345.460938 164.425781 L 345.570312 164.320312 L 345.675781 164.210938 L 345.890625 163.976562 L 346.324219 163.457031 L 346.429688 163.316406 L 346.539062 163.167969 L 346.753906 162.859375 L 347.183594 162.183594 L 347.292969 162 L 347.398438 161.8125 L 347.617188 161.425781 L 348.046875 160.582031 L 348.152344 160.355469 L 348.261719 160.125 L 348.476562 159.652344 L 348.90625 158.632812 L 349.015625 158.363281 L 349.125 158.085938 L 349.339844 157.519531 L 349.769531 156.3125 L 349.875 155.996094 L 349.984375 155.671875 L 350.199219 155.007812 L 350.628906 153.605469 L 351.492188 150.480469 L 351.597656 150.070312 L 351.703125 149.648438 L 351.914062 148.789062 L 352.339844 146.992188 L 353.183594 143.058594 L 353.289062 142.535156 L 353.394531 142.003906 L 353.605469 140.921875 L 354.03125 138.660156 L 354.875 133.773438 L 354.980469 133.125 L 355.085938 132.46875 L 355.296875 131.136719 L 355.722656 128.367188 L 356.566406 122.421875 L 356.671875 121.640625 L 356.777344 120.851562 L 356.988281 119.242188 L 357.414062 115.914062 L 358.257812 108.808594 L 358.355469 107.9375 L 358.457031 107.0625 L 358.652344 105.28125 L 359.046875 101.621094 L 359.835938 93.867188 L 359.933594 92.859375 L 360.035156 91.839844 L 360.230469 89.773438 L 360.625 85.53125 L 361.414062 76.578125 L 361.511719 75.414062 L 361.613281 74.242188 L 361.808594 71.867188 L 362.203125 66.992188 L 362.992188 56.742188 L 364.570312 34.148438 L 364.675781 32.511719 L 364.785156 30.863281 L 365 27.523438 L 365.15625 25 " transform="matrix(1,0,0,1,-66,-5)"/>
</g>
<path style="fill:none;stroke-width:2;stroke-linecap:square;stroke-linejoin:miter;stroke:rgb(36.84082%,50.67749%,70.979309%);stroke-opacity:1;stroke-miterlimit:3.25;" d="M 197.101562 92.40625 L 197.128906 92.414062 L 197.160156 92.417969 L 197.214844 92.433594 L 197.328125 92.460938 L 197.554688 92.523438 L 198.003906 92.65625 L 198.035156 92.664062 L 198.0625 92.671875 L 198.117188 92.691406 L 198.230469 92.726562 L 198.457031 92.800781 L 198.910156 92.957031 L 198.972656 92.980469 L 199.03125 93.003906 L 199.15625 93.046875 L 199.398438 93.140625 L 199.890625 93.34375 L 200.867188 93.78125 L 200.898438 93.796875 L 200.925781 93.808594 L 200.984375 93.835938 L 201.097656 93.894531 L 201.328125 94.007812 L 201.785156 94.242188 L 202.699219 94.746094 L 204.492188 95.847656 L 206.4375 97.195312 L 208.253906 98.574219 L 210.222656 100.175781 L 212.152344 101.828125 L 213.957031 103.417969 L 215.910156 105.171875 L 217.734375 106.808594 L 219.523438 108.402344 L 221.464844 110.089844 L 223.273438 111.609375 L 225.238281 113.171875 L 227.164062 114.605469 L 228.960938 115.835938 L 230.910156 117.039062 L 232.730469 118.027344 L 232.761719 118.042969 L 232.789062 118.058594 L 232.851562 118.089844 L 232.976562 118.148438 L 233.222656 118.269531 L 233.714844 118.503906 L 234.699219 118.9375 L 234.761719 118.960938 L 234.820312 118.988281 L 234.941406 119.035156 L 235.183594 119.132812 L 235.667969 119.320312 L 235.699219 119.332031 L 235.726562 119.339844 L 235.789062 119.363281 L 236.152344 119.492188 L 236.636719 119.65625 L 236.664062 119.667969 L 236.691406 119.675781 L 236.75 119.695312 L 236.859375 119.730469 L 237.085938 119.800781 L 237.539062 119.933594 L 237.59375 119.949219 L 237.652344 119.964844 L 237.765625 119.996094 L 237.988281 120.054688 L 238.503906 120.183594 L 238.5625 120.195312 L 238.6875 120.222656 L 238.929688 120.277344 L 238.992188 120.292969 L 239.050781 120.304688 L 239.175781 120.328125 L 239.417969 120.375 L 239.449219 120.382812 L 239.480469 120.386719 L 239.542969 120.398438 L 239.664062 120.421875 L 239.910156 120.464844 L 240.398438 120.539062 L 240.425781 120.542969 L 240.457031 120.546875 L 240.511719 120.554688 L 240.625 120.570312 L 240.855469 120.597656 L 240.882812 120.601562 L 240.914062 120.605469 L 240.96875 120.609375 L 241.082031 120.621094 L 241.3125 120.644531 L 241.339844 120.648438 L 241.371094 120.652344 L 241.425781 120.65625 L 241.539062 120.664062 L 241.570312 120.667969 L 241.597656 120.667969 L 241.65625 120.675781 L 241.769531 120.683594 L 241.796875 120.683594 L 241.828125 120.6875 L 241.882812 120.691406 L 241.996094 120.699219 L 242.054688 120.699219 L 242.113281 120.703125 L 242.226562 120.710938 L 242.28125 120.710938 L 242.339844 120.714844 L 242.394531 120.714844 L 242.449219 120.71875 L 242.507812 120.71875 L 242.5625 120.722656 L 242.617188 120.722656 L 242.675781 120.726562 L 242.8125 120.726562 L 242.84375 120.730469 L 243.429688 120.730469 L 243.457031 120.726562 L 243.625 120.726562 L 243.683594 120.722656 L 243.738281 120.722656 L 243.792969 120.71875 L 243.851562 120.71875 L 243.90625 120.714844 L 244.019531 120.710938 L 244.046875 120.710938 L 244.078125 120.707031 L 244.140625 120.707031 L 244.261719 120.699219 L 244.292969 120.695312 L 244.320312 120.695312 L 244.382812 120.691406 L 244.503906 120.683594 L 244.535156 120.679688 L 244.566406 120.679688 L 244.625 120.675781 L 244.746094 120.664062 L 244.988281 120.644531 L 245.050781 120.636719 L 245.109375 120.632812 L 245.234375 120.621094 L 245.476562 120.589844 L 245.507812 120.589844 L 245.535156 120.585938 L 245.597656 120.578125 L 245.71875 120.5625 L 245.960938 120.527344 L 245.988281 120.523438 L 246.019531 120.519531 L 246.074219 120.511719 L 246.1875 120.492188 L 246.414062 120.457031 L 246.867188 120.375 L 246.898438 120.371094 L 246.925781 120.367188 L 246.980469 120.355469 L 247.320312 120.285156 L 247.777344 120.183594 L 247.804688 120.175781 L 247.835938 120.167969 L 247.898438 120.15625 L 248.019531 120.125 L 248.265625 120.0625 L 248.757812 119.929688 L 248.789062 119.921875 L 248.820312 119.910156 L 248.882812 119.894531 L 249.003906 119.859375 L 249.25 119.785156 L 249.742188 119.628906 L 249.773438 119.617188 L 249.800781 119.605469 L 249.863281 119.585938 L 249.984375 119.546875 L 250.222656 119.460938 L 250.707031 119.285156 L 251.671875 118.902344 L 251.726562 118.878906 L 251.785156 118.851562 L 251.898438 118.804688 L 252.121094 118.707031 L 252.570312 118.503906 L 253.472656 118.070312 L 255.425781 117.011719 L 257.246094 115.886719 L 259.03125 114.667969 L 260.972656 113.230469 L 262.78125 111.796875 L 264.742188 110.160156 L 266.570312 108.570312 L 268.367188 106.976562 L 270.3125 105.226562 L 272.128906 103.59375 L 274.101562 101.855469 L 276.03125 100.203125 L 277.835938 98.730469 L 279.792969 97.238281 L 281.617188 95.960938 L 283.40625 94.847656 L 283.4375 94.832031 L 283.46875 94.8125 L 283.527344 94.777344 L 283.648438 94.710938 L 283.894531 94.574219 L 284.378906 94.308594 L 285.347656 93.816406 L 285.378906 93.800781 L 285.40625 93.789062 L 285.460938 93.761719 L 285.574219 93.707031 L 285.800781 93.601562 L 286.253906 93.402344 L 286.285156 93.390625 L 286.367188 93.355469 L 286.480469 93.304688 L 287.160156 93.035156 L 287.222656 93.011719 L 287.289062 92.988281 L 287.414062 92.945312 L 287.667969 92.855469 L 288.171875 92.6875 L 288.203125 92.679688 L 288.234375 92.667969 L 288.296875 92.648438 L 288.425781 92.609375 L 288.679688 92.539062 L 288.710938 92.53125 L 288.742188 92.519531 L 288.804688 92.503906 L 288.929688 92.46875 L 288.992188 92.453125 L 289.058594 92.4375 L 289.183594 92.40625 " transform="matrix(1,0,0,1,-66,-5)"/>
<path style="fill:none;stroke-width:2;stroke-linecap:square;stroke-linejoin:miter;stroke:rgb(88.070679%,61.103821%,14.204407%);stroke-opacity:1;stroke-miterlimit:3.25;" d="M 197.101562 66.386719 L 197.128906 66.453125 L 197.160156 66.519531 L 197.214844 66.652344 L 197.554688 67.449219 L 198.003906 68.5 L 198.910156 70.570312 L 200.867188 74.914062 L 202.699219 78.796875 L 204.492188 82.433594 L 206.4375 86.191406 L 208.253906 89.523438 L 210.222656 92.945312 L 212.152344 96.113281 L 213.957031 98.890625 L 215.910156 101.71875 L 217.734375 104.179688 L 219.523438 106.429688 L 221.464844 108.683594 L 223.273438 110.609375 L 225.238281 112.511719 L 227.164062 114.183594 L 228.960938 115.574219 L 230.910156 116.894531 L 230.9375 116.914062 L 230.96875 116.929688 L 231.023438 116.964844 L 231.363281 117.175781 L 231.820312 117.445312 L 232.730469 117.949219 L 232.761719 117.96875 L 232.789062 117.984375 L 232.851562 118.015625 L 232.976562 118.082031 L 233.222656 118.207031 L 233.746094 118.46875 L 233.777344 118.480469 L 233.835938 118.511719 L 233.960938 118.570312 L 234.207031 118.683594 L 234.699219 118.902344 L 234.730469 118.917969 L 234.761719 118.929688 L 234.820312 118.957031 L 234.941406 119.007812 L 235.183594 119.105469 L 235.667969 119.296875 L 235.699219 119.308594 L 235.726562 119.320312 L 235.789062 119.34375 L 235.910156 119.390625 L 236.152344 119.476562 L 236.636719 119.644531 L 236.664062 119.65625 L 236.691406 119.664062 L 236.75 119.683594 L 236.859375 119.71875 L 237.085938 119.789062 L 237.539062 119.925781 L 237.59375 119.941406 L 237.652344 119.957031 L 237.765625 119.988281 L 237.988281 120.050781 L 238.503906 120.179688 L 238.5625 120.195312 L 238.6875 120.222656 L 238.929688 120.277344 L 238.960938 120.28125 L 238.992188 120.289062 L 239.050781 120.300781 L 239.175781 120.328125 L 239.417969 120.375 L 239.449219 120.382812 L 239.480469 120.386719 L 239.542969 120.398438 L 239.664062 120.421875 L 239.910156 120.464844 L 240.398438 120.539062 L 240.425781 120.542969 L 240.457031 120.546875 L 240.511719 120.554688 L 240.625 120.570312 L 240.855469 120.597656 L 240.882812 120.601562 L 240.914062 120.601562 L 240.96875 120.609375 L 241.082031 120.621094 L 241.3125 120.644531 L 241.339844 120.648438 L 241.371094 120.652344 L 241.425781 120.65625 L 241.539062 120.664062 L 241.570312 120.667969 L 241.597656 120.667969 L 241.65625 120.675781 L 241.769531 120.683594 L 241.796875 120.683594 L 241.828125 120.6875 L 241.882812 120.691406 L 241.996094 120.699219 L 242.054688 120.699219 L 242.113281 120.703125 L 242.226562 120.710938 L 242.28125 120.710938 L 242.339844 120.714844 L 242.394531 120.714844 L 242.449219 120.71875 L 242.507812 120.71875 L 242.5625 120.722656 L 242.617188 120.722656 L 242.675781 120.726562 L 242.8125 120.726562 L 242.84375 120.730469 L 243.429688 120.730469 L 243.457031 120.726562 L 243.625 120.726562 L 243.683594 120.722656 L 243.738281 120.722656 L 243.792969 120.71875 L 243.851562 120.71875 L 243.90625 120.714844 L 244.019531 120.710938 L 244.046875 120.710938 L 244.078125 120.707031 L 244.140625 120.707031 L 244.261719 120.699219 L 244.292969 120.695312 L 244.320312 120.695312 L 244.382812 120.691406 L 244.503906 120.683594 L 244.535156 120.679688 L 244.566406 120.679688 L 244.625 120.675781 L 244.746094 120.664062 L 244.988281 120.644531 L 245.050781 120.636719 L 245.109375 120.632812 L 245.234375 120.617188 L 245.476562 120.589844 L 245.507812 120.585938 L 245.535156 120.585938 L 245.597656 120.578125 L 245.71875 120.5625 L 245.960938 120.527344 L 245.988281 120.523438 L 246.019531 120.519531 L 246.074219 120.511719 L 246.1875 120.492188 L 246.414062 120.457031 L 246.445312 120.453125 L 246.472656 120.445312 L 246.527344 120.4375 L 246.640625 120.417969 L 246.867188 120.375 L 246.898438 120.371094 L 246.925781 120.363281 L 246.980469 120.351562 L 247.09375 120.332031 L 247.320312 120.285156 L 247.777344 120.179688 L 247.804688 120.171875 L 247.835938 120.167969 L 247.898438 120.152344 L 248.019531 120.121094 L 248.265625 120.058594 L 248.757812 119.921875 L 248.820312 119.90625 L 248.882812 119.886719 L 249.003906 119.851562 L 249.25 119.773438 L 249.742188 119.613281 L 249.773438 119.605469 L 249.800781 119.59375 L 249.863281 119.574219 L 249.984375 119.53125 L 250.222656 119.445312 L 250.707031 119.265625 L 251.671875 118.867188 L 251.699219 118.855469 L 251.726562 118.839844 L 251.785156 118.816406 L 251.898438 118.765625 L 252.121094 118.664062 L 252.570312 118.453125 L 253.472656 117.996094 L 253.503906 117.980469 L 253.53125 117.964844 L 253.59375 117.929688 L 253.714844 117.863281 L 253.960938 117.730469 L 254.449219 117.453125 L 255.425781 116.863281 L 257.246094 115.632812 L 259.03125 114.257812 L 260.972656 112.582031 L 262.78125 110.84375 L 264.742188 108.773438 L 266.570312 106.660156 L 268.367188 104.421875 L 270.3125 101.804688 L 272.128906 99.1875 L 274.101562 96.164062 L 276.03125 92.996094 L 277.835938 89.875 L 279.792969 86.296875 L 281.617188 82.78125 L 283.40625 79.167969 L 285.347656 75.0625 L 287.160156 71.058594 L 287.191406 70.984375 L 287.222656 70.914062 L 287.289062 70.769531 L 287.414062 70.484375 L 287.667969 69.910156 L 288.171875 68.75 L 288.234375 68.601562 L 288.296875 68.457031 L 288.425781 68.164062 L 288.679688 67.574219 L 288.804688 67.277344 L 288.929688 66.984375 L 288.992188 66.835938 L 289.058594 66.683594 L 289.183594 66.386719 " transform="matrix(1,0,0,1,-66,-5)"/>
<g clip-path="url(#clip2)" clip-rule="nonzero">
<path style="fill:none;stroke-width:2;stroke-linecap:square;stroke-linejoin:miter;stroke:rgb(36.84082%,50.67749%,70.979309%);stroke-opacity:1;stroke-miterlimit:3.25;" d="M 319.730469 124.144531 L 319.742188 124.179688 L 319.757812 124.210938 L 319.785156 124.273438 L 319.84375 124.398438 L 319.957031 124.65625 L 320.179688 125.167969 L 320.632812 126.195312 L 321.613281 128.453125 L 322.527344 130.585938 L 323.425781 132.695312 L 324.398438 135 L 325.304688 137.15625 L 326.289062 139.484375 L 327.253906 141.761719 L 328.15625 143.863281 L 329.132812 146.105469 L 330.046875 148.160156 L 330.941406 150.125 L 331.910156 152.183594 L 332.816406 154.03125 L 333.796875 155.9375 L 334.761719 157.695312 L 335.660156 159.222656 L 336.632812 160.734375 L 337.542969 161.996094 L 337.574219 162.035156 L 337.605469 162.078125 L 337.667969 162.15625 L 337.789062 162.3125 L 338.035156 162.617188 L 338.527344 163.183594 L 338.542969 163.203125 L 338.589844 163.25 L 338.648438 163.316406 L 338.769531 163.445312 L 339.011719 163.695312 L 339.042969 163.726562 L 339.074219 163.753906 L 339.132812 163.8125 L 339.253906 163.929688 L 339.496094 164.152344 L 339.511719 164.164062 L 339.550781 164.203125 L 339.609375 164.25 L 339.722656 164.347656 L 339.949219 164.527344 L 339.960938 164.539062 L 339.976562 164.550781 L 340.003906 164.570312 L 340.058594 164.613281 L 340.171875 164.699219 L 340.398438 164.855469 L 340.414062 164.867188 L 340.429688 164.875 L 340.460938 164.894531 L 340.519531 164.933594 L 340.644531 165.011719 L 340.660156 165.019531 L 340.675781 165.03125 L 340.703125 165.046875 L 340.765625 165.082031 L 340.886719 165.152344 L 341.011719 165.214844 L 341.132812 165.273438 L 341.378906 165.382812 L 341.390625 165.390625 L 341.40625 165.394531 L 341.433594 165.40625 L 341.492188 165.425781 L 341.605469 165.46875 L 341.621094 165.472656 L 341.632812 165.476562 L 341.664062 165.488281 L 341.71875 165.503906 L 341.835938 165.539062 L 341.847656 165.542969 L 341.863281 165.546875 L 341.890625 165.554688 L 341.949219 165.570312 L 341.964844 165.574219 L 341.976562 165.574219 L 342.003906 165.582031 L 342.0625 165.59375 L 342.078125 165.597656 L 342.089844 165.601562 L 342.121094 165.605469 L 342.175781 165.617188 L 342.191406 165.617188 L 342.207031 165.621094 L 342.234375 165.625 L 342.292969 165.632812 L 342.304688 165.636719 L 342.320312 165.636719 L 342.347656 165.640625 L 342.359375 165.644531 L 342.375 165.644531 L 342.402344 165.648438 L 342.417969 165.648438 L 342.429688 165.652344 L 342.460938 165.652344 L 342.472656 165.65625 L 342.488281 165.65625 L 342.515625 165.660156 L 342.558594 165.660156 L 342.570312 165.664062 L 342.65625 165.664062 L 342.667969 165.667969 L 342.835938 165.667969 L 342.851562 165.664062 L 342.921875 165.664062 L 342.933594 165.660156 L 342.976562 165.660156 L 342.992188 165.65625 L 343.035156 165.65625 L 343.046875 165.652344 L 343.074219 165.652344 L 343.089844 165.648438 L 343.101562 165.648438 L 343.132812 165.644531 L 343.1875 165.636719 L 343.203125 165.632812 L 343.21875 165.632812 L 343.246094 165.628906 L 343.308594 165.617188 L 343.324219 165.613281 L 343.339844 165.613281 L 343.371094 165.605469 L 343.429688 165.59375 L 343.492188 165.578125 L 343.550781 165.5625 L 343.671875 165.53125 L 343.6875 165.527344 L 343.703125 165.519531 L 343.734375 165.511719 L 343.792969 165.492188 L 343.917969 165.445312 L 343.929688 165.441406 L 343.945312 165.433594 L 344.039062 165.398438 L 344.160156 165.34375 L 344.171875 165.335938 L 344.1875 165.328125 L 344.214844 165.316406 L 344.273438 165.289062 L 344.386719 165.226562 L 344.398438 165.21875 L 344.414062 165.210938 L 344.441406 165.195312 L 344.5 165.164062 L 344.613281 165.09375 L 344.625 165.085938 L 344.640625 165.074219 L 344.667969 165.058594 L 344.726562 165.019531 L 344.839844 164.941406 L 345.066406 164.769531 L 345.097656 164.746094 L 345.128906 164.71875 L 345.1875 164.667969 L 345.3125 164.5625 L 345.558594 164.332031 L 345.589844 164.300781 L 345.617188 164.269531 L 345.679688 164.207031 L 345.804688 164.074219 L 346.050781 163.796875 L 346.0625 163.78125 L 346.078125 163.761719 L 346.109375 163.726562 L 346.167969 163.652344 L 346.289062 163.5 L 346.53125 163.179688 L 346.546875 163.15625 L 346.5625 163.136719 L 346.59375 163.09375 L 346.652344 163.007812 L 346.773438 162.832031 L 347.015625 162.460938 L 347.027344 162.4375 L 347.042969 162.414062 L 347.070312 162.371094 L 347.125 162.277344 L 347.238281 162.089844 L 347.464844 161.699219 L 347.914062 160.847656 L 347.929688 160.816406 L 347.945312 160.789062 L 347.976562 160.726562 L 348.035156 160.601562 L 348.15625 160.347656 L 348.402344 159.820312 L 348.890625 158.675781 L 348.90625 158.640625 L 348.917969 158.605469 L 348.945312 158.53125 L 349.003906 158.390625 L 349.117188 158.101562 L 349.347656 157.5 L 349.800781 156.21875 L 350.695312 153.386719 L 351.664062 149.808594 L 352.566406 145.96875 L 353.546875 141.222656 L 354.464844 136.214844 L 355.363281 130.730469 L 356.335938 124.109375 L 357.242188 117.261719 L 358.226562 109.074219 L 359.195312 100.21875 L 360.097656 91.1875 L 361.074219 80.519531 L 361.988281 69.6875 L 362.882812 58.222656 L 363.851562 44.78125 L 364.757812 31.261719 L 364.773438 31.019531 L 364.789062 30.773438 L 364.820312 30.285156 L 364.886719 29.300781 L 365.011719 27.316406 L 365.265625 23.289062 L 365.296875 22.78125 L 365.390625 21.246094 L 365.53125 18.925781 L 365.550781 18.667969 L 365.582031 18.148438 L 365.644531 17.101562 L 365.660156 16.84375 L 365.675781 16.578125 L 365.722656 15.792969 L 365.738281 15.527344 L 365.753906 15.265625 L 365.769531 15 " transform="matrix(1,0,0,1,-66,-5)"/>
</g>
<path style="fill:none;stroke-width:2;stroke-linecap:square;stroke-linejoin:miter;stroke:rgb(88.070679%,61.103821%,14.204407%);stroke-opacity:1;stroke-miterlimit:3.25;" d="M 319.730469 82.519531 L 319.742188 82.625 L 319.757812 82.726562 L 319.785156 82.929688 L 319.84375 83.335938 L 319.957031 84.144531 L 320.179688 85.753906 L 320.632812 88.921875 L 321.613281 95.570312 L 322.527344 101.507812 L 323.425781 107.070312 L 324.398438 112.824219 L 325.304688 117.921875 L 326.289062 123.15625 L 327.253906 128 L 328.15625 132.253906 L 329.132812 136.578125 L 330.046875 140.34375 L 330.941406 143.785156 L 331.910156 147.234375 L 332.816406 150.183594 L 333.796875 153.089844 L 334.761719 155.652344 L 335.660156 157.777344 L 336.632812 159.796875 L 336.648438 159.824219 L 336.660156 159.851562 L 336.691406 159.90625 L 336.746094 160.015625 L 336.859375 160.226562 L 337.089844 160.636719 L 337.542969 161.414062 L 337.558594 161.4375 L 337.574219 161.464844 L 337.605469 161.511719 L 337.667969 161.613281 L 337.789062 161.804688 L 338.035156 162.179688 L 338.066406 162.226562 L 338.097656 162.269531 L 338.160156 162.359375 L 338.28125 162.535156 L 338.527344 162.871094 L 338.589844 162.949219 L 338.648438 163.03125 L 338.769531 163.183594 L 339.011719 163.476562 L 339.027344 163.492188 L 339.042969 163.511719 L 339.074219 163.546875 L 339.132812 163.613281 L 339.253906 163.75 L 339.496094 164.007812 L 339.511719 164.019531 L 339.523438 164.035156 L 339.609375 164.121094 L 339.722656 164.230469 L 339.949219 164.433594 L 339.960938 164.449219 L 339.976562 164.460938 L 340.058594 164.53125 L 340.171875 164.625 L 340.398438 164.800781 L 340.429688 164.824219 L 340.460938 164.84375 L 340.519531 164.886719 L 340.644531 164.972656 L 340.660156 164.980469 L 340.675781 164.992188 L 340.703125 165.011719 L 340.765625 165.050781 L 340.886719 165.125 L 340.917969 165.140625 L 340.949219 165.160156 L 341.011719 165.191406 L 341.132812 165.257812 L 341.378906 165.371094 L 341.390625 165.378906 L 341.40625 165.382812 L 341.433594 165.394531 L 341.492188 165.417969 L 341.605469 165.460938 L 341.621094 165.46875 L 341.632812 165.472656 L 341.664062 165.480469 L 341.71875 165.5 L 341.835938 165.535156 L 341.847656 165.539062 L 341.863281 165.542969 L 341.890625 165.550781 L 341.949219 165.566406 L 341.964844 165.570312 L 341.976562 165.574219 L 342.003906 165.582031 L 342.0625 165.59375 L 342.078125 165.597656 L 342.089844 165.597656 L 342.121094 165.605469 L 342.175781 165.617188 L 342.191406 165.617188 L 342.207031 165.621094 L 342.234375 165.625 L 342.292969 165.632812 L 342.304688 165.636719 L 342.320312 165.636719 L 342.347656 165.640625 L 342.359375 165.644531 L 342.375 165.644531 L 342.402344 165.648438 L 342.417969 165.648438 L 342.429688 165.652344 L 342.460938 165.652344 L 342.472656 165.65625 L 342.488281 165.65625 L 342.515625 165.660156 L 342.558594 165.660156 L 342.570312 165.664062 L 342.65625 165.664062 L 342.667969 165.667969 L 342.835938 165.667969 L 342.851562 165.664062 L 342.921875 165.664062 L 342.933594 165.660156 L 342.976562 165.660156 L 342.992188 165.65625 L 343.035156 165.65625 L 343.046875 165.652344 L 343.074219 165.652344 L 343.089844 165.648438 L 343.101562 165.648438 L 343.132812 165.644531 L 343.1875 165.636719 L 343.203125 165.636719 L 343.21875 165.632812 L 343.246094 165.628906 L 343.308594 165.617188 L 343.324219 165.617188 L 343.371094 165.605469 L 343.429688 165.59375 L 343.445312 165.589844 L 343.460938 165.589844 L 343.492188 165.582031 L 343.550781 165.566406 L 343.671875 165.535156 L 343.6875 165.527344 L 343.734375 165.515625 L 343.792969 165.496094 L 343.917969 165.453125 L 343.929688 165.449219 L 343.945312 165.441406 L 344.039062 165.40625 L 344.160156 165.355469 L 344.171875 165.347656 L 344.1875 165.34375 L 344.214844 165.328125 L 344.273438 165.304688 L 344.386719 165.246094 L 344.398438 165.238281 L 344.414062 165.234375 L 344.441406 165.21875 L 344.5 165.1875 L 344.613281 165.121094 L 344.625 165.113281 L 344.640625 165.105469 L 344.667969 165.089844 L 344.726562 165.054688 L 344.839844 164.980469 L 345.066406 164.824219 L 345.082031 164.8125 L 345.097656 164.804688 L 345.128906 164.78125 L 345.1875 164.734375 L 345.3125 164.636719 L 345.558594 164.429688 L 345.574219 164.417969 L 345.617188 164.375 L 345.679688 164.320312 L 345.804688 164.203125 L 346.050781 163.960938 L 346.0625 163.945312 L 346.078125 163.929688 L 346.109375 163.894531 L 346.167969 163.832031 L 346.289062 163.699219 L 346.53125 163.421875 L 347.015625 162.8125 L 347.027344 162.796875 L 347.042969 162.777344 L 347.125 162.660156 L 347.238281 162.503906 L 347.464844 162.179688 L 347.914062 161.484375 L 347.929688 161.457031 L 347.945312 161.433594 L 347.976562 161.382812 L 348.035156 161.28125 L 348.15625 161.078125 L 348.402344 160.65625 L 348.890625 159.75 L 349.800781 157.867188 L 350.695312 155.761719 L 351.664062 153.199219 L 352.566406 150.542969 L 353.546875 147.371094 L 354.464844 144.136719 L 355.363281 140.710938 L 356.335938 136.710938 L 357.242188 132.707031 L 358.226562 128.078125 L 359.195312 123.234375 L 360.097656 118.453125 L 361.074219 112.984375 L 361.988281 107.601562 L 362.882812 102.074219 L 363.851562 95.792969 L 364.757812 89.667969 L 364.820312 89.230469 L 364.886719 88.789062 L 365.011719 87.910156 L 365.28125 86.023438 L 365.296875 85.910156 L 365.328125 85.6875 L 365.390625 85.238281 L 365.515625 84.335938 L 365.53125 84.226562 L 365.550781 84.113281 L 365.660156 83.320312 L 365.675781 83.203125 L 365.753906 82.636719 L 365.769531 82.519531 " transform="matrix(1,0,0,1,-66,-5)"/>
<path style="fill:none;stroke-width:0.2;stroke-linecap:butt;stroke-linejoin:miter;stroke:rgb(0%,0%,0%);stroke-opacity:1;stroke-miterlimit:3.25;" d="M 82 192.855469 L 82 189.296875 " transform="matrix(1,0,0,1,-66,-5)"/>
<g style="fill:rgb(0%,0%,0%);fill-opacity:1;">
  <use xlink:href="#glyph0-1" x="12.5" y="201.857143"/>
</g>
<path style="fill:none;stroke-width:0.2;stroke-linecap:butt;stroke-linejoin:miter;stroke:rgb(0%,0%,0%);stroke-opacity:1;stroke-miterlimit:3.25;" d="M 91.207031 192.855469 L 91.207031 190.71875 " transform="matrix(1,0,0,1,-66,-5)"/>
<path style="fill:none;stroke-width:0.2;stroke-linecap:butt;stroke-linejoin:miter;stroke:rgb(0%,0%,0%);stroke-opacity:1;stroke-miterlimit:3.25;" d="M 100.417969 192.855469 L 100.417969 190.71875 " transform="matrix(1,0,0,1,-66,-5)"/>
<path style="fill:none;stroke-width:0.2;stroke-linecap:butt;stroke-linejoin:miter;stroke:rgb(0%,0%,0%);stroke-opacity:1;stroke-miterlimit:3.25;" d="M 109.625 192.855469 L 109.625 190.71875 " transform="matrix(1,0,0,1,-66,-5)"/>
<path style="fill:none;stroke-width:0.2;stroke-linecap:butt;stroke-linejoin:miter;stroke:rgb(0%,0%,0%);stroke-opacity:1;stroke-miterlimit:3.25;" d="M 118.832031 192.855469 L 118.832031 190.71875 " transform="matrix(1,0,0,1,-66,-5)"/>
<path style="fill:none;stroke-width:0.2;stroke-linecap:butt;stroke-linejoin:miter;stroke:rgb(0%,0%,0%);stroke-opacity:1;stroke-miterlimit:3.25;" d="M 128.039062 192.855469 L 128.039062 189.296875 " transform="matrix(1,0,0,1,-66,-5)"/>
<g style="fill:rgb(0%,0%,0%);fill-opacity:1;">
  <use xlink:href="#glyph0-2" x="58.540817" y="201.857143"/>
</g>
<path style="fill:none;stroke-width:0.2;stroke-linecap:butt;stroke-linejoin:miter;stroke:rgb(0%,0%,0%);stroke-opacity:1;stroke-miterlimit:3.25;" d="M 137.25 192.855469 L 137.25 190.71875 " transform="matrix(1,0,0,1,-66,-5)"/>
<path style="fill:none;stroke-width:0.2;stroke-linecap:butt;stroke-linejoin:miter;stroke:rgb(0%,0%,0%);stroke-opacity:1;stroke-miterlimit:3.25;" d="M 146.457031 192.855469 L 146.457031 190.71875 " transform="matrix(1,0,0,1,-66,-5)"/>
<path style="fill:none;stroke-width:0.2;stroke-linecap:butt;stroke-linejoin:miter;stroke:rgb(0%,0%,0%);stroke-opacity:1;stroke-miterlimit:3.25;" d="M 155.664062 192.855469 L 155.664062 190.71875 " transform="matrix(1,0,0,1,-66,-5)"/>
<path style="fill:none;stroke-width:0.2;stroke-linecap:butt;stroke-linejoin:miter;stroke:rgb(0%,0%,0%);stroke-opacity:1;stroke-miterlimit:3.25;" d="M 164.875 192.855469 L 164.875 190.71875 " transform="matrix(1,0,0,1,-66,-5)"/>
<path style="fill:none;stroke-width:0.2;stroke-linecap:butt;stroke-linejoin:miter;stroke:rgb(0%,0%,0%);stroke-opacity:1;stroke-miterlimit:3.25;" d="M 174.082031 192.855469 L 174.082031 189.296875 " transform="matrix(1,0,0,1,-66,-5)"/>
<g style="fill:rgb(0%,0%,0%);fill-opacity:1;">
  <use xlink:href="#glyph0-3" x="104.581635" y="201.857143"/>
</g>
<path style="fill:none;stroke-width:0.2;stroke-linecap:butt;stroke-linejoin:miter;stroke:rgb(0%,0%,0%);stroke-opacity:1;stroke-miterlimit:3.25;" d="M 183.289062 192.855469 L 183.289062 190.71875 " transform="matrix(1,0,0,1,-66,-5)"/>
<path style="fill:none;stroke-width:0.2;stroke-linecap:butt;stroke-linejoin:miter;stroke:rgb(0%,0%,0%);stroke-opacity:1;stroke-miterlimit:3.25;" d="M 192.496094 192.855469 L 192.496094 190.71875 " transform="matrix(1,0,0,1,-66,-5)"/>
<path style="fill:none;stroke-width:0.2;stroke-linecap:butt;stroke-linejoin:miter;stroke:rgb(0%,0%,0%);stroke-opacity:1;stroke-miterlimit:3.25;" d="M 201.707031 192.855469 L 201.707031 190.71875 " transform="matrix(1,0,0,1,-66,-5)"/>
<path style="fill:none;stroke-width:0.2;stroke-linecap:butt;stroke-linejoin:miter;stroke:rgb(0%,0%,0%);stroke-opacity:1;stroke-miterlimit:3.25;" d="M 210.914062 192.855469 L 210.914062 190.71875 " transform="matrix(1,0,0,1,-66,-5)"/>
<path style="fill:none;stroke-width:0.2;stroke-linecap:butt;stroke-linejoin:miter;stroke:rgb(0%,0%,0%);stroke-opacity:1;stroke-miterlimit:3.25;" d="M 220.121094 192.855469 L 220.121094 189.296875 " transform="matrix(1,0,0,1,-66,-5)"/>
<g style="fill:rgb(0%,0%,0%);fill-opacity:1;">
  <use xlink:href="#glyph0-4" x="150.622452" y="201.857143"/>
</g>
<path style="fill:none;stroke-width:0.2;stroke-linecap:butt;stroke-linejoin:miter;stroke:rgb(0%,0%,0%);stroke-opacity:1;stroke-miterlimit:3.25;" d="M 229.332031 192.855469 L 229.332031 190.71875 " transform="matrix(1,0,0,1,-66,-5)"/>
<path style="fill:none;stroke-width:0.2;stroke-linecap:butt;stroke-linejoin:miter;stroke:rgb(0%,0%,0%);stroke-opacity:1;stroke-miterlimit:3.25;" d="M 238.539062 192.855469 L 238.539062 190.71875 " transform="matrix(1,0,0,1,-66,-5)"/>
<path style="fill:none;stroke-width:0.2;stroke-linecap:butt;stroke-linejoin:miter;stroke:rgb(0%,0%,0%);stroke-opacity:1;stroke-miterlimit:3.25;" d="M 247.746094 192.855469 L 247.746094 190.71875 " transform="matrix(1,0,0,1,-66,-5)"/>
<path style="fill:none;stroke-width:0.2;stroke-linecap:butt;stroke-linejoin:miter;stroke:rgb(0%,0%,0%);stroke-opacity:1;stroke-miterlimit:3.25;" d="M 256.957031 192.855469 L 256.957031 190.71875 " transform="matrix(1,0,0,1,-66,-5)"/>
<path style="fill:none;stroke-width:0.2;stroke-linecap:butt;stroke-linejoin:miter;stroke:rgb(0%,0%,0%);stroke-opacity:1;stroke-miterlimit:3.25;" d="M 266.164062 192.855469 L 266.164062 189.296875 " transform="matrix(1,0,0,1,-66,-5)"/>
<g style="fill:rgb(0%,0%,0%);fill-opacity:1;">
  <use xlink:href="#glyph0-5" x="196.663269" y="201.857143"/>
</g>
<path style="fill:none;stroke-width:0.2;stroke-linecap:butt;stroke-linejoin:miter;stroke:rgb(0%,0%,0%);stroke-opacity:1;stroke-miterlimit:3.25;" d="M 275.371094 192.855469 L 275.371094 190.71875 " transform="matrix(1,0,0,1,-66,-5)"/>
<path style="fill:none;stroke-width:0.2;stroke-linecap:butt;stroke-linejoin:miter;stroke:rgb(0%,0%,0%);stroke-opacity:1;stroke-miterlimit:3.25;" d="M 284.578125 192.855469 L 284.578125 190.71875 " transform="matrix(1,0,0,1,-66,-5)"/>
<path style="fill:none;stroke-width:0.2;stroke-linecap:butt;stroke-linejoin:miter;stroke:rgb(0%,0%,0%);stroke-opacity:1;stroke-miterlimit:3.25;" d="M 293.789062 192.855469 L 293.789062 190.71875 " transform="matrix(1,0,0,1,-66,-5)"/>
<path style="fill:none;stroke-width:0.2;stroke-linecap:butt;stroke-linejoin:miter;stroke:rgb(0%,0%,0%);stroke-opacity:1;stroke-miterlimit:3.25;" d="M 302.996094 192.855469 L 302.996094 190.71875 " transform="matrix(1,0,0,1,-66,-5)"/>
<path style="fill:none;stroke-width:0.2;stroke-linecap:butt;stroke-linejoin:miter;stroke:rgb(0%,0%,0%);stroke-opacity:1;stroke-miterlimit:3.25;" d="M 312.203125 192.855469 L 312.203125 189.296875 " transform="matrix(1,0,0,1,-66,-5)"/>
<g style="fill:rgb(0%,0%,0%);fill-opacity:1;">
  <use xlink:href="#glyph0-6" x="242.704086" y="201.857143"/>
</g>
<path style="fill:none;stroke-width:0.2;stroke-linecap:butt;stroke-linejoin:miter;stroke:rgb(0%,0%,0%);stroke-opacity:1;stroke-miterlimit:3.25;" d="M 321.414062 192.855469 L 321.414062 190.71875 " transform="matrix(1,0,0,1,-66,-5)"/>
<path style="fill:none;stroke-width:0.2;stroke-linecap:butt;stroke-linejoin:miter;stroke:rgb(0%,0%,0%);stroke-opacity:1;stroke-miterlimit:3.25;" d="M 330.621094 192.855469 L 330.621094 190.71875 " transform="matrix(1,0,0,1,-66,-5)"/>
<path style="fill:none;stroke-width:0.2;stroke-linecap:butt;stroke-linejoin:miter;stroke:rgb(0%,0%,0%);stroke-opacity:1;stroke-miterlimit:3.25;" d="M 339.828125 192.855469 L 339.828125 190.71875 " transform="matrix(1,0,0,1,-66,-5)"/>
<path style="fill:none;stroke-width:0.2;stroke-linecap:butt;stroke-linejoin:miter;stroke:rgb(0%,0%,0%);stroke-opacity:1;stroke-miterlimit:3.25;" d="M 349.035156 192.855469 L 349.035156 190.71875 " transform="matrix(1,0,0,1,-66,-5)"/>
<path style="fill:none;stroke-width:0.2;stroke-linecap:butt;stroke-linejoin:miter;stroke:rgb(0%,0%,0%);stroke-opacity:1;stroke-miterlimit:3.25;" d="M 358.246094 192.855469 L 358.246094 189.296875 " transform="matrix(1,0,0,1,-66,-5)"/>
<g style="fill:rgb(0%,0%,0%);fill-opacity:1;">
  <use xlink:href="#glyph0-7" x="288.744904" y="201.857143"/>
</g>
<path style="fill:none;stroke-width:0.2;stroke-linecap:butt;stroke-linejoin:miter;stroke:rgb(0%,0%,0%);stroke-opacity:1;stroke-miterlimit:3.25;" d="M 367.453125 192.855469 L 367.453125 190.71875 " transform="matrix(1,0,0,1,-66,-5)"/>
<path style="fill:none;stroke-width:0.2;stroke-linecap:butt;stroke-linejoin:miter;stroke:rgb(0%,0%,0%);stroke-opacity:1;stroke-miterlimit:3.25;" d="M 376.660156 192.855469 L 376.660156 190.71875 " transform="matrix(1,0,0,1,-66,-5)"/>
<path style="fill:none;stroke-width:0.2;stroke-linecap:butt;stroke-linejoin:miter;stroke:rgb(0%,0%,0%);stroke-opacity:1;stroke-miterlimit:3.25;" d="M 385.871094 192.855469 L 385.871094 190.71875 " transform="matrix(1,0,0,1,-66,-5)"/>
<path style="fill:none;stroke-width:0.2;stroke-linecap:butt;stroke-linejoin:miter;stroke:rgb(0%,0%,0%);stroke-opacity:1;stroke-miterlimit:3.25;" d="M 395.078125 192.855469 L 395.078125 190.71875 " transform="matrix(1,0,0,1,-66,-5)"/>
<path style="fill:none;stroke-width:0.2;stroke-linecap:butt;stroke-linejoin:miter;stroke:rgb(0%,0%,0%);stroke-opacity:1;stroke-miterlimit:3.25;" d="M 404.285156 192.855469 L 404.285156 189.296875 " transform="matrix(1,0,0,1,-66,-5)"/>
<g style="fill:rgb(0%,0%,0%);fill-opacity:1;">
  <use xlink:href="#glyph0-8" x="334.785721" y="201.857143"/>
</g>
<path style="fill:none;stroke-width:0.2;stroke-linecap:butt;stroke-linejoin:miter;stroke:rgb(0%,0%,0%);stroke-opacity:1;stroke-miterlimit:3.25;" d="M 75.285156 192.855469 L 411 192.855469 " transform="matrix(1,0,0,1,-66,-5)"/>
<g style="fill:rgb(0%,0%,0%);fill-opacity:1;">
  <use xlink:href="#glyph1-1" x="353" y="191.857143"/>
</g>
<path style="fill:none;stroke-width:0.2;stroke-linecap:butt;stroke-linejoin:miter;stroke:rgb(0%,0%,0%);stroke-opacity:1;stroke-miterlimit:3.25;" d="M 82 192.855469 L 85.5625 192.855469 " transform="matrix(1,0,0,1,-66,-5)"/>
<path style="fill:none;stroke-width:0.2;stroke-linecap:butt;stroke-linejoin:miter;stroke:rgb(0%,0%,0%);stroke-opacity:1;stroke-miterlimit:3.25;" d="M 82 186.144531 L 84.136719 186.144531 " transform="matrix(1,0,0,1,-66,-5)"/>
<path style="fill:none;stroke-width:0.2;stroke-linecap:butt;stroke-linejoin:miter;stroke:rgb(0%,0%,0%);stroke-opacity:1;stroke-miterlimit:3.25;" d="M 82 179.429688 L 84.136719 179.429688 " transform="matrix(1,0,0,1,-66,-5)"/>
<path style="fill:none;stroke-width:0.2;stroke-linecap:butt;stroke-linejoin:miter;stroke:rgb(0%,0%,0%);stroke-opacity:1;stroke-miterlimit:3.25;" d="M 82 172.714844 L 84.136719 172.714844 " transform="matrix(1,0,0,1,-66,-5)"/>
<path style="fill:none;stroke-width:0.2;stroke-linecap:butt;stroke-linejoin:miter;stroke:rgb(0%,0%,0%);stroke-opacity:1;stroke-miterlimit:3.25;" d="M 82 166 L 84.136719 166 " transform="matrix(1,0,0,1,-66,-5)"/>
<path style="fill:none;stroke-width:0.2;stroke-linecap:butt;stroke-linejoin:miter;stroke:rgb(0%,0%,0%);stroke-opacity:1;stroke-miterlimit:3.25;" d="M 82 159.285156 L 85.5625 159.285156 " transform="matrix(1,0,0,1,-66,-5)"/>
<g style="fill:rgb(0%,0%,0%);fill-opacity:1;">
  <use xlink:href="#glyph0-2" x="0" y="158.285714"/>
  <use xlink:href="#glyph0-1" x="6.673828" y="158.285714"/>
</g>
<path style="fill:none;stroke-width:0.2;stroke-linecap:butt;stroke-linejoin:miter;stroke:rgb(0%,0%,0%);stroke-opacity:1;stroke-miterlimit:3.25;" d="M 82 152.570312 L 84.136719 152.570312 " transform="matrix(1,0,0,1,-66,-5)"/>
<path style="fill:none;stroke-width:0.2;stroke-linecap:butt;stroke-linejoin:miter;stroke:rgb(0%,0%,0%);stroke-opacity:1;stroke-miterlimit:3.25;" d="M 82 145.855469 L 84.136719 145.855469 " transform="matrix(1,0,0,1,-66,-5)"/>
<path style="fill:none;stroke-width:0.2;stroke-linecap:butt;stroke-linejoin:miter;stroke:rgb(0%,0%,0%);stroke-opacity:1;stroke-miterlimit:3.25;" d="M 82 139.144531 L 84.136719 139.144531 " transform="matrix(1,0,0,1,-66,-5)"/>
<path style="fill:none;stroke-width:0.2;stroke-linecap:butt;stroke-linejoin:miter;stroke:rgb(0%,0%,0%);stroke-opacity:1;stroke-miterlimit:3.25;" d="M 82 132.429688 L 84.136719 132.429688 " transform="matrix(1,0,0,1,-66,-5)"/>
<path style="fill:none;stroke-width:0.2;stroke-linecap:butt;stroke-linejoin:miter;stroke:rgb(0%,0%,0%);stroke-opacity:1;stroke-miterlimit:3.25;" d="M 82 125.714844 L 85.5625 125.714844 " transform="matrix(1,0,0,1,-66,-5)"/>
<g style="fill:rgb(0%,0%,0%);fill-opacity:1;">
  <use xlink:href="#glyph0-3" x="0" y="124.714286"/>
  <use xlink:href="#glyph0-1" x="6.673828" y="124.714286"/>
</g>
<path style="fill:none;stroke-width:0.2;stroke-linecap:butt;stroke-linejoin:miter;stroke:rgb(0%,0%,0%);stroke-opacity:1;stroke-miterlimit:3.25;" d="M 82 119 L 84.136719 119 " transform="matrix(1,0,0,1,-66,-5)"/>
<path style="fill:none;stroke-width:0.2;stroke-linecap:butt;stroke-linejoin:miter;stroke:rgb(0%,0%,0%);stroke-opacity:1;stroke-miterlimit:3.25;" d="M 82 112.285156 L 84.136719 112.285156 " transform="matrix(1,0,0,1,-66,-5)"/>
<path style="fill:none;stroke-width:0.2;stroke-linecap:butt;stroke-linejoin:miter;stroke:rgb(0%,0%,0%);stroke-opacity:1;stroke-miterlimit:3.25;" d="M 82 105.570312 L 84.136719 105.570312 " transform="matrix(1,0,0,1,-66,-5)"/>
<path style="fill:none;stroke-width:0.2;stroke-linecap:butt;stroke-linejoin:miter;stroke:rgb(0%,0%,0%);stroke-opacity:1;stroke-miterlimit:3.25;" d="M 82 98.855469 L 84.136719 98.855469 " transform="matrix(1,0,0,1,-66,-5)"/>
<path style="fill:none;stroke-width:0.2;stroke-linecap:butt;stroke-linejoin:miter;stroke:rgb(0%,0%,0%);stroke-opacity:1;stroke-miterlimit:3.25;" d="M 82 92.144531 L 85.5625 92.144531 " transform="matrix(1,0,0,1,-66,-5)"/>
<g style="fill:rgb(0%,0%,0%);fill-opacity:1;">
  <use xlink:href="#glyph0-4" x="0" y="91.142857"/>
  <use xlink:href="#glyph0-1" x="6.673828" y="91.142857"/>
</g>
<path style="fill:none;stroke-width:0.2;stroke-linecap:butt;stroke-linejoin:miter;stroke:rgb(0%,0%,0%);stroke-opacity:1;stroke-miterlimit:3.25;" d="M 82 85.429688 L 84.136719 85.429688 " transform="matrix(1,0,0,1,-66,-5)"/>
<path style="fill:none;stroke-width:0.2;stroke-linecap:butt;stroke-linejoin:miter;stroke:rgb(0%,0%,0%);stroke-opacity:1;stroke-miterlimit:3.25;" d="M 82 78.714844 L 84.136719 78.714844 " transform="matrix(1,0,0,1,-66,-5)"/>
<path style="fill:none;stroke-width:0.2;stroke-linecap:butt;stroke-linejoin:miter;stroke:rgb(0%,0%,0%);stroke-opacity:1;stroke-miterlimit:3.25;" d="M 82 72 L 84.136719 72 " transform="matrix(1,0,0,1,-66,-5)"/>
<path style="fill:none;stroke-width:0.2;stroke-linecap:butt;stroke-linejoin:miter;stroke:rgb(0%,0%,0%);stroke-opacity:1;stroke-miterlimit:3.25;" d="M 82 65.285156 L 84.136719 65.285156 " transform="matrix(1,0,0,1,-66,-5)"/>
<path style="fill:none;stroke-width:0.2;stroke-linecap:butt;stroke-linejoin:miter;stroke:rgb(0%,0%,0%);stroke-opacity:1;stroke-miterlimit:3.25;" d="M 82 58.570312 L 85.5625 58.570312 " transform="matrix(1,0,0,1,-66,-5)"/>
<g style="fill:rgb(0%,0%,0%);fill-opacity:1;">
  <use xlink:href="#glyph0-5" x="0" y="57.571429"/>
  <use xlink:href="#glyph0-1" x="6.673828" y="57.571429"/>
</g>
<path style="fill:none;stroke-width:0.2;stroke-linecap:butt;stroke-linejoin:miter;stroke:rgb(0%,0%,0%);stroke-opacity:1;stroke-miterlimit:3.25;" d="M 82 51.855469 L 84.136719 51.855469 " transform="matrix(1,0,0,1,-66,-5)"/>
<path style="fill:none;stroke-width:0.2;stroke-linecap:butt;stroke-linejoin:miter;stroke:rgb(0%,0%,0%);stroke-opacity:1;stroke-miterlimit:3.25;" d="M 82 45.144531 L 84.136719 45.144531 " transform="matrix(1,0,0,1,-66,-5)"/>
<path style="fill:none;stroke-width:0.2;stroke-linecap:butt;stroke-linejoin:miter;stroke:rgb(0%,0%,0%);stroke-opacity:1;stroke-miterlimit:3.25;" d="M 82 38.429688 L 84.136719 38.429688 " transform="matrix(1,0,0,1,-66,-5)"/>
<path style="fill:none;stroke-width:0.2;stroke-linecap:butt;stroke-linejoin:miter;stroke:rgb(0%,0%,0%);stroke-opacity:1;stroke-miterlimit:3.25;" d="M 82 31.714844 L 84.136719 31.714844 " transform="matrix(1,0,0,1,-66,-5)"/>
<path style="fill:none;stroke-width:0.2;stroke-linecap:butt;stroke-linejoin:miter;stroke:rgb(0%,0%,0%);stroke-opacity:1;stroke-miterlimit:3.25;" d="M 82 25 L 85.5625 25 " transform="matrix(1,0,0,1,-66,-5)"/>
<g style="fill:rgb(0%,0%,0%);fill-opacity:1;">
  <use xlink:href="#glyph0-6" x="0" y="24"/>
  <use xlink:href="#glyph0-1" x="6.673828" y="24"/>
</g>
<path style="fill:none;stroke-width:0.2;stroke-linecap:butt;stroke-linejoin:miter;stroke:rgb(0%,0%,0%);stroke-opacity:1;stroke-miterlimit:3.25;" d="M 82 192.855469 L 82 25 " transform="matrix(1,0,0,1,-66,-5)"/>
<g style="fill:rgb(0%,0%,0%);fill-opacity:1;">
  <use xlink:href="#glyph1-2" x="4.5" y="11"/>
</g>
<g style="fill:rgb(0%,0%,0%);fill-opacity:1;">
  <use xlink:href="#glyph2-1" x="13.5" y="11"/>
</g>
<g style="fill:rgb(0%,0%,0%);fill-opacity:1;">
  <use xlink:href="#glyph1-1" x="17.5" y="11"/>
</g>
<g style="fill:rgb(0%,0%,0%);fill-opacity:1;">
  <use xlink:href="#glyph2-2" x="23.5" y="11"/>
</g>
</g>
</svg>
