<?xml version="1.0" encoding="UTF-8"?>
<svg id="Layer_1" data-name="Layer 1" xmlns="http://www.w3.org/2000/svg" viewBox="0 0 543.91 227.73">
  <defs>
    <style>
      .cls-1 {
        font-size: 12.09px;
      }

      .cls-1, .cls-2, .cls-3, .cls-4 {
        fill: #2e3192;
        font-family: MyriadPro-Regular, 'Myriad Pro';
      }

      .cls-2 {
        font-size: 16.11px;
      }

      .cls-5 {
        stroke-dasharray: 0 0 5.05 5.05;
      }

      .cls-5, .cls-6, .cls-7, .cls-8, .cls-9 {
        stroke: #0072bc;
        stroke-miterlimit: 10;
      }

      .cls-5, .cls-6, .cls-8, .cls-9 {
        stroke-width: 2px;
      }

      .cls-5, .cls-7, .cls-8, .cls-9 {
        fill: none;
      }

      .cls-6, .cls-10 {
        opacity: .75;
      }

      .cls-6, .cls-11 {
        fill: #fff;
      }

      .cls-7 {
        stroke-width: 2.01px;
      }

      .cls-3 {
        font-size: 16px;
      }

      .cls-4 {
        font-size: 12px;
      }

      .cls-9 {
        stroke-dasharray: 0 0 5.05 5.05;
      }

      .cls-11, .cls-12 {
        stroke-width: 0px;
      }

      .cls-12 {
        fill: #0072bc;
      }
    </style>
  </defs>
  <g>
    <ellipse class="cls-11" cx="71" cy="126.73" rx="50" ry="100"/>
    <ellipse class="cls-9" cx="71" cy="126.73" rx="50" ry="100"/>
  </g>
  <ellipse class="cls-6" cx="51" cy="126.73" rx="50" ry="100"/>
  <ellipse class="cls-8" cx="51" cy="126.73" rx="50" ry="100"/>
  <g class="cls-10">
    <ellipse class="cls-11" cx="506" cy="126.73" rx="25" ry="50"/>
    <ellipse class="cls-5" cx="506" cy="126.73" rx="25" ry="50"/>
  </g>
  <g class="cls-10">
    <ellipse class="cls-11" cx="466" cy="126.73" rx="25" ry="50"/>
    <ellipse class="cls-5" cx="466" cy="126.73" rx="25" ry="50"/>
  </g>
  <path class="cls-8" d="m51,226.73h220c22.11,0,40-11.18,40-25s17.89-25,40-25h155"/>
  <path class="cls-8" d="m51,26.73h220c22.11,0,40,11.18,40,25s17.89,25,40,25h155"/>
  <path class="cls-8" d="m491,126.73c0,27.64-11.18,50-25,50"/>
  <path class="cls-8" d="m491,126.73c0-27.64-11.18-50-25-50"/>
  <path class="cls-8" d="m531,126.73c0,27.64-11.18,50-25,50"/>
  <path class="cls-8" d="m531,126.73c0-27.64-11.18-50-25-50"/>
  <path class="cls-8" d="m121,126.73c0,55.27-22.36,100-50,100"/>
  <path class="cls-8" d="m121,126.73c0-55.27-22.36-100-50-100"/>
  <text class="cls-3" transform="translate(49.42 13.39)"><tspan x="0" y="0">dx</tspan></text>
  <text class="cls-4" transform="translate(65.25 18.39)"><tspan x="0" y="0">1</tspan></text>
  <text class="cls-3" transform="translate(478.09 67.73)"><tspan x="0" y="0">dx</tspan></text>
  <text class="cls-4" transform="translate(493.91 72.73)"><tspan x="0" y="0">2</tspan></text>
  <text class="cls-3" transform="translate(45.17 124.23)"><tspan x="0" y="0">A</tspan></text>
  <text class="cls-4" transform="translate(53.67 129.23)"><tspan x="0" y="0">1</tspan></text>
  <text class="cls-3" transform="translate(457.5 126.73)"><tspan x="0" y="0">A</tspan></text>
  <text class="cls-4" transform="translate(466 131.73)"><tspan x="0" y="0">2</tspan></text>
  <g>
    <line class="cls-8" x1="106" y1="84.06" x2="128.94" y2="84.06"/>
    <polygon class="cls-12" points="136 84.06 126.05 88.12 128.41 84.06 126.05 79.99 136 84.06"/>
  </g>
  <text class="cls-3" transform="translate(121 74.23)"><tspan x="0" y="0">v</tspan></text>
  <text class="cls-4" transform="translate(128.5 79.23)"><tspan x="0" y="0">1</tspan></text>
  <g>
    <line class="cls-7" x1="493.91" y1="101.73" x2="536.83" y2="101.73"/>
    <polygon class="cls-12" points="543.91 101.73 533.93 105.81 536.3 101.73 533.93 97.65 543.91 101.73"/>
  </g>
  <text class="cls-2" transform="translate(528.91 91.82)"><tspan x="0" y="0">v</tspan></text>
  <text class="cls-1" transform="translate(536.41 96.86)"><tspan x="0" y="0">2</tspan></text>
</svg>