<?xml version="1.0" encoding="UTF-8"?>
<svg id="Layer_1" data-name="Layer 1" xmlns="http://www.w3.org/2000/svg" viewBox="0 0 273.55 252">
  <defs>
    <style>
      .cls-1 {
        stroke-dasharray: 0 0 5.76 5.76;
      }

      .cls-1, .cls-2, .cls-3, .cls-4, .cls-5, .cls-6 {
        stroke-miterlimit: 10;
      }

      .cls-1, .cls-2, .cls-3, .cls-4, .cls-5, .cls-6, .cls-7 {
        fill: none;
      }

      .cls-1, .cls-2, .cls-5, .cls-6, .cls-7 {
        stroke: #231f20;
        stroke-width: 2px;
      }

      .cls-2 {
        stroke-dasharray: 0 0 5.76 5.76;
      }

      .cls-8, .cls-9 {
        fill: #0072bc;
      }

      .cls-10, .cls-11 {
        fill: #c9252c;
      }

      .cls-12 {
        fill: #8ed8f8;
      }

      .cls-12, .cls-13 {
        opacity: .2;
      }

      .cls-12, .cls-13, .cls-11, .cls-9 {
        stroke-width: 0px;
      }

      .cls-13 {
        fill: #f173ac;
      }

      .cls-14 {
        font-family: Symbol, Symbol;
        font-size: 18px;
      }

      .cls-3 {
        stroke: #c9252c;
      }

      .cls-3, .cls-4 {
        stroke-width: 2.5px;
      }

      .cls-4 {
        stroke: #0072bc;
      }

      .cls-5 {
        stroke-dasharray: 0 0 5.76 5.76;
      }

      .cls-15 {
        font-family: MyriadPro-Regular, 'Myriad Pro';
        font-size: 12px;
      }

      .cls-7 {
        stroke-linejoin: bevel;
      }
    </style>
  </defs>
  <polygon class="cls-13" points="33.96 251 91.7 151 91.7 1 33.96 101 33.96 251"/>
  <g>
    <line class="cls-6" x1="91.7" y1="151" x2="94.7" y2="151"/>
    <line class="cls-1" x1="100.46" y1="151" x2="235.81" y2="151"/>
    <line class="cls-6" x1="238.69" y1="151" x2="241.69" y2="151"/>
  </g>
  <polygon class="cls-12" points="183.96 251 241.69 151 241.69 1 183.96 101 183.96 251"/>
  <g>
    <line class="cls-6" x1="91.96" y1="1" x2="91.96" y2="4"/>
    <line class="cls-2" x1="91.96" y1="9.76" x2="91.96" y2="145.12"/>
    <line class="cls-6" x1="91.96" y1="148" x2="91.96" y2="151"/>
  </g>
  <g>
    <line class="cls-6" x1="91.7" y1="151" x2="90.2" y2="153.6"/>
    <line class="cls-5" x1="87.31" y1="158.59" x2="36.9" y2="245.91"/>
    <line class="cls-6" x1="35.46" y1="248.4" x2="33.96" y2="251"/>
  </g>
  <line class="cls-6" x1="33.96" y1="251" x2="183.96" y2="251"/>
  <polygon class="cls-7" points="183.96 251 241.69 151 241.69 1 183.96 101 183.96 251"/>
  <line class="cls-6" x1="91.7" y1="1" x2="33.96" y2="101"/>
  <line class="cls-6" x1="33.96" y1="101" x2="183.96" y2="101"/>
  <line class="cls-6" x1="91.7" y1="1" x2="241.69" y2="1"/>
  <g>
    <line class="cls-4" x1="211.69" y1="126" x2="262.87" y2="126"/>
    <polygon class="cls-9" points="271.69 126 259.26 131.08 262.21 126 259.26 120.92 271.69 126"/>
  </g>
  <g>
    <line class="cls-3" x1="11.69" y1="126" x2="52.87" y2="126"/>
    <polygon class="cls-11" points="61.69 126 49.26 131.08 52.21 126 49.26 120.92 61.69 126"/>
  </g>
  <line class="cls-6" x1="33.96" y1="101" x2="33.96" y2="251"/>
  <text class="cls-8" transform="translate(247 116)"><tspan class="cls-14" x="0" y="0">𝜑</tspan><tspan class="cls-15" x="9.38" y="5">out</tspan></text>
  <text class="cls-10" transform="translate(0 141)"><tspan class="cls-14" x="0" y="0">𝜑</tspan><tspan class="cls-15" x="9.38" y="5">in</tspan></text>
</svg>