<?xml version="1.0" encoding="UTF-8"?>
<svg id="Layer_1" data-name="Layer 1" xmlns="http://www.w3.org/2000/svg" xmlns:xlink="http://www.w3.org/1999/xlink" viewBox="0 0 423.78 200">
  <defs>
    <style>
      .cls-1 {
        stroke-dasharray: 0 3;
      }

      .cls-1, .cls-2, .cls-3, .cls-4, .cls-5, .cls-6, .cls-7, .cls-8, .cls-9, .cls-10 {
        stroke-miterlimit: 10;
      }

      .cls-1, .cls-2, .cls-3, .cls-6, .cls-7, .cls-8 {
        fill: none;
      }

      .cls-1, .cls-2, .cls-7 {
        stroke: #636466;
      }

      .cls-2 {
        stroke-dasharray: 0 0 3.02 3.02;
      }

      .cls-11, .cls-12, .cls-13, .cls-14 {
        font-family: MyriadPro-It, 'Myriad Pro';
        font-style: italic;
      }

      .cls-3 {
        stroke-dasharray: 0 0 2.86 2.86;
      }

      .cls-3, .cls-4, .cls-5, .cls-6, .cls-8, .cls-9, .cls-10 {
        stroke: #231f20;
      }

      .cls-12, .cls-13, .cls-15, .cls-16 {
        font-size: 12px;
      }

      .cls-12, .cls-16, .cls-17 {
        fill: #636466;
      }

      .cls-13, .cls-15, .cls-18 {
        fill: #231f20;
      }

      .cls-4 {
        fill: url(#radial-gradient);
      }

      .cls-5 {
        fill: #8781bd;
      }

      .cls-19 {
        font-family: Symbol, Symbol;
      }

      .cls-6 {
        stroke-width: 2px;
      }

      .cls-7 {
        stroke-dasharray: 0 0 3 3;
      }

      .cls-14 {
        letter-spacing: 0em;
      }

      .cls-9 {
        fill: url(#radial-gradient-2);
      }

      .cls-15 {
        font-family: MyriadPro-Regular, 'Myriad Pro';
      }

      .cls-17, .cls-18 {
        stroke-width: 0px;
      }

      .cls-10 {
        fill: url(#linear-gradient);
      }
    </style>
    <radialGradient id="radial-gradient" cx="8.78" cy="49.75" fx="8.78" fy="49.75" r="47" gradientUnits="userSpaceOnUse">
      <stop offset="0" stop-color="#8781bd"/>
      <stop offset=".2" stop-color="#fff"/>
      <stop offset="1" stop-color="#2e3192"/>
    </radialGradient>
    <linearGradient id="linear-gradient" x1="5.78" y1="105" x2="55.78" y2="105" gradientUnits="userSpaceOnUse">
      <stop offset="0" stop-color="#8781bd"/>
      <stop offset=".2" stop-color="#fff"/>
      <stop offset="1" stop-color="#2e3192"/>
    </linearGradient>
    <radialGradient id="radial-gradient-2" cx="351.45" cy="97" fx="342.3" fy="97" r="50.2" gradientUnits="userSpaceOnUse">
      <stop offset="0" stop-color="#fff"/>
      <stop offset=".15" stop-color="#d8d8ea"/>
      <stop offset=".46" stop-color="#8f91c5"/>
      <stop offset=".71" stop-color="#5a5da9"/>
      <stop offset=".9" stop-color="#3a3d98"/>
      <stop offset="1" stop-color="#2e3192"/>
    </radialGradient>
  </defs>
  <line class="cls-1" x1="124.75" y1="155" x2="124.75" y2="55"/>
  <line class="cls-1" x1="182.49" y1="55" x2="124.75" y2="55"/>
  <g>
    <line class="cls-6" x1="30.78" y1="189.41" x2="30.78" y2="150"/>
    <polygon class="cls-18" points="30.78 200 36.88 185.08 30.78 188.62 24.69 185.08 30.78 200"/>
  </g>
  <ellipse class="cls-4" cx="30.78" cy="50" rx="25" ry="10"/>
  <path class="cls-10" d="m5.78,50v100c0,5.53,11.18,10,25,10s25-4.47,25-10V50c0,5.53-11.18,10-25,10s-25-4.47-25-10Z"/>
  <g>
    <path class="cls-8" d="m5.78,150c0-.5.09-.99.27-1.47"/>
    <path class="cls-3" d="m7.66,146.19c3.38-3.29,11.02-5.7,20.18-6.12"/>
    <path class="cls-8" d="m29.28,140.02c.5-.01,1-.02,1.5-.02"/>
  </g>
  <g>
    <path class="cls-8" d="m55.78,150c0-.5-.09-.99-.27-1.47"/>
    <path class="cls-3" d="m53.91,146.19c-3.38-3.29-11.02-5.7-20.18-6.12"/>
    <path class="cls-8" d="m32.29,140.02c-.5-.01-1-.02-1.5-.02"/>
  </g>
  <g>
    <line class="cls-6" x1="30.78" y1="50" x2="30.78" y2="10.59"/>
    <polygon class="cls-18" points="30.78 0 36.88 14.92 30.78 11.38 24.69 14.92 30.78 0"/>
  </g>
  <polygon class="cls-5" points="199.75 155 124.75 155 182.49 55 257.49 55 199.75 155"/>
  <g>
    <line class="cls-6" x1="149.75" y1="155" x2="110.34" y2="155"/>
    <polygon class="cls-18" points="99.75 155 114.67 148.9 111.13 155 114.67 161.1 99.75 155"/>
  </g>
  <g>
    <line class="cls-6" x1="271.23" y1="55" x2="231.82" y2="55"/>
    <polygon class="cls-18" points="281.82 55 266.89 48.9 270.44 55 266.89 61.1 281.82 55"/>
  </g>
  <circle class="cls-9" cx="360.78" cy="105" r="37.5"/>
  <g>
    <line class="cls-6" x1="316.22" y1="105" x2="298.28" y2="105"/>
    <polygon class="cls-18" points="323.28 105 313.33 100.93 315.7 105 313.33 109.06 323.28 105"/>
  </g>
  <g>
    <line class="cls-6" x1="423.28" y1="105" x2="405.34" y2="105"/>
    <polygon class="cls-18" points="398.28 105 408.23 100.93 405.87 105 408.23 109.06 398.28 105"/>
  </g>
  <g>
    <line class="cls-6" x1="360.78" y1="149.56" x2="360.78" y2="167.5"/>
    <polygon class="cls-18" points="360.78 142.5 356.72 152.45 360.78 150.09 364.85 152.45 360.78 142.5"/>
  </g>
  <g>
    <line class="cls-6" x1="360.78" y1="42.5" x2="360.78" y2="60.44"/>
    <polygon class="cls-18" points="360.78 67.5 356.72 57.55 360.78 59.91 364.85 57.55 360.78 67.5"/>
  </g>
  <g>
    <line class="cls-6" x1="322.19" y1="127.28" x2="306.66" y2="136.25"/>
    <polygon class="cls-18" points="328.31 123.75 317.66 125.2 321.74 127.54 321.72 132.24 328.31 123.75"/>
  </g>
  <g>
    <line class="cls-6" x1="414.91" y1="73.75" x2="399.37" y2="82.72"/>
    <polygon class="cls-18" points="393.26 86.25 399.84 77.75 399.83 82.46 403.91 84.8 393.26 86.25"/>
  </g>
  <g>
    <line class="cls-6" x1="338.5" y1="143.59" x2="329.53" y2="159.13"/>
    <polygon class="cls-18" points="342.03 137.48 333.54 144.06 338.24 144.05 340.58 148.12 342.03 137.48"/>
  </g>
  <g>
    <line class="cls-6" x1="392.03" y1="50.87" x2="383.06" y2="66.41"/>
    <polygon class="cls-18" points="379.53 72.52 380.99 61.88 383.33 65.95 388.03 65.94 379.53 72.52"/>
  </g>
  <g>
    <line class="cls-6" x1="399.37" y1="127.28" x2="414.91" y2="136.25"/>
    <polygon class="cls-18" points="393.26 123.75 399.84 132.25 399.83 127.54 403.91 125.2 393.26 123.75"/>
  </g>
  <g>
    <line class="cls-6" x1="306.66" y1="73.75" x2="322.19" y2="82.72"/>
    <polygon class="cls-18" points="328.31 86.25 317.66 84.8 321.74 82.46 321.72 77.76 328.31 86.25"/>
  </g>
  <g>
    <line class="cls-6" x1="383.06" y1="143.59" x2="392.03" y2="159.13"/>
    <polygon class="cls-18" points="379.53 137.48 380.99 148.12 383.33 144.05 388.03 144.06 379.53 137.48"/>
  </g>
  <g>
    <line class="cls-6" x1="329.53" y1="50.87" x2="338.5" y2="66.41"/>
    <polygon class="cls-18" points="342.03 72.52 333.54 65.94 338.24 65.95 340.58 61.88 342.03 72.52"/>
  </g>
  <circle class="cls-2" cx="360.78" cy="105" r="62.5"/>
  <text class="cls-15" transform="translate(0 10.04)"><tspan x="0" y="0">a</tspan></text>
  <text class="cls-15" transform="translate(99.78 10.04)"><tspan x="0" y="0">b</tspan></text>
  <text class="cls-15" transform="translate(298.28 10.04)"><tspan x="0" y="0">c</tspan></text>
  <text class="cls-13" transform="translate(275.81 43.52)"><tspan x="0" y="0">F</tspan></text>
  <text class="cls-13" transform="translate(99.78 173.52)"><tspan x="0" y="0">F</tspan></text>
  <text class="cls-13" transform="translate(42.78 197)"><tspan x="0" y="0">F</tspan></text>
  <text class="cls-13" transform="translate(42.78 10.04)"><tspan x="0" y="0">F</tspan></text>
  <text class="cls-13" transform="translate(367.78 60)"><tspan x="0" y="0">F</tspan></text>
  <text class="cls-13" transform="translate(306.66 118.5)"><tspan x="0" y="0">F</tspan></text>
  <text class="cls-13" transform="translate(392.03 148.3)"><tspan x="0" y="0">F</tspan></text>
  <text class="cls-12" transform="translate(112.1 105)"><tspan x="0" y="0">h</tspan></text>
  <text class="cls-16" transform="translate(147.11 48.49)"><tspan class="cls-19" x="0" y="0">Δ</tspan><tspan class="cls-11" x="7.34" y="0">x</tspan></text>
  <text class="cls-16" transform="translate(79.27 112.55) rotate(-90)"><tspan class="cls-11" x="0" y="0">L+</tspan><tspan class="cls-19" x="12.46" y="0">Δ</tspan><tspan class="cls-14" x="19.8" y="0">L</tspan></text>
  <g>
    <line class="cls-7" x1="65.78" y1="149.5" x2="65.78" y2="50.5"/>
    <rect class="cls-17" x="62.53" y="149" width="6.5" height="1"/>
    <rect class="cls-17" x="62.53" y="50" width="6.5" height="1"/>
  </g>
  <text class="cls-12" transform="translate(404.09 55)"><tspan x="0" y="0">V</tspan></text>
  <text class="cls-16" transform="translate(404.09 100)"><tspan class="cls-19" x="0" y="0">Δ</tspan><tspan class="cls-11" x="7.34" y="0">V</tspan></text>
</svg>