<?xml version="1.0" encoding="UTF-8"?>
<svg id="Layer_1" data-name="Layer 1" xmlns="http://www.w3.org/2000/svg" viewBox="0 0 378.02 317.44">
  <defs>
    <style>
      .cls-1 {
        letter-spacing: -.01em;
      }

      .cls-2 {
        letter-spacing: 0em;
      }

      .cls-3 {
        letter-spacing: 0em;
      }

      .cls-4 {
        letter-spacing: 0em;
      }

      .cls-5 {
        letter-spacing: 0em;
      }

      .cls-6 {
        stroke-dasharray: 0 0 2.03 2.03;
      }

      .cls-6, .cls-7, .cls-8, .cls-9, .cls-10, .cls-11, .cls-12 {
        fill: none;
        stroke-miterlimit: 10;
      }

      .cls-6, .cls-7, .cls-11 {
        stroke: #4d4d4f;
      }

      .cls-7 {
        stroke-dasharray: 0 0 2.03 2.03;
      }

      .cls-8 {
        stroke: #2e3192;
        stroke-width: 2px;
      }

      .cls-9 {
        stroke: #231f20;
      }

      .cls-10, .cls-12 {
        stroke: #636466;
      }

      .cls-13 {
        letter-spacing: 0em;
      }

      .cls-12 {
        stroke-dasharray: 0 0 3.9 3.9;
      }

      .cls-14 {
        font-family: MyriadPro-Regular, 'Myriad Pro';
        font-size: 12px;
      }

      .cls-14, .cls-15 {
        fill: #231f20;
      }

      .cls-16 {
        letter-spacing: .01em;
      }

      .cls-17 {
        fill: #2e3192;
      }

      .cls-17, .cls-15 {
        stroke-width: 0px;
      }
    </style>
  </defs>
  <g>
    <path class="cls-10" d="m162.92,303.52c.64-.17,1.29-.33,1.94-.49"/>
    <path class="cls-12" d="m168.66,302.14c11.87-2.62,24.2-4,36.85-4,13.3,0,26.24,1.53,38.66,4.41"/>
    <path class="cls-10" d="m246.08,303.01c.65.16,1.29.32,1.94.49"/>
  </g>
  <path class="cls-9" d="m251.53,290.26c-14.64-4.1-30.07-6.3-46.02-6.3s-31.38,2.2-46.02,6.3l6.87,26.57c12.57-2.96,25.68-4.53,39.15-4.53s26.58,1.57,39.15,4.53l6.87-26.57Z"/>
  <rect class="cls-9" x="21.26" y=".5" width="85.04" height="85.04"/>
  <rect class="cls-9" x="177.17" y="14.67" width="56.69" height="56.69"/>
  <g>
    <polyline class="cls-11" points="248.03 84.54 248.03 85.54 247.03 85.54"/>
    <line class="cls-7" x1="245.01" y1="85.54" x2="165.01" y2="85.54"/>
    <polyline class="cls-11" points="163.99 85.54 162.99 85.54 162.99 84.54"/>
    <line class="cls-7" x1="162.99" y1="82.51" x2="162.99" y2="2.51"/>
    <polyline class="cls-11" points="162.99 1.5 162.99 .5 163.99 .5"/>
    <line class="cls-7" x1="166.02" y1=".5" x2="246.02" y2=".5"/>
    <polyline class="cls-11" points="247.03 .5 248.03 .5 248.03 1.5"/>
    <line class="cls-7" x1="248.03" y1="3.53" x2="248.03" y2="83.53"/>
  </g>
  <g>
    <line class="cls-8" x1="113.39" y1="43.02" x2="131.14" y2="43.02"/>
    <polygon class="cls-17" points="141.73 43.02 126.81 49.12 130.35 43.02 126.81 36.92 141.73 43.02"/>
  </g>
  <g>
    <line class="cls-9" x1="162.99" y1="43.02" x2="171.87" y2="43.02"/>
    <polygon class="cls-15" points="177.17 43.02 169.7 46.07 171.47 43.02 169.7 39.97 177.17 43.02"/>
  </g>
  <g>
    <line class="cls-9" x1="162.99" y1="57.19" x2="171.87" y2="57.19"/>
    <polygon class="cls-15" points="177.17 57.19 169.7 60.24 171.47 57.19 169.7 54.14 177.17 57.19"/>
  </g>
  <g>
    <line class="cls-9" x1="162.99" y1="28.85" x2="171.87" y2="28.85"/>
    <polygon class="cls-15" points="177.17 28.85 169.7 31.9 171.47 28.85 169.7 25.8 177.17 28.85"/>
  </g>
  <g>
    <line class="cls-9" x1="162.99" y1=".5" x2="173.42" y2="10.93"/>
    <polygon class="cls-15" points="177.17 14.67 169.73 11.55 173.14 10.65 174.04 7.24 177.17 14.67"/>
  </g>
  <g>
    <line class="cls-9" x1="162.99" y1="85.54" x2="173.42" y2="75.11"/>
    <polygon class="cls-15" points="177.17 71.37 174.05 78.8 173.14 75.39 169.73 74.49 177.17 71.37"/>
  </g>
  <g>
    <line class="cls-9" x1="248.03" y1="85.54" x2="237.6" y2="75.11"/>
    <polygon class="cls-15" points="233.86 71.37 241.29 74.49 237.88 75.39 236.98 78.8 233.86 71.37"/>
  </g>
  <g>
    <line class="cls-9" x1="205.51" y1="85.54" x2="205.51" y2="76.66"/>
    <polygon class="cls-15" points="205.51 71.37 208.56 78.83 205.51 77.06 202.46 78.83 205.51 71.37"/>
  </g>
  <g>
    <line class="cls-9" x1="219.69" y1="85.54" x2="219.69" y2="76.66"/>
    <polygon class="cls-15" points="219.69 71.37 222.73 78.83 219.69 77.06 216.64 78.83 219.69 71.37"/>
  </g>
  <g>
    <line class="cls-9" x1="191.34" y1="85.54" x2="191.34" y2="76.66"/>
    <polygon class="cls-15" points="191.34 71.37 194.39 78.83 191.34 77.06 188.29 78.83 191.34 71.37"/>
  </g>
  <g>
    <line class="cls-9" x1="248.03" y1="43.02" x2="239.15" y2="43.02"/>
    <polygon class="cls-15" points="233.86 43.02 241.32 39.97 239.55 43.02 241.32 46.07 233.86 43.02"/>
  </g>
  <g>
    <line class="cls-9" x1="248.03" y1="28.85" x2="239.15" y2="28.85"/>
    <polygon class="cls-15" points="233.86 28.85 241.32 25.8 239.55 28.85 241.32 31.89 233.86 28.85"/>
  </g>
  <g>
    <line class="cls-9" x1="248.03" y1="57.19" x2="239.15" y2="57.19"/>
    <polygon class="cls-15" points="233.86 57.19 241.32 54.14 239.55 57.19 241.32 60.24 233.86 57.19"/>
  </g>
  <g>
    <line class="cls-9" x1="248.03" y1=".5" x2="237.6" y2="10.93"/>
    <polygon class="cls-15" points="233.86 14.67 236.98 7.24 237.88 10.65 241.29 11.55 233.86 14.67"/>
  </g>
  <g>
    <line class="cls-9" x1="205.51" y1=".5" x2="205.51" y2="9.38"/>
    <polygon class="cls-15" points="205.51 14.67 202.46 7.21 205.51 8.98 208.56 7.21 205.51 14.67"/>
  </g>
  <g>
    <line class="cls-9" x1="191.34" y1=".5" x2="191.34" y2="9.38"/>
    <polygon class="cls-15" points="191.34 14.67 188.29 7.21 191.34 8.98 194.39 7.21 191.34 14.67"/>
  </g>
  <g>
    <line class="cls-9" x1="219.69" y1=".5" x2="219.69" y2="9.38"/>
    <polygon class="cls-15" points="219.69 14.67 216.64 7.21 219.69 8.98 222.73 7.21 219.69 14.67"/>
  </g>
  <rect class="cls-9" x="21.26" y="113.89" width="85.04" height="85.04"/>
  <g>
    <line class="cls-8" x1="113.39" y1="156.41" x2="131.14" y2="156.41"/>
    <polygon class="cls-17" points="141.73 156.41 126.81 162.5 130.35 156.41 126.81 150.31 141.73 156.41"/>
  </g>
  <g>
    <polyline class="cls-11" points="248.03 197.93 248.03 198.93 247.03 198.93"/>
    <line class="cls-7" x1="245.01" y1="198.93" x2="165.01" y2="198.93"/>
    <polyline class="cls-11" points="163.99 198.93 162.99 198.93 162.99 197.93"/>
    <line class="cls-7" x1="162.99" y1="195.9" x2="162.99" y2="115.9"/>
    <polyline class="cls-11" points="162.99 114.89 162.99 113.89 163.99 113.89"/>
    <line class="cls-7" x1="166.02" y1="113.89" x2="246.02" y2="113.89"/>
    <polyline class="cls-11" points="247.03 113.89 248.03 113.89 248.03 114.89"/>
    <line class="cls-7" x1="248.03" y1="116.91" x2="248.03" y2="196.91"/>
  </g>
  <polygon class="cls-9" points="223.48 198.93 138.44 198.93 187.54 113.89 272.58 113.89 223.48 198.93"/>
  <g>
    <line class="cls-9" x1="248.03" y1="132.31" x2="256.91" y2="132.31"/>
    <polygon class="cls-15" points="262.21 132.31 254.74 135.36 256.51 132.31 254.74 129.26 262.21 132.31"/>
  </g>
  <g>
    <line class="cls-9" x1="162.99" y1="132.31" x2="171.87" y2="132.31"/>
    <polygon class="cls-15" points="177.17 132.31 169.7 135.36 171.47 132.31 169.7 129.26 177.17 132.31"/>
  </g>
  <g>
    <line class="cls-9" x1="162.99" y1="180.5" x2="154.11" y2="180.5"/>
    <polygon class="cls-15" points="148.82 180.5 156.28 177.45 154.51 180.5 156.28 183.55 148.82 180.5"/>
  </g>
  <g>
    <line class="cls-9" x1="248.03" y1="180.5" x2="239.15" y2="180.5"/>
    <polygon class="cls-15" points="233.86 180.5 241.32 177.45 239.55 180.5 241.32 183.55 233.86 180.5"/>
  </g>
  <g>
    <line class="cls-9" x1="219.69" y1="109.63" x2="242.74" y2="109.63"/>
    <polygon class="cls-15" points="248.03 109.63 240.57 112.68 242.34 109.63 240.57 106.59 248.03 109.63"/>
  </g>
  <g>
    <line class="cls-9" x1="168.29" y1="203.18" x2="191.34" y2="203.18"/>
    <polygon class="cls-15" points="162.99 203.18 170.45 206.23 168.68 203.18 170.45 200.13 162.99 203.18"/>
  </g>
  <text class="cls-14" transform="translate(0 10.54)"><tspan x="0" y="0">(a)</tspan></text>
  <text class="cls-14" transform="translate(288.12 46.54)"><tspan x="0" y="0">pu</tspan><tspan class="cls-1" x="13.44" y="0">r</tspan><tspan class="cls-3" x="17.24" y="0">e </tspan><tspan class="cls-5" x="25.8" y="0">c</tspan><tspan x="31.1" y="0">omp</tspan><tspan class="cls-13" x="54.53" y="0">r</tspan><tspan x="58.33" y="0">ession</tspan></text>
  <text class="cls-14" transform="translate(0 123.93)"><tspan x="0" y="0">(</tspan><tspan class="cls-4" x="3.41" y="0">b</tspan><tspan class="cls-3" x="10.2" y="0">)</tspan></text>
  <text class="cls-14" transform="translate(288.12 159.93)"><tspan x="0" y="0">pu</tspan><tspan class="cls-1" x="13.44" y="0">r</tspan><tspan class="cls-3" x="17.24" y="0">e shear</tspan></text>
  <rect class="cls-9" x="21.26" y="227.27" width="85.04" height="28.35"/>
  <g>
    <polyline class="cls-11" points="248.03 254.62 248.03 255.62 247.03 255.62"/>
    <line class="cls-7" x1="245.01" y1="255.62" x2="165.01" y2="255.62"/>
    <polyline class="cls-11" points="163.99 255.62 162.99 255.62 162.99 254.62"/>
    <line class="cls-6" x1="162.99" y1="252.59" x2="162.99" y2="229.28"/>
    <polyline class="cls-11" points="162.99 228.27 162.99 227.27 163.99 227.27"/>
    <line class="cls-7" x1="166.02" y1="227.27" x2="246.02" y2="227.27"/>
    <polyline class="cls-11" points="247.03 227.27 248.03 227.27 248.03 228.27"/>
    <line class="cls-6" x1="248.03" y1="230.3" x2="248.03" y2="253.6"/>
  </g>
  <rect class="cls-9" x="148.82" y="232.94" width="113.39" height="17.01"/>
  <g>
    <line class="cls-9" x1="248.03" y1="241.44" x2="256.91" y2="241.44"/>
    <polygon class="cls-15" points="262.21 241.44 254.74 244.49 256.51 241.44 254.74 238.4 262.21 241.44"/>
  </g>
  <g>
    <line class="cls-9" x1="154.11" y1="241.44" x2="162.99" y2="241.44"/>
    <polygon class="cls-15" points="148.82 241.44 156.28 244.49 154.51 241.44 156.28 238.4 148.82 241.44"/>
  </g>
  <g>
    <line class="cls-9" x1="205.51" y1="255.62" x2="205.51" y2="252.42"/>
    <polygon class="cls-15" points="205.51 249.95 206.94 253.43 205.51 252.6 204.09 253.43 205.51 249.95"/>
  </g>
  <g>
    <line class="cls-9" x1="205.51" y1="230.47" x2="205.51" y2="227.27"/>
    <polygon class="cls-15" points="205.51 232.94 206.94 229.46 205.51 230.29 204.09 229.46 205.51 232.94"/>
  </g>
  <g>
    <line class="cls-9" x1="248.03" y1="227.27" x2="257.29" y2="230.97"/>
    <polygon class="cls-15" points="262.21 232.94 254.14 233 256.92 230.83 256.41 227.34 262.21 232.94"/>
  </g>
  <g>
    <line class="cls-9" x1="226.77" y1="255.62" x2="231.1" y2="252.15"/>
    <polygon class="cls-15" points="233.86 249.95 231.24 254.64 230.9 252.32 228.7 251.47 233.86 249.95"/>
  </g>
  <g>
    <line class="cls-9" x1="231.1" y1="230.74" x2="226.77" y2="227.27"/>
    <polygon class="cls-15" points="233.86 232.94 231.24 228.25 230.9 230.57 228.7 231.42 233.86 232.94"/>
  </g>
  <g>
    <line class="cls-9" x1="184.25" y1="255.62" x2="179.92" y2="252.15"/>
    <polygon class="cls-15" points="177.17 249.95 182.32 251.47 180.13 252.32 179.78 254.64 177.17 249.95"/>
  </g>
  <g>
    <line class="cls-9" x1="179.92" y1="230.74" x2="184.25" y2="227.27"/>
    <polygon class="cls-15" points="177.17 232.94 182.32 231.42 180.13 230.57 179.78 228.25 177.17 232.94"/>
  </g>
  <g>
    <line class="cls-9" x1="248.03" y1="255.62" x2="257.29" y2="251.92"/>
    <polygon class="cls-15" points="262.21 249.95 256.41 255.55 256.92 252.06 254.14 249.89 262.21 249.95"/>
  </g>
  <g>
    <line class="cls-9" x1="162.99" y1="227.27" x2="153.74" y2="230.97"/>
    <polygon class="cls-15" points="148.82 232.94 154.62 227.34 154.1 230.83 156.88 233 148.82 232.94"/>
  </g>
  <g>
    <line class="cls-9" x1="162.99" y1="255.62" x2="153.74" y2="251.92"/>
    <polygon class="cls-15" points="148.82 249.95 156.88 249.89 154.1 252.06 154.62 255.55 148.82 249.95"/>
  </g>
  <text class="cls-14" transform="translate(0 237.32)"><tspan x="0" y="0">(c)</tspan></text>
  <text class="cls-14" transform="translate(288.12 244.97)"><tspan class="cls-2" x="0" y="0">e</tspan><tspan class="cls-16" x="5.98" y="0">x</tspan><tspan class="cls-5" x="11.69" y="0">t</tspan><tspan x="15.59" y="0">ension</tspan></text>
  <g>
    <line class="cls-8" x1="113.39" y1="241.44" x2="131.14" y2="241.44"/>
    <polygon class="cls-17" points="141.73 241.44 126.81 247.54 130.35 241.44 126.81 235.35 141.73 241.44"/>
  </g>
  <rect class="cls-9" x="21.26" y="283.96" width="85.04" height="28.35"/>
  <text class="cls-14" transform="translate(0 294.01)"><tspan x="0" y="0">(d)</tspan></text>
  <text class="cls-14" transform="translate(288.12 301.66)"><tspan x="0" y="0">bending</tspan></text>
  <g>
    <line class="cls-8" x1="113.39" y1="298.14" x2="131.14" y2="298.14"/>
    <polygon class="cls-17" points="141.73 298.14 126.81 304.24 130.35 298.14 126.81 292.04 141.73 298.14"/>
  </g>
  <g>
    <polyline class="cls-11" points="248.03 311.31 248.03 312.31 247.03 312.31"/>
    <line class="cls-7" x1="245.01" y1="312.31" x2="165.01" y2="312.31"/>
    <polyline class="cls-11" points="163.99 312.31 162.99 312.31 162.99 311.31"/>
    <line class="cls-6" x1="162.99" y1="309.28" x2="162.99" y2="285.98"/>
    <polyline class="cls-11" points="162.99 284.96 162.99 283.96 163.99 283.96"/>
    <line class="cls-7" x1="166.02" y1="283.96" x2="246.02" y2="283.96"/>
    <polyline class="cls-11" points="247.03 283.96 248.03 283.96 248.03 284.96"/>
    <line class="cls-6" x1="248.03" y1="286.99" x2="248.03" y2="310.3"/>
  </g>
  <g>
    <line class="cls-9" x1="248.03" y1="283.96" x2="250.33" y2="288.1"/>
    <polygon class="cls-15" points="251.53 290.26 248.6 287.91 250.24 287.94 251.09 286.53 251.53 290.26"/>
  </g>
  <g>
    <line class="cls-9" x1="162.99" y1="283.96" x2="160.69" y2="288.1"/>
    <polygon class="cls-15" points="159.49 290.26 159.94 286.53 160.78 287.94 162.43 287.91 159.49 290.26"/>
  </g>
  <g>
    <line class="cls-9" x1="166.36" y1="316.84" x2="164.47" y2="314.29"/>
    <polygon class="cls-15" points="162.99 312.31 166.21 314.25 164.58 314.44 163.93 315.95 162.99 312.31"/>
  </g>
  <g>
    <line class="cls-9" x1="244.66" y1="316.84" x2="246.56" y2="314.29"/>
    <polygon class="cls-15" points="248.03 312.31 247.09 315.95 246.45 314.44 244.81 314.25 248.03 312.31"/>
  </g>
</svg>