<?xml version="1.0" encoding="UTF-8"?>
<svg id="Layer_1" data-name="Layer 1" xmlns="http://www.w3.org/2000/svg" viewBox="0 0 303 203">
  <defs>
    <style>
      .cls-1 {
        stroke: #231f20;
        stroke-linecap: round;
        stroke-width: 3px;
      }

      .cls-1, .cls-2, .cls-3, .cls-4, .cls-5 {
        fill: none;
        stroke-miterlimit: 10;
      }

      .cls-2 {
        stroke-dasharray: 0 0 5.34 5.34;
      }

      .cls-2, .cls-4, .cls-5 {
        stroke: #2e3192;
      }

      .cls-6 {
        font-size: 16px;
      }

      .cls-6, .cls-7 {
        font-family: MyriadPro-Regular, 'Myriad Pro';
      }

      .cls-6, .cls-7, .cls-8 {
        fill: #2e3192;
      }

      .cls-3 {
        stroke: #0072bc;
      }

      .cls-7 {
        font-size: 12px;
      }

      .cls-5 {
        stroke-dasharray: 0 0 4.98 4.98;
      }

      .cls-8, .cls-9 {
        stroke-width: 0px;
      }

      .cls-9 {
        fill: #8ed8f8;
      }
    </style>
  </defs>
  <rect class="cls-9" x="1.5" y="31.5" width="300" height="170"/>
  <line class="cls-1" x1="1.5" y1="201.5" x2="301.5" y2="201.5"/>
  <line class="cls-3" x1="1.5" y1="31.5" x2="301.5" y2="31.5"/>
  <line class="cls-1" x1="1.5" y1="201.5" x2="1.5" y2="1.5"/>
  <line class="cls-1" x1="301.5" y1="201.5" x2="301.5" y2="1.5"/>
  <g>
    <polyline class="cls-4" points="246.5 130.87 246.5 133.5 243.87 133.5"/>
    <line class="cls-5" x1="238.89" y1="133.5" x2="161.62" y2="133.5"/>
    <polyline class="cls-4" points="159.13 133.5 156.5 133.5 156.5 130.87"/>
    <line class="cls-2" x1="156.5" y1="125.53" x2="156.5" y2="74.8"/>
    <polyline class="cls-4" points="156.5 72.13 156.5 69.5 159.13 69.5"/>
    <line class="cls-5" x1="164.11" y1="69.5" x2="241.38" y2="69.5"/>
    <polyline class="cls-4" points="243.87 69.5 246.5 69.5 246.5 72.13"/>
    <line class="cls-2" x1="246.5" y1="77.47" x2="246.5" y2="128.2"/>
  </g>
  <g>
    <line class="cls-4" x1="211.5" y1="133.5" x2="211.5" y2="57.03"/>
    <polygon class="cls-8" points="211.5 53.5 213.53 58.47 211.5 57.29 209.47 58.47 211.5 53.5"/>
  </g>
  <g>
    <line class="cls-4" x1="225.5" y1="69.5" x2="225.5" y2="125.97"/>
    <polygon class="cls-8" points="225.5 129.5 223.47 124.53 225.5 125.71 227.53 124.53 225.5 129.5"/>
  </g>
  <g>
    <line class="cls-4" x1="201.5" y1="101.5" x2="201.5" y2="117.97"/>
    <polygon class="cls-8" points="201.5 121.5 199.47 116.53 201.5 117.71 203.53 116.53 201.5 121.5"/>
  </g>
  <circle class="cls-8" cx="201.5" cy="101.5" r="1"/>
  <text class="cls-6" transform="translate(252.17 72.5)"><tspan x="0" y="0">p</tspan></text>
  <text class="cls-7" transform="translate(260.67 77.5)"><tspan x="0" y="0">1</tspan></text>
  <text class="cls-6" transform="translate(252.17 136.5)"><tspan x="0" y="0">p</tspan></text>
  <text class="cls-7" transform="translate(260.67 141.5)"><tspan x="0" y="0">2</tspan></text>
  <text class="cls-6" transform="translate(207.25 147.5)"><tspan x="0" y="0">F</tspan></text>
  <text class="cls-7" transform="translate(215.75 152.5)"><tspan x="0" y="0">2</tspan></text>
  <text class="cls-6" transform="translate(221.25 61.5)"><tspan x="0" y="0">F</tspan></text>
  <text class="cls-7" transform="translate(229.75 66.5)"><tspan x="0" y="0">1</tspan></text>
  <text class="cls-6" transform="translate(184.25 106.5)"><tspan x="0" y="0">F</tspan></text>
  <text class="cls-7" transform="translate(191.75 111.5)"><tspan x="0" y="0">g</tspan></text>
  <text class="cls-6" transform="translate(252.17 23.5)"><tspan x="0" y="0">p</tspan></text>
  <text class="cls-7" transform="translate(260.67 28.5)"><tspan x="0" y="0">0</tspan></text>
  <text class="cls-6" transform="translate(132.17 72.5)"><tspan x="0" y="0">z</tspan></text>
  <text class="cls-7" transform="translate(140.67 77.5)"><tspan x="0" y="0">1</tspan></text>
  <text class="cls-6" transform="translate(132.17 136.5)"><tspan x="0" y="0">z</tspan></text>
  <text class="cls-7" transform="translate(140.67 141.5)"><tspan x="0" y="0">2</tspan></text>
  <text class="cls-6" transform="translate(132.17 23.5)"><tspan x="0" y="0">z</tspan></text>
  <text class="cls-7" transform="translate(140.67 28.5)"><tspan x="0" y="0">0</tspan></text>
</svg>