<?xml version="1.0" encoding="UTF-8"?>
<svg id="Layer_1" data-name="Layer 1" xmlns="http://www.w3.org/2000/svg" viewBox="0 0 425 156.09">
  <defs>
    <style>
      .cls-1 {
        stroke-width: 6px;
      }

      .cls-1, .cls-2, .cls-3, .cls-4, .cls-5, .cls-6, .cls-7, .cls-8, .cls-9, .cls-10, .cls-11 {
        fill: none;
      }

      .cls-1, .cls-2, .cls-4, .cls-5, .cls-11 {
        stroke-miterlimit: 10;
      }

      .cls-1, .cls-4, .cls-7, .cls-8, .cls-10, .cls-11 {
        stroke: #231f20;
      }

      .cls-1, .cls-11 {
        stroke-linecap: round;
      }

      .cls-12 {
        letter-spacing: .02em;
      }

      .cls-13, .cls-14, .cls-15, .cls-16, .cls-17, .cls-18, .cls-19 {
        font-size: 16px;
      }

      .cls-13, .cls-18, .cls-20, .cls-21 {
        fill: #2e3192;
      }

      .cls-14, .cls-16, .cls-17, .cls-19, .cls-22 {
        fill: #231f20;
      }

      .cls-15, .cls-23 {
        fill: #c9252c;
      }

      .cls-24 {
        letter-spacing: 0em;
      }

      .cls-25, .cls-17, .cls-18 {
        font-family: MyriadPro-It, 'Myriad Pro';
        font-style: italic;
      }

      .cls-16, .cls-26 {
        font-family: Symbol, Symbol;
      }

      .cls-27, .cls-19, .cls-20 {
        font-family: MyriadPro-Regular, Helvetica;
      }

      .cls-2 {
        stroke: #c9252c;
        stroke-width: 2.5px;
      }

      .cls-3 {
        stroke-dasharray: 0 0 6.22 6.22;
      }

      .cls-3, .cls-4, .cls-5, .cls-6, .cls-7, .cls-8, .cls-9, .cls-10 {
        stroke-width: 2px;
      }

      .cls-3, .cls-5, .cls-6, .cls-9 {
        stroke: #2e3192;
      }

      .cls-3, .cls-6, .cls-9 {
        stroke-linejoin: round;
      }

      .cls-28 {
        letter-spacing: 0em;
      }

      .cls-6 {
        stroke-dasharray: 0 0 6.27 6.27;
      }

      .cls-29 {
        letter-spacing: 0em;
      }

      .cls-7 {
        stroke-dasharray: 0 0 2.94 2.94;
      }

      .cls-7, .cls-8, .cls-10 {
        stroke-linejoin: bevel;
      }

      .cls-20 {
        font-size: 12px;
      }

      .cls-21, .cls-22, .cls-23, .cls-30 {
        stroke-width: 0px;
      }

      .cls-30 {
        fill: #8ed8f8;
      }

      .cls-10 {
        stroke-dasharray: 0 0 2.94 2.94;
      }

      .cls-11 {
        stroke-width: 6.18px;
      }
    </style>
  </defs>
  <rect class="cls-30" x="68.34" y="32.39" width="300" height="100"/>
  <line class="cls-11" x1="368.34" y1="132.39" x2="68.34" y2="132.39"/>
  <line class="cls-1" x1="368.34" y1="32.39" x2="68.34" y2="32.39"/>
  <g>
    <line class="cls-4" x1="14.34" y1="131.39" x2="14.34" y2="33.39"/>
    <rect class="cls-22" x="7.84" y="130.39" width="13" height="2"/>
    <rect class="cls-22" x="7.84" y="32.39" width="13" height="2"/>
  </g>
  <text class="cls-17" transform="translate(0 87.09)"><tspan x="0" y="0">h</tspan></text>
  <g>
    <line class="cls-5" x1="168.34" y1="22.39" x2="211.28" y2="22.39"/>
    <polygon class="cls-21" points="218.34 22.39 208.39 26.46 210.75 22.39 208.39 18.33 218.34 22.39"/>
  </g>
  <g>
    <line class="cls-5" x1="168.34" y1="52.39" x2="201.28" y2="52.39"/>
    <polygon class="cls-21" points="208.34 52.39 198.39 56.46 200.75 52.39 198.39 48.33 208.34 52.39"/>
  </g>
  <g>
    <line class="cls-5" x1="168.34" y1="72.39" x2="191.28" y2="72.39"/>
    <polygon class="cls-21" points="198.34 72.39 188.39 76.46 190.75 72.39 188.39 68.33 198.34 72.39"/>
  </g>
  <g>
    <line class="cls-5" x1="168.34" y1="92.39" x2="181.28" y2="92.39"/>
    <polygon class="cls-21" points="188.34 92.39 178.39 96.46 180.75 92.39 178.39 88.33 188.34 92.39"/>
  </g>
  <g>
    <line class="cls-5" x1="168.34" y1="112.39" x2="171.28" y2="112.39"/>
    <polygon class="cls-21" points="178.34 112.39 168.39 116.46 170.75 112.39 168.39 108.33 178.34 112.39"/>
  </g>
  <g>
    <line class="cls-9" x1="218.34" y1="32.39" x2="216.99" y2="35.08"/>
    <line class="cls-3" x1="214.21" y1="40.64" x2="171.07" y2="126.93"/>
    <polyline class="cls-9" points="169.68 129.71 168.34 132.39 168.34 129.39"/>
    <line class="cls-6" x1="168.34" y1="123.13" x2="168.34" y2="38.53"/>
    <line class="cls-9" x1="168.34" y1="35.39" x2="168.34" y2="32.39"/>
  </g>
  <text class="cls-18" transform="translate(179.09 13.39)"><tspan x="0" y="0">v</tspan></text>
  <text class="cls-20" transform="translate(187.59 18.39)"><tspan class="cls-24" x="0" y="0">t</tspan><tspan x="3.9" y="0">op</tspan></text>
  <g>
    <line class="cls-2" x1="368.34" y1="32.39" x2="409.51" y2="32.39"/>
    <polygon class="cls-23" points="418.34 32.39 405.9 37.47 408.85 32.39 405.9 27.31 418.34 32.39"/>
  </g>
  <text class="cls-15" transform="translate(371.58 22.39)"><tspan class="cls-26" x="0" y="0">𝜎</tspan><tspan class="cls-25" x="9.65" y="0" xml:space="preserve"> = F/A</tspan></text>
  <text class="cls-19" transform="translate(166.34 152.09)"><tspan x="0" y="0">stationary plate</tspan></text>
  <text class="cls-13" transform="translate(36.31 137.09)"><tspan class="cls-25" x="0" y="0">z</tspan><tspan class="cls-27" x="6.64" y="0">=0</tspan></text>
  <text class="cls-13" transform="translate(36.31 37.09)"><tspan class="cls-25" x="0" y="0">z</tspan><tspan class="cls-27" x="6.64" y="0">=</tspan><tspan class="cls-25" x="16.18" y="0">h</tspan></text>
  <g>
    <line class="cls-8" x1="328.34" y1="32.39" x2="327.67" y2="33.73"/>
    <line class="cls-7" x1="326.35" y1="36.36" x2="279.66" y2="129.74"/>
    <polyline class="cls-8" points="279.01 131.05 278.34 132.39 278.34 130.89"/>
    <line class="cls-10" x1="278.34" y1="127.95" x2="278.34" y2="35.36"/>
    <line class="cls-8" x1="278.34" y1="33.89" x2="278.34" y2="32.39"/>
  </g>
  <g>
    <line class="cls-4" x1="278.84" y1="22.39" x2="327.84" y2="22.39"/>
    <rect class="cls-22" x="278.34" y="19.14" width="1" height="6.5"/>
    <rect class="cls-22" x="327.34" y="19.14" width="1" height="6.5"/>
  </g>
  <text class="cls-14" transform="translate(295.04 13.39)"><tspan class="cls-27" x="0" y="0">d</tspan><tspan class="cls-25" x="9.02" y="0">x</tspan></text>
  <text class="cls-16" transform="translate(280.61 104.86)"><tspan x="0" y="0">𝜃</tspan></text>
</svg>