<?xml version="1.0" encoding="UTF-8"?>
<svg id="Layer_1" data-name="Layer 1" xmlns="http://www.w3.org/2000/svg" viewBox="0 0 181.77 91.06">
  <defs>
    <style>
      .cls-1 {
        stroke: #ed1c24;
      }

      .cls-1, .cls-2, .cls-3, .cls-4, .cls-5 {
        fill: none;
      }

      .cls-1, .cls-2, .cls-4, .cls-5 {
        stroke-miterlimit: 3.25;
      }

      .cls-1, .cls-3 {
        stroke-width: 2px;
      }

      .cls-1, .cls-5 {
        stroke-linecap: round;
      }

      .cls-2 {
        stroke: #676767;
        stroke-width: .2px;
      }

      .cls-6, .cls-7 {
        font-family: MyriadPro-It, 'Myriad Pro';
        font-style: italic;
      }

      .cls-8, .cls-9 {
        font-family: MyriadPro-Regular, 'Myriad Pro';
      }

      .cls-7, .cls-10 {
        font-size: 12px;
      }

      .cls-7, .cls-10, .cls-11 {
        fill: #231f20;
      }

      .cls-3 {
        stroke-miterlimit: 10;
      }

      .cls-3, .cls-4 {
        stroke: #231f20;
      }

      .cls-9 {
        letter-spacing: 0em;
      }

      .cls-11, .cls-12 {
        stroke-width: 0px;
      }

      .cls-12 {
        fill: #ed1c24;
      }

      .cls-5 {
        stroke: #5e82b6;
        stroke-width: 3px;
      }
    </style>
  </defs>
  <g>
    <line class="cls-4" x1="6.77" y1="76.89" x2="178.24" y2="76.89"/>
    <polygon class="cls-11" points="181.77 76.89 176.79 78.92 177.97 76.89 176.79 74.86 181.77 76.89"/>
  </g>
  <g>
    <line class="cls-4" x1="10.14" y1="78.01" x2="10.14" y2="56.54"/>
    <polygon class="cls-11" points="10.14 53.01 12.17 57.99 10.14 56.81 8.11 57.99 10.14 53.01"/>
  </g>
  <polyline class="cls-5" points="10.14 76.89 10.19 76.87 10.24 76.85 10.34 76.81 10.54 76.73 10.93 76.58 11.73 76.27 13.32 75.64 16.76 74.3 19.98 73.05 23.13 71.84 26.55 70.55 29.75 69.38 33.2 68.13 36.6 66.95 39.77 65.89 43.2 64.78 46.41 63.79 49.56 62.88 52.97 61.94 56.15 61.13 59.6 60.32 62.99 59.59 66.15 58.98 69.57 58.39 69.62 58.38 69.67 58.38 69.77 58.36 69.97 58.33 70.37 58.27 71.17 58.15 72.77 57.92 72.88 57.9 72.99 57.89 73.2 57.86 73.64 57.8 74.5 57.69 76.24 57.49 76.45 57.47 76.66 57.44 77.09 57.4 77.94 57.31 77.99 57.3 78.04 57.3 78.15 57.29 78.36 57.27 78.79 57.23 79.64 57.15 79.74 57.14 79.84 57.14 80.04 57.12 80.43 57.08 81.23 57.02 81.27 57.02 81.33 57.02 81.42 57.01 81.62 57 82.02 56.97 82.81 56.92 82.87 56.91 82.92 56.91 83.03 56.9 83.24 56.89 83.67 56.86 83.73 56.86 83.78 56.86 84.1 56.84 84.53 56.82 84.59 56.82 84.64 56.81 84.75 56.81 85.39 56.78 86.25 56.74 86.3 56.74 86.35 56.74 86.45 56.74 86.66 56.73 87.06 56.72 87.11 56.72 87.26 56.71 87.46 56.71 87.86 56.69 87.91 56.69 87.96 56.69 88.06 56.69 88.26 56.68 88.31 56.68 88.36 56.68 88.46 56.68 88.66 56.68 88.71 56.68 88.76 56.67 88.86 56.67 89.07 56.67 89.12 56.67 89.17 56.67 89.27 56.67 89.47 56.67 89.52 56.67 89.57 56.66 89.71 56.66 89.76 56.66 89.91 56.66 89.96 56.66 90.16 56.66 90.25 56.66 90.55 56.66 90.6 56.66 91.58 56.66 91.63 56.66 91.93 56.66 92.03 56.66 92.12 56.66 92.22 56.66 92.32 56.66 92.42 56.66 92.62 56.67 92.72 56.67 92.83 56.67 93.04 56.67 93.15 56.67 93.26 56.67 93.47 56.68 93.52 56.68 93.58 56.68 93.68 56.68 93.9 56.69 94.33 56.7 94.38 56.7 94.43 56.7 94.54 56.7 94.75 56.71 95.18 56.72 95.23 56.72 95.29 56.72 95.39 56.73 95.61 56.73 96.03 56.75 96.08 56.75 96.13 56.75 96.83 56.78 97.63 56.82 97.68 56.82 97.73 56.82 97.83 56.83 98.03 56.84 98.42 56.86 99.22 56.91 99.33 56.92 99.44 56.92 99.66 56.93 100.09 56.96 100.95 57.03 101 57.03 101.06 57.03 101.17 57.04 101.38 57.06 101.82 57.09 102.68 57.17 102.73 57.17 102.78 57.17 102.89 57.18 103.1 57.2 103.53 57.24 104.38 57.33 106.07 57.5 106.12 57.51 106.17 57.52 106.27 57.53 106.47 57.55 106.86 57.6 107.65 57.69 109.24 57.9 112.67 58.41 115.87 58.95 119.01 59.56 122.42 60.28 125.6 61.03 129.05 61.91 132.26 62.78 135.42 63.7 138.84 64.75 142.04 65.77 145.5 66.93 148.9 68.11 152.07 69.25 155.51 70.52 158.72 71.72 161.86 72.93 165.28 74.25 168.46 75.5 168.52 75.52 168.57 75.54 168.68 75.58 168.91 75.67 169.35 75.84 170.24 76.19 170.29 76.21 170.35 76.24 170.46 76.28 170.68 76.37 171.13 76.54 171.18 76.56 171.24 76.58 171.35 76.63 171.57 76.72 171.63 76.74 171.68 76.76 171.8 76.8 171.85 76.83 171.91 76.85 171.96 76.87 172.02 76.89"/>
  <line class="cls-2" x1="10.14" y1="76.89" x2="10.14" y2="75.89"/>
  <line class="cls-2" x1="10.14" y1="76.89" x2="11.14" y2="76.89"/>
  <line class="cls-5" x1="10.14" y1="4.06" x2="172.02" y2="4.06"/>
  <g>
    <line class="cls-1" x1="10.14" y1="4.06" x2="23.08" y2="4.06"/>
    <polygon class="cls-12" points="30.14 4.06 20.19 8.13 22.55 4.06 20.19 0 30.14 4.06"/>
  </g>
  <g>
    <line class="cls-1" x1="159.08" y1="4.06" x2="172.02" y2="4.06"/>
    <polygon class="cls-12" points="152.02 4.06 161.97 8.13 159.6 4.06 161.97 0 152.02 4.06"/>
  </g>
  <g>
    <line class="cls-3" x1="91.08" y1="14.89" x2="91.08" y2="32.65"/>
    <polygon class="cls-11" points="91.08 43.24 84.98 28.31 91.08 31.86 97.17 28.31 91.08 43.24"/>
  </g>
  <text class="cls-7" transform="translate(176.53 88.06)"><tspan x="0" y="0">z</tspan></text>
  <text class="cls-10" transform="translate(0 50.06)"><tspan class="cls-6" x="0" y="0">w</tspan><tspan class="cls-9" x="8.48" y="0">(</tspan><tspan class="cls-6" x="11.89" y="0">z</tspan><tspan class="cls-8" x="16.87" y="0">)</tspan></text>
  <text class="cls-7" transform="translate(17.76 18.73)"><tspan x="0" y="0">F</tspan></text>
  <text class="cls-7" transform="translate(159.63 18.73)"><tspan x="0" y="0">F</tspan></text>
</svg>