<?xml version="1.0" encoding="UTF-8"?>
<svg id="Layer_1" data-name="Layer 1" xmlns="http://www.w3.org/2000/svg" viewBox="0 0 362.34 137.65">
  <defs>
    <style>
      .cls-1 {
        font-size: 12.09px;
      }

      .cls-1, .cls-2, .cls-3, .cls-4 {
        fill: #2e3192;
      }

      .cls-1, .cls-3 {
        font-family: MyriadPro-Regular, 'Myriad Pro';
      }

      .cls-5, .cls-6, .cls-7, .cls-8, .cls-9, .cls-10, .cls-11, .cls-12 {
        fill: none;
      }

      .cls-5, .cls-13, .cls-14, .cls-15 {
        stroke-width: 0px;
      }

      .cls-2 {
        font-size: 16px;
      }

      .cls-2, .cls-4 {
        font-family: MyriadPro-It, 'Myriad Pro';
        font-style: italic;
      }

      .cls-6 {
        stroke-dasharray: 0 0 5 5;
      }

      .cls-6, .cls-7, .cls-8, .cls-9, .cls-10, .cls-11, .cls-12 {
        stroke-miterlimit: 10;
      }

      .cls-6, .cls-7, .cls-8, .cls-9, .cls-10, .cls-12 {
        stroke-width: 2px;
      }

      .cls-6, .cls-8, .cls-11, .cls-12 {
        stroke: #231f20;
      }

      .cls-7 {
        stroke-dasharray: 0 3;
      }

      .cls-7, .cls-10 {
        stroke: #2e3192;
      }

      .cls-9 {
        stroke: #0072bc;
      }

      .cls-13 {
        fill: #00a651;
      }

      .cls-13, .cls-14 {
        opacity: .5;
      }

      .cls-14 {
        fill: #8ed8f8;
      }

      .cls-12 {
        stroke-dasharray: 0 0 4.8 4.8;
      }

      .cls-3 {
        font-size: 12px;
      }

      .cls-4 {
        font-size: 16.11px;
      }

      .cls-15 {
        fill: #0072bc;
      }
    </style>
  </defs>
  <path class="cls-7" d="m294.6,56.69c1.45,0,2.62-4.68,2.62-10.46s-1.17-10.46-2.62-10.46"/>
  <g>
    <line class="cls-8" x1="283.24" y1="44.37" x2="285.74" y2="44.37"/>
    <line class="cls-12" x1="290.54" y1="44.37" x2="355.34" y2="44.37"/>
    <line class="cls-8" x1="357.74" y1="44.37" x2="360.24" y2="44.37"/>
  </g>
  <path class="cls-13" d="m334.16,54.37c-12.95-.06-39.56,2.32-39.56,2.32-1.45,0-2.62-4.68-2.62-10.46s1.17-10.46,2.62-10.46c0,0,26.61-1.43,39.56-1.39h0c-1.38,0-2.5,4.47-2.5,10s1.12,10,2.5,10"/>
  <path class="cls-7" d="m35.24,83.74c3.54,0,6.41,11.8,6.41,26.38s-2.87,26.38-6.41,26.38"/>
  <g>
    <line class="cls-8" x1=".24" y1="110.12" x2="2.74" y2="110.12"/>
    <line class="cls-6" x1="7.74" y1="110.12" x2="355.24" y2="110.12"/>
    <line class="cls-8" x1="357.74" y1="110.12" x2="360.24" y2="110.12"/>
  </g>
  <path class="cls-14" d="m294.6,35.76s-23.13,1.95-34.31,3.34c-45.93,5.71-87.42,21.98-131.22,33.53-31.25,8.24-61.48,10.54-93.53,11.01l-.31.1c-3.54,0-6.41,11.8-6.41,26.38s2.87,26.38,6.41,26.38h-.06c32.19-.78,62.53-4.58,93.9-18.37,43.8-19.25,85.28-46.36,131.22-55.88,11.18-2.32,34.3-5.56,34.3-5.56-1.45,0-2.62-4.68-2.62-10.46s1.17-10.46,2.62-10.46Z"/>
  <path class="cls-7" d="m20.24,83.74c3.54,0,6.41,11.8,6.41,26.38s-2.87,26.38-6.41,26.38"/>
  <path class="cls-13" d="m35.18,83.74c-3.61,0-6.54,11.8-6.54,26.38s2.92,26.38,6.54,26.38h.06s-9.95.15-15,.15l-.06-.16c-3.61,0-6.54-11.8-6.54-26.38s2.92-26.38,6.54-26.38h.06c5.05,0,15-.1,15-.1"/>
  <path class="cls-10" d="m20.24,83.74c37.85,0,72.66-1.57,108.84-11.11,43.8-11.55,85.28-27.81,131.22-33.53,23.98-2.98,49.61-4.8,73.87-4.73"/>
  <path class="cls-10" d="m20.24,136.65c37.85,0,72.66-2.62,108.84-18.52,43.8-19.25,85.28-46.36,131.22-55.88,23.98-4.97,49.61-8,73.87-7.88"/>
  <path class="cls-5" d="m26.83,110.12c0,14.57-2.95,26.38-6.59,26.38s-6.59-11.81-6.59-26.38,2.95-26.38,6.59-26.38,6.59,11.81,6.59,26.38Z"/>
  <path class="cls-13" d="m336.66,44.37c0,5.52-1.12,10-2.5,10s-2.5-4.48-2.5-10,1.12-10,2.5-10,2.5,4.48,2.5,10Z"/>
  <path class="cls-10" d="m334.16,54.37c1.38,0,2.5-4.47,2.5-10s-1.12-10-2.5-10"/>
  <path class="cls-10" d="m20.24,136.5c-3.54,0-6.41-11.8-6.41-26.38s2.87-26.38,6.41-26.38"/>
  <path class="cls-10" d="m334.16,34.37c-1.38,0-2.5,4.47-2.5,10s1.12,10,2.5,10"/>
  <path class="cls-10" d="m294.6,35.76c-1.45,0-2.62,4.68-2.62,10.46s1.17,10.46,2.62,10.46"/>
  <path class="cls-10" d="m35.24,136.5c-3.54,0-6.41-11.8-6.41-26.38s2.87-26.38,6.41-26.38"/>
  <line class="cls-11" x1="349.91" y1="44.37" x2="349.91" y2="110.12"/>
  <g>
    <line class="cls-9" x1="18.15" y1="77.25" x2="32.08" y2="77.25"/>
    <polygon class="cls-15" points="39.15 77.25 29.2 81.31 31.56 77.25 29.2 73.18 39.15 77.25"/>
  </g>
  <text class="cls-2" transform="translate(21.81 67.41)"><tspan x="0" y="0">v</tspan></text>
  <text class="cls-3" transform="translate(29.31 72.41)"><tspan x="0" y="0">1</tspan></text>
  <g>
    <line class="cls-9" x1="292.24" y1="24.55" x2="327.18" y2="24.55"/>
    <polygon class="cls-15" points="334.24 24.55 324.29 28.61 326.65 24.55 324.29 20.48 334.24 24.55"/>
  </g>
  <text class="cls-4" transform="translate(306.41 13.49)"><tspan x="0" y="0">v</tspan></text>
  <text class="cls-1" transform="translate(313.91 18.52)"><tspan x="0" y="0">2</tspan></text>
  <text class="cls-4" transform="translate(353.8 81.98)"><tspan x="0" y="0">h</tspan></text>
  <text class="cls-2" transform="translate(.24 128.41)"><tspan x="0" y="0">p</tspan></text>
  <text class="cls-3" transform="translate(7.74 133.41)"><tspan x="0" y="0">1</tspan></text>
  <text class="cls-4" transform="translate(329.16 64.89)"><tspan x="0" y="0">p</tspan></text>
  <text class="cls-1" transform="translate(336.66 69.93)"><tspan x="0" y="0">2</tspan></text>
</svg>