[
     {
         "question": "What are the polar basis vectors at the point (−3, 4)?",
         "type": "multiple_choice",
         "answers": [
             {
                 "answer": "$\\hat{r} = \\begin{pmatrix} -3/5 \\\\ -4/5 \\end{pmatrix}, \\theta = \\begin{pmatrix} 4/5 \\\\ -3/5 \\end{pmatrix}$",
                 "correct": false,
                 "feedback": ""
             },
             {
                 "answer": "$\\hat{r} = \\begin{pmatrix} -3/5 \\\\ 4/5 \\end{pmatrix}, \\theta = \\begin{pmatrix} -4/5 \\\\ -3/5 \\end{pmatrix}$",
                 "correct": true,
                 "feedback": "Correct."
             },
             {
                 "answer": "$\\hat{r} = \\begin{pmatrix} 3/5 \\\\ 4/5 \\end{pmatrix}, \\theta = \\begin{pmatrix} -4/5 \\\\ 3/5 \\end{pmatrix}$",
                 "correct": false,
                 "feedback": ""
             }
         ]
     }
]