<?xml version="1.0" encoding="UTF-8"?>
<svg id="Layer_1" data-name="Layer 1" xmlns="http://www.w3.org/2000/svg" viewBox="0 0 101 101">
  <defs>
    <style>
      .cls-1 {
        font-family: MyriadPro-It, 'Myriad Pro';
        font-size: 12px;
        font-style: italic;
      }

      .cls-1, .cls-2 {
        fill: #231f20;
      }

      .cls-3 {
        fill: #fbb040;
        stroke: #6d6e71;
      }

      .cls-3, .cls-4 {
        stroke-miterlimit: 10;
      }

      .cls-4 {
        fill: none;
        stroke: #231f20;
      }

      .cls-2 {
        stroke-width: 0px;
      }
    </style>
  </defs>
  <circle class="cls-3" cx="50.5" cy="50.5" r="50"/>
  <circle class="cls-2" cx="50.5" cy="50.5" r="3.5"/>
  <circle class="cls-2" cx="50.5" cy="30.5" r="3.5"/>
  <g>
    <line class="cls-4" x1="35.5" y1="31" x2="35.5" y2="50"/>
    <rect class="cls-2" x="32.25" y="30.5" width="6.5" height="1"/>
    <rect class="cls-2" x="32.25" y="49.5" width="6.5" height="1"/>
  </g>
  <text class="cls-1" transform="translate(23.98 44.02)"><tspan x="0" y="0">d</tspan></text>
</svg>